<svg xmlns="http://www.w3.org/2000/svg" xmlns:xlink="http://www.w3.org/1999/xlink" width="68" height="91" viewBox="0 0 68 91">
    <defs>
        <path id="a" d="M81.795 41.022C81.795 18.376 63.525.02 40.988.02 18.45.019.18 18.376.18 41.022c0 3.077.34 6.073.979 8.956a41.331 41.331 0 0 0-.979 8.955c0 22.646 18.27 41.004 40.808 41.004 22.537 0 40.807-18.358 40.807-41.004 0-3.076-.34-6.072-.979-8.955.64-2.883.98-5.88.98-8.956z"/>
    </defs>
    <g fill="none" fill-rule="evenodd" transform="translate(-7 -9)">
        <mask id="b" fill="#fff">
            <use xlink:href="#a"/>
        </mask>
        <path fill="#EFCF98" d="M29.48 74.33h23.016V47.746H29.48z" mask="url(#b)"/>
        <path fill="#DCBF8B" d="M29.48 62.545c.706.754 1.515 1.42 2.42 1.972l6.5 3.968a11.578 11.578 0 0 0 12.072 0l2.024-1.235V47.746H29.48v14.799" mask="url(#b)"/>
        <path fill="#E9CA94" d="M26.454 50.92c-2.13-.751-3.252-3.156-4.15-5.335-.827-2.008-1.665-4.061-1.834-6.244-.077-.983.038-2.097.754-2.73.556-.491 1.36-.564 2.063-.376.703.188 1.329.604 1.942 1.013 3.822 2.552 3.118 9.33 1.225 13.673M56.591 50.502c2.13-.752 3.252-3.156 4.15-5.335.827-2.008 1.665-4.062 1.834-6.245.077-.983-.038-2.097-.754-2.729-.556-.492-1.36-.565-2.063-.376-.703.188-1.329.603-1.942 1.013-3.821 2.551-3.118 9.33-1.225 13.672" mask="url(#b)"/>
        <path fill="#FBD9A0" d="M53.372 60.776l-6.17 3.969a10.518 10.518 0 0 1-11.462 0l-6.17-3.969c-3.295-2.118-5.306-5.903-5.306-9.983V26.247h34.413v24.546c0 4.08-2.01 7.865-5.305 9.983" mask="url(#b)"/>
        <path fill="#544B39" d="M58.227 45.216c-.136-2.786-.88-5.716-1.564-8.41-9.627-.44-18.867-3.476-27.112-8.755a26.735 26.735 0 0 1-2.58 11.067c-.995 2.082-2.303 4.222-2.037 6.537-.948-2.123-1.73-4.064-2.678-6.188-1.118-2.504-2.243-5.03-2.844-7.725-.601-2.695-.645-5.607.366-8.16 1.188-2.996 3.852-5.284 6.867-5.897 2.006-3.62 5.641-6.358 9.465-7.47C39.934 9.1 43.983 9.182 47.92 9.68c4.74.598 9.828 2.065 12.628 6.157 1.967 2.876 2.462 6.595 2.441 10.145-.039 6.725-1.614 13.393-4.763 19.234" mask="url(#b)"/>
        <path fill="#D2D2CC" d="M40.988 72.578l-11.493-6.135-3.308 3.067-9.227 3.974A21.04 21.04 0 0 0 5.367 86.057L3.513 99.674h37.475V72.578M40.988 72.578l11.493-6.135 3.307 3.067 9.227 3.974a21.04 21.04 0 0 1 11.593 12.573l1.854 13.617H40.988V72.578" mask="url(#b)"/>
        <path fill="#D16B49" d="M40.988 75.063l-5.66 21.3 1.126 3.31h9.067l1.14-3.347-5.673-21.263" mask="url(#b)"/>
        <path fill="#E67956" d="M38.965 79.977l-1.678-2.92c-.9-1.565.225-3.52 2.023-3.52h3.355c1.798 0 2.922 1.955 2.023 3.52l-1.677 2.92c-.9 1.565-3.147 1.565-4.046 0" mask="url(#b)"/>
        <path fill="#F2F2EF" d="M55.788 69.51l3.746 1.613-8.07 16.281-10.476-14.826 11.493-6.135 3.307 3.067" mask="url(#b)"/>
        <path fill="#464F5B" d="M78.462 99.674H45.521L55.788 69.51l9.227 3.974a21.04 21.04 0 0 1 11.593 12.573l1.854 13.617" mask="url(#b)"/>
        <path fill="#5E6879" d="M64.548 73.283c-4.097 3.99-7.997 7.73-7.997 7.73l3.562 3.579-10.058 15.082H45.52L55.788 69.51l8.76 3.773" mask="url(#b)"/>
        <path fill="#F2F2EF" d="M26.187 69.51l-3.745 1.613 8.07 16.281 10.476-14.826-11.493-6.135-3.308 3.067" mask="url(#b)"/>
        <path fill="#464F5B" d="M3.513 99.674h32.941L26.187 69.51l-9.227 3.974A21.04 21.04 0 0 0 5.367 86.057L3.513 99.674" mask="url(#b)"/>
        <path fill="#5E6879" d="M17.427 73.283c4.097 3.99 7.997 7.73 7.997 7.73l-3.562 3.579L31.92 99.674h4.534L26.187 69.51l-8.76 3.773" mask="url(#b)"/>
        <path fill="#B05C41" d="M21.624 50.502H19.08V35.458c0-12.406 10.044-22.499 22.39-22.499 12.347 0 22.391 10.093 22.391 22.499v14.437h-2.544V35.458c0-10.996-8.903-19.942-19.846-19.942-10.944 0-19.847 8.946-19.847 19.942v15.044" mask="url(#b)"/>
        <path fill="#E67956" d="M20.426 50.814c-2.55 0-4.619-2.078-4.619-4.641V40.05c0-2.563 2.068-4.641 4.619-4.641v15.404" mask="url(#b)"/>
        <path fill="#B05C41" d="M21.474 52.045h1.638c.579 0 1.048-.472 1.048-1.053v-15.76c0-.582-.47-1.054-1.048-1.054h-1.638c-.578 0-1.048.472-1.048 1.054v15.76c0 .581.47 1.053 1.048 1.053M43.87 63.496a1.28 1.28 0 0 1-.369-2.502l4.585-1.396a20.644 20.644 0 0 0 13.691-13.635 1.27 1.27 0 0 1 1.594-.838c.67.211 1.044.928.834 1.602a23.19 23.19 0 0 1-15.38 15.317l-4.585 1.397a1.272 1.272 0 0 1-.37.055" mask="url(#b)"/>
        <path fill="#E67956" d="M62.549 35.41c2.55 0 4.619 2.078 4.619 4.64v6.123c0 2.563-2.068 4.64-4.62 4.64V35.41" mask="url(#b)"/>
        <path fill="#B05C41" d="M61.5 34.179h-1.637c-.579 0-1.048.471-1.048 1.053v15.76c0 .581.47 1.053 1.048 1.053H61.5c.58 0 1.049-.472 1.049-1.053v-15.76c0-.582-.47-1.053-1.049-1.053" mask="url(#b)"/>
        <path fill="#E3A74C" d="M55.788 69.51l-3.292-3.053V61.34l.876-.563-.876.563v5.118l3.292 3.053m-2.395-8.748l.01-.006-.01.006m.022-.013l.01-.008-.01.008m.02-.014l.013-.008-.012.008m.018-.012l.05-.033-.05.033m.053-.035l.017-.011-.017.01m1.594-1.285l.016-.015a.948.948 0 0 0-.016.015m.017-.017l.061-.06-.06.06m.065-.065l.012-.011a.558.558 0 0 0-.012.011m.02-.018l.01-.01a.423.423 0 0 0-.01.01m.019-.02l.015-.015-.015.015m.025-.026l.008-.007-.008.007m.02-.019l.006-.006-.007.006m.02-.02l.005-.005-.005.005m3.31-7.011v-.002a20.69 20.69 0 0 1 0 .002m.08-1.39v-1.845 1.845m5.184-15.358v-.033.033m0-.043v-.023.023m0-.033v-.032.032m0-.037v-.027.027m0-.04v-.02.02m0-.033v-.027.027m0-.045l-.001-.015v.015m0-.034v-.01.01m-.001-.081v-.005.005m0-.03v-.002.002m-.869-9.1c.02-3.446-.446-7.052-2.272-9.89 1.826 2.838 2.293 6.444 2.272 9.89M47.921 9.68l-.093-.012.093.012" mask="url(#b)"/>
        <path fill="#D9BD8A" d="M40.988 72.578v-2.92a11.574 11.574 0 0 0 4.59.47l-4.59 2.45" mask="url(#b)"/>
        <path fill="#CAB182" d="M44.436 70.184c-1.163 0-2.326-.175-3.448-.526v-3.226a10.575 10.575 0 0 0 6.214-1.687l5.294-3.406v5.118l-.015-.014-6.903 3.684c-.38.038-.761.057-1.142.057" mask="url(#b)"/>
        <path fill="#D4B986" d="M58.677 48.97v-4.616c.047-.09.093-.182.138-.274v4.717a7.01 7.01 0 0 1-.138.17v.004" mask="url(#b)"/>
        <path fill="#E9C993" d="M41.47 66.443c-.16 0-.321-.004-.482-.011V33.696a53.54 53.54 0 0 0 15.675 3.11c.684 2.694 1.428 5.624 1.564 8.41.154-.285.304-.573.45-.862V50.816a12.34 12.34 0 0 1-.08 1.388v.002a20.595 20.595 0 0 1-10.51 7.392l-4.585 1.396a1.28 1.28 0 0 0 .368 2.502c.122 0 .247-.018.37-.055l4.585-1.397a23.112 23.112 0 0 0 7.23-3.692 11.382 11.382 0 0 1-.705.801l-.019.02h-.001l-.038.04c-.002 0-.003.002-.005.004l-.013.014-.007.006a.276.276 0 0 1-.011.012l-.008.007-.01.011-.015.015-.01.01-.01.01-.007.007-.012.011-.005.006-.06.06h-.002l-.016.016c-.483.47-1.009.895-1.574 1.272l-.003.003-.017.01-.003.003-.05.033c-.002 0-.004.003-.006.004l-.012.008-.01.006-.011.008-.012.007-.01.006-.021.014-6.17 3.969a10.575 10.575 0 0 1-5.731 1.698" mask="url(#b)"/>
        <path fill="#4D4535" d="M58.227 45.216c-.136-2.786-.88-5.716-1.564-8.41a53.54 53.54 0 0 1-15.675-3.11V15.521c.16-.003.321-.005.483-.005 10.516 0 19.148 8.26 19.806 18.663h-1.414c-.579 0-1.048.471-1.048 1.053v8.848a37.382 37.382 0 0 1-.588 1.136m4.65-16.365C60.06 19.659 51.53 12.959 41.47 12.959c-.161 0-.323.002-.483.006V9.39a29.21 29.21 0 0 1 1.865-.058c1.66 0 3.328.13 4.975.335l.093.012c4.74.598 9.828 2.065 12.628 6.157.057.085.114.17.169.255 1.826 2.838 2.293 6.444 2.272 9.89a43.972 43.972 0 0 1-.114 2.869" mask="url(#b)"/>
        <path fill="#C1C1BC" d="M46.66 96.326L42.47 80.62c.209-.173.393-.387.54-.644l1.438-2.502 5.823 8.242-3.61 10.609m-4.996-22.79h-.677v-.958l.677.958" mask="url(#b)"/>
        <path fill="#C26445" d="M45.52 99.674h-4.532V81.15c.528 0 1.056-.176 1.483-.53l4.19 15.706-1.14 3.348" mask="url(#b)"/>
        <path fill="#DE714D" d="M40.988 81.15v-7.614h.677l2.783 3.94-1.437 2.5a2.322 2.322 0 0 1-2.023 1.173" mask="url(#b)"/>
        <path fill="#DDDDD7" d="M50.271 85.717l-9.283-13.14 11.493-6.134 3.307 3.067-5.517 16.207" mask="url(#b)"/>
        <path fill="#414955" d="M50.65 98.78l9.463-14.188-3.562-3.579s3.9-3.74 7.997-7.73l-8.76-3.773 8.76 3.773.467.201a21.008 21.008 0 0 1 9.717 8.514C69.13 90.257 60.604 96.352 50.65 98.781" mask="url(#b)"/>
        <path fill="#576170" d="M45.637 99.674h-.116L55.788 69.51l8.76 3.773c-4.097 3.99-7.997 7.73-7.997 7.73l3.562 3.579-9.462 14.189c-1.635.398-3.31.699-5.014.893" mask="url(#b)"/>
        <path fill="#A4563D" d="M63.861 35.6a4.599 4.599 0 0 0-1.312-.19v-.178c0-.582-.47-1.053-1.049-1.053h-.223c-.658-10.403-9.29-18.663-19.806-18.663-.162 0-.323.002-.483.005v-2.556c.16-.004.322-.006.483-.006 10.059 0 18.59 6.7 21.405 15.892v.002c.605 1.975.947 4.064.982 6.227v.032l.002.07v.123a.23.23 0 0 1 0 .013v.027l.001.005v.25" mask="url(#b)"/>
        <path fill="#E3A74C" d="M67.168 40.05v-.013.014m0-.019v-.009.01m0-.015v-.01.01m0-.014v-.01.01m0-.014l-.001-.014v.014m0-.017v-.01.01m0-.015v-.01.01m0-.015v-.008.008m-.001-.014v-.01.01m0-.013v-.014.014m0-.019l-.001-.009v.01m0-.015v-.008.008m0-.014l-.001-.008v.008m-.001-.033v-.007.007m-.001-.014v-.006.006m0-.014v-.006.006m-.001-.014v-.004.004m-.002-.02v-.005.004m0-.011v-.006.006m-.001-.014v-.005.005m0-.014l-.001-.004v.004m-.003-.048v-.002.002m-.001-.013v-.002.002m-.002-.012v-.002.002" mask="url(#b)"/>
        <path fill="#A4563D" d="M43.87 63.496a1.28 1.28 0 0 1-.369-2.502l4.585-1.396a20.595 20.595 0 0 0 10.934-7.98c.19.259.498.427.843.427H61.5c.109 0 .213-.016.311-.047a23.199 23.199 0 0 1-5.748 6.345l-.007.009a23.112 23.112 0 0 1-7.231 3.692l-4.585 1.397a1.272 1.272 0 0 1-.37.055" mask="url(#b)"/>
        <path fill="#DE714D" d="M62.549 50.814V35.41c.456 0 .896.066 1.312.19v.001a4.638 4.638 0 0 1 3.292 4.072V39.686l.004.044a.103.103 0 0 0 0 .017l.001.009v.006l.001.007v.004a.376.376 0 0 1 .002.021v.022l.001.006v.014l.001.008a.182.182 0 0 0 0 .017l.001.008v.019l.001.01V39.928l.001.006v.041l.001.014v6.183c0 2.563-2.067 4.64-4.618 4.64" mask="url(#b)"/>
        <path fill="#E3A74C" d="M62.446 51.446h.001M62.467 51.4v-.001M62.479 51.37v-.002.002m.004-.01v-.001m.003-.009l.001-.001v.001m.003-.01v-.002.002m.007-.02v-.001.002m.003-.01v-.003.002m.006-.02v-.002.003m.003-.011v-.001m.006-.019v-.002.002m.002-.01v-.002.002m.003-.01v-.003.003m.002-.011v-.002.002m.002-.01v-.002.002m.003-.01v-.003.002m.002-.011v-.001m.002-.008v-.003.003m.002-.011v-.003.003m.001-.01v-.003.002m.002-.01v-.002.002m.002-.011v-.003.003m.001-.01v-.002.002m.002-.011v-.003.003m.001-.012v-.001.001m.001-.01V51.1v.002m.001-.01v-.003.002m.001-.011v-.001.001m0-.01l.001-.002v.002m0-.012v-.002.002m.001-.01v-.002.001m.001-.01v-.002.002m0-.012v-.001.001m0-.01v-.002.002M62.55 51.004V51v.003m-3.734 0v-.002.001" mask="url(#b)"/>
        <path fill="#A4563D" d="M61.5 52.045h-1.637c-.345 0-.652-.168-.843-.427v-.002a1.05 1.05 0 0 1-.205-.602v-.01-.002-15.77c0-.582.47-1.053 1.048-1.053H61.5c.58 0 1.049.471 1.049 1.053V51.025l-.001.01v.012l-.001.01v.011l-.001.002V51.08l-.001.009v.002l-.002.01v.011l-.002.01v.002l-.001.009v.002l-.002.007v.003l-.001.009v.002l-.002.008v.002l-.002.008v.003l-.002.008v.003l-.002.008-.002.01v.002l-.002.01a.11.11 0 0 1-.002.009v.002l-.003.008v.003l-.002.008v.002c-.002.002-.002.005-.003.008v.002l-.003.009v.001a.108.108 0 0 0-.003.009l-.002.01-.001.002a.116.116 0 0 1-.003.01l-.002.007v.002l-.004.009v.002l-.003.008v.002a.1.1 0 0 1-.003.007v.002l-.004.009v.001l-.003.009a.095.095 0 0 1-.004.01v.001a.131.131 0 0 1-.004.009l-.004.009-.004.01-.008.019-.004.01a.593.593 0 0 0-.009.018v.001l-.005.009-.004.01-.005.008a1.053 1.053 0 0 1-.933.572" mask="url(#b)"/>
    </g>
</svg>
