<svg xmlns="http://www.w3.org/2000/svg" width="70" height="70" viewBox="0 0 70 70">
    <g fill="none" fill-rule="nonzero">
        <path fill="#58B8E2" d="M14.446 70H2.333A2.333 2.333 0 0 1 0 67.667V2.333A2.333 2.333 0 0 1 2.333 0H45.5a2.333 2.333 0 0 1 2.333 2.333v26.208c0 .528-.178 1.039-.505 1.45L16.274 69.117a2.333 2.333 0 0 1-1.828.883z"/>
        <path fill="#FDC567" d="M43.167 63h-38.5A1.167 1.167 0 0 1 3.5 61.833v-56c0-.644.523-1.166 1.167-1.166h38.5c.644 0 1.166.522 1.166 1.166v56c0 .644-.522 1.167-1.166 1.167z"/>
        <path fill="#FD5B60" d="M36.167 10.5H12.833A2.333 2.333 0 0 1 10.5 8.167V0h28v8.167a2.333 2.333 0 0 1-2.333 2.333z"/>
        <path fill="#FD3238" d="M53.667 7v11.158l8.166 5.175L70 18.158V7l-8.167-2.333z"/>
        <path fill="#FF930C" d="M53.667 7v11.158l8.166 5.175L70 18.158V7l-8.167-2.333z"/>
        <g fill="#FEDCA4">
            <path d="M11.667 22.167c-.308 0-.606-.122-.825-.342l-2.334-2.333 1.65-1.65 1.383 1.382 2.692-3.59 1.867 1.398-3.5 4.667a1.164 1.164 0 0 1-.933.468zM11.667 30.333c-.308 0-.606-.121-.825-.341l-2.334-2.334 1.65-1.65 1.383 1.383 2.692-3.591 1.867 1.399-3.5 4.667a1.164 1.164 0 0 1-.933.467zM11.667 38.5c-.308 0-.606-.121-.825-.342l-2.334-2.333 1.65-1.65 1.383 1.383 2.692-3.591 1.867 1.399-3.5 4.666a1.164 1.164 0 0 1-.933.468zM18.666 17.5h18.667v2.333H18.666zM18.666 25.667h4.667V28h-4.667z"/>
        </g>
        <g fill="#BE4448">
            <path d="M15.167 3.5H17.5v2.333h-2.333zM31.5 3.5h2.333v2.333H31.5zM23.334 3.5h2.333v2.333h-2.333z"/>
        </g>
        <g fill="#A66514">
            <path d="M60.667 9.333H63V14h-2.333zM60.667 16.333H63v2.333h-2.333z"/>
        </g>
        <path fill="#A66514" d="M67.667 58.333h-56a2.333 2.333 0 0 0-2.334 2.334v1.166a2.333 2.333 0 0 0 2.334 2.334h56A2.333 2.333 0 0 0 70 61.833v-1.166a2.333 2.333 0 0 0-2.333-2.334z"/>
        <path fill="#985D13" d="M12.833 61.833v-1.166a2.333 2.333 0 0 1 2.334-2.334h-3.5a2.333 2.333 0 0 0-2.334 2.334v1.166a2.333 2.333 0 0 0 2.334 2.334h3.5a2.333 2.333 0 0 1-2.334-2.334z" opacity=".5"/>
        <g fill="#FF930C">
            <path d="M64.194 44.077L60.667 42l-3.16-9.213c-.98-2.858-3.73-4.787-6.83-4.787H28.657c-3.099 0-5.851 1.929-6.831 4.787L18.667 42l-3.843 1.983a5.836 5.836 0 0 0-3.157 5.184v9.166h56v-8.921c0-2.309-1.362-4.4-3.473-5.335z"/>
            <path d="M59.5 39.667h5.833V42H59.5zM14 39.667h5.833V42H14z"/>
        </g>
        <path fill="#C6D1D6" d="M18.667 42l9.6 2.333h22.8l9.6-2.333-3.16-9.213c-.98-2.858-3.73-4.787-6.83-4.787H28.657c-3.099 0-5.851 1.928-6.831 4.787L18.667 42z"/>
        <path fill="#A0B2BA" d="M25.326 32.787c.98-2.858 3.731-4.787 6.83-4.787h-3.5c-3.098 0-5.85 1.929-6.83 4.787L18.666 42l9.601 2.333h3.5L22.167 42l3.159-9.213z" opacity=".5"/>
        <path fill="#CE790D" d="M18.324 43.984l2.698-1.393L18.667 42l-3.843 1.984a5.832 5.832 0 0 0-3.157 5.183v9.166h3.5v-9.166a5.832 5.832 0 0 1 3.157-5.183z" opacity=".5"/>
        <path fill="#5F1315" d="M21 70h-4.667A2.333 2.333 0 0 1 14 67.667v-3.5h9.333v3.5A2.333 2.333 0 0 1 21 70z"/>
        <path fill="#50595D" d="M21 70h-4.667A2.333 2.333 0 0 1 14 67.667v-3.5h9.333v3.5A2.333 2.333 0 0 1 21 70z"/>
        <path fill="#414547" d="M16.333 67.667v-3.5H14v3.5A2.333 2.333 0 0 0 16.333 70h2.334a2.333 2.333 0 0 1-2.334-2.333z" opacity=".5"/>
        <path fill="#50595D" d="M63 70h-4.667A2.333 2.333 0 0 1 56 67.667v-3.5h9.333v3.5A2.333 2.333 0 0 1 63 70z"/>
        <g fill="#FDD38D">
            <path d="M59.5 53.667H49v-2.334A2.333 2.333 0 0 1 51.333 49H63v1.167a3.5 3.5 0 0 1-3.5 3.5zM19.833 53.667h10.5v-2.334A2.333 2.333 0 0 0 28 49H16.333v1.167a3.5 3.5 0 0 0 3.5 3.5z"/>
        </g>
        <g fill="#FCB641" transform="translate(18.667 58.333)">
            <circle cx="2.917" cy="2.917" r="2.917"/>
            <circle cx="37.917" cy="2.917" r="2.917"/>
        </g>
        <path fill="#FDC567" d="M31.5 58.333h16.333V66.5H31.5z"/>
        <g fill="#A66514">
            <path d="M33.833 47.833H45.5v2.333H33.833zM33.833 52.5H45.5v2.333H33.833z"/>
        </g>
        <path fill="#A0B2BA" d="M36.167 31.5h7v2.333h-7z"/>
        <g fill="#FCB641">
            <path d="M33.312 39.79a2.334 2.334 0 0 0-2.087-1.29H27.11c-.885 0-1.693.5-2.087 1.29l-1.69 3.381L28 44.333h7l-1.688-4.543zM54.312 39.79a2.335 2.335 0 0 0-2.089-1.29H48.11c-.885 0-1.692.5-2.088 1.29l-1.688 4.543h7L56 43.171l-1.688-3.38z"/>
        </g>
    </g>
</svg>
