<svg xmlns="http://www.w3.org/2000/svg" width="25" height="25" viewBox="0 0 25 25">
    <g fill="#FF930C" fill-rule="nonzero">
        <path d="M14.68 6.445L8.706.465a1.605 1.605 0 0 0-2.26 0l-5.98 5.98a1.605 1.605 0 0 0 0 2.26l5.98 5.976c.626.62 1.634.62 2.26 0l1.27-1.27 4.706-4.706c.62-.626.62-1.634 0-2.26zM8.346 4.76L4.757 8.338A1.447 1.447 0 0 1 2.71 6.29h.007l3.581-3.579A1.447 1.447 0 0 1 8.345 4.76zM11.298 13.11l-.566.566 10.79 10.789 1.333.191zM24.467 21.526l-1.11-1.11-1.694.453a.358.358 0 0 1-.438-.436l.453-1.696-.684-.684a1.691 1.691 0 1 1-2.392-2.392l-4.926-4.929-1.873 1.873 12.23 12.22.925.133-.49-3.432z"/>
    </g>
</svg>
