<svg xmlns="http://www.w3.org/2000/svg" width="19" height="25" viewBox="0 0 19 25">
    <path fill="#F3A039" fill-rule="nonzero" d="M9.1.2C4.082.2 0 4.213 0 9.145c0 6.122 8.144 15.108 8.49 15.488a.83.83 0 0 0 1.22 0c.346-.38 8.49-9.366 8.49-15.488C18.2 4.213 14.118.2 9.1.2zm0 13.446c-2.525 0-4.578-2.019-4.578-4.5 0-2.482 2.053-4.501 4.578-4.501 2.525 0 4.578 2.019 4.578 4.5 0 2.482-2.053 4.501-4.578 4.501z"/>
</svg>
