<svg xmlns="http://www.w3.org/2000/svg" width="78" height="72" viewBox="0 0 78 72">
    <g fill="none" fill-rule="nonzero">
        <path fill="#7ED09E" d="M4 52h13v18H4z"/>
        <path fill="#71C285" d="M23 40h13v30H23z"/>
        <path fill="#4FBA6F" d="M43 30h13v40H43z"/>
        <path fill="#FF930C" d="M62 19h13v51H62z"/>
        <path fill="#556080" d="M76.7 72H1.3C.582 72 0 71.33 0 70.5S.582 69 1.3 69h75.4c.718 0 1.3.67 1.3 1.5s-.582 1.5-1.3 1.5z"/>
        <path fill="#BDC3C7" d="M10.295 33a1.29 1.29 0 0 1-1.122-.653 1.313 1.313 0 0 1 .474-1.784L60.06 1.176a1.287 1.287 0 0 1 1.767.478 1.313 1.313 0 0 1-.474 1.784L10.94 32.825a1.277 1.277 0 0 1-.645.175z"/>
        <path fill="#BDC3C7" d="M61.676 4a1.38 1.38 0 0 1-.13-.007L50.196 2.82c-.727-.075-1.261-.766-1.19-1.544.07-.775.712-1.348 1.448-1.269l11.35 1.173c.727.075 1.261.766 1.19 1.544C62.927 3.453 62.35 4 61.676 4z"/>
        <path fill="#BDC3C7" d="M56.259 14a1.19 1.19 0 0 1-.521-.119c-.633-.303-.913-1.086-.624-1.75l4.482-10.355c.288-.665 1.035-.961 1.666-.656.633.303.913 1.086.624 1.751l-4.482 10.354a1.254 1.254 0 0 1-1.145.775z"/>
    </g>
</svg>
