<svg xmlns="http://www.w3.org/2000/svg" width="65" height="65" viewBox="0 0 65 65">
    <g fill="#FF930C" fill-rule="nonzero">
        <path d="M32.5 0C14.58 0 0 14.579 0 32.5S14.58 65 32.5 65 65 50.421 65 32.5 50.42 0 32.5 0zm0 61C16.785 61 4 48.215 4 32.5S16.785 4 32.5 4 61 16.785 61 32.5 48.215 61 32.5 61z"/>
        <path d="M39.55 43.439l-.473 1.885c-1.423.546-2.56.961-3.407 1.247-.847.286-1.832.429-2.954.429-1.722 0-3.062-.41-4.018-1.225-.956-.818-1.434-1.855-1.434-3.112 0-.487.035-.988.107-1.498.073-.51.188-1.086.347-1.73l1.778-6.118c.158-.586.293-1.14.4-1.666.11-.521.162-1.001.162-1.434 0-.781-.166-1.328-.497-1.635-.332-.306-.964-.462-1.903-.462-.46 0-.932.072-1.414.21-.483.14-.897.273-1.244.398l.476-1.886a45.35 45.35 0 0 1 3.343-1.184c1.066-.328 2.072-.493 3.024-.493 1.711 0 3.031.402 3.958 1.206.928.805 1.39 1.847 1.39 3.132 0 .266-.03.735-.095 1.404a9.157 9.157 0 0 1-.356 1.846l-1.771 6.094c-.145.49-.276 1.049-.39 1.679-.116.625-.172 1.103-.172 1.424 0 .809.185 1.361.557 1.655.375.294 1.02.44 1.938.44.43 0 .92-.074 1.465-.22.543-.146.938-.274 1.184-.386zM40 17.854c0 1.062-.412 1.968-1.239 2.714-.825.748-1.82 1.123-2.983 1.123-1.167 0-2.163-.375-2.998-1.123-.833-.746-1.25-1.652-1.25-2.714 0-1.06.417-1.968 1.25-2.723.833-.754 1.832-1.131 2.998-1.131 1.163 0 2.158.378 2.983 1.13.828.756 1.239 1.664 1.239 2.724z"/>
    </g>
</svg>
