<svg xmlns="http://www.w3.org/2000/svg" width="45" height="45" viewBox="0 0 45 45">
    <g fill="none" fill-rule="nonzero">
        <path fill="#FFB171" d="M32.96 38.286s3.927-4.704 5.94-6.838c1.074-1.139 1.576-2.667.659-3.934-.917-1.266-2.899-1.783-3.981-.651-2.062 2.156-6.898 7.898-6.898 7.898"/>
        <path fill="#FC9" d="M44.462 27.25c-.917-1.266-2.898-1.784-3.98-.652-2.062 2.157-6.899 7.899-6.899 7.899l-13.552 1.41v-5.64s-2.853-2.82-7.846-2.82c-6.763 0-10.876 3.143-11.883 4.01a.699.699 0 0 0-.243.53v6.74c0 .389.32.704.714.704h9.272l13.25 5.514a.72.72 0 0 0 .596-.02l13.972-6.904s3.928-4.704 5.94-6.837c1.074-1.14 1.577-2.668.66-3.934z"/>
        <path fill="#FFB171" d="M43.803 28.43c-2.012 2.133-7.367 8.182-7.367 8.182l-12.839 5.704-13.552-5.64H.06v2.05c0 .39.32.705.714.705h9.272l13.25 5.514a.72.72 0 0 0 .596-.02l13.972-6.904s3.928-4.704 5.94-6.837c1.035-1.098 1.539-2.558.753-3.796a4.73 4.73 0 0 1-.753 1.041z"/>
        <path fill="#FC9" d="M29.027 32.51s-11.849-5.062-16.842-5.062c-6.763 0-10.876 3.142-11.883 4.01a.699.699 0 0 0-.243.53v3.919h19.972l7.296 1.986c1.505.464 3.105-.366 3.574-1.852.47-1.487-.37-3.068-1.874-3.532z"/>
        <path fill="#FFB171" d="M27.327 35.778l-5.121-1.394a2.384 2.384 0 0 0-2.888 1.523l8.01 1.986c1.504.464 3.104-.365 3.573-1.852a2.777 2.777 0 0 0-.08-1.898c-.55 1.349-2.064 2.076-3.494 1.635z"/>
        <path fill="#FF930C" d="M35.629 22.035l-2.848.402a13.165 13.165 0 0 0 3.61-9.088C36.392 5.99 30.333 0 22.885 0 15.436 0 9.376 5.989 9.376 13.35c0 2.953.957 5.752 2.766 8.093a13.61 13.61 0 0 0 6.99 4.734.676.676 0 0 0 .838-.488.666.666 0 0 0-.466-.782c-5.176-1.476-8.79-6.228-8.79-11.558 0-6.632 5.46-12.027 12.17-12.027 6.711 0 12.17 5.395 12.17 12.027 0 3.279-1.317 6.342-3.655 8.596V18.46c0-.365-.3-.66-.669-.66a.665.665 0 0 0-.668.66v4.934c0 .396.367.711.763.655l4.993-.705c.36-.051.619-.391.567-.748a.675.675 0 0 0-.756-.56z"/>
        <path fill="#AED45B" d="M22.884 13.393h-.713A1.464 1.464 0 0 1 20.7 11.94c0-.802.66-1.454 1.47-1.454h2.854c.37 0 .669-.296.669-.661 0-.365-.3-.661-.669-.661h-1.471v-.75c0-.364-.3-.66-.669-.66a.665.665 0 0 0-.668.66v.75h-.045c-1.549 0-2.809 1.245-2.809 2.776 0 1.53 1.26 2.775 2.809 2.775h.713c.811 0 1.471.652 1.471 1.454 0 .802-.66 1.454-1.47 1.454H20.03a.665.665 0 0 0-.669.66c0 .366.3.662.669.662h2.184v.749c0 .365.3.66.67.66.369 0 .668-.295.668-.66v-.83c1.227-.297 2.14-1.392 2.14-2.695 0-1.53-1.26-2.776-2.809-2.776z"/>
    </g>
</svg>
