<svg xmlns="http://www.w3.org/2000/svg" width="17" height="10" viewBox="0 0 17 10">
    <g fill="#F3A039" fill-rule="nonzero">
        <path d="M1.338 1.412L7.43 5.068c.276.166.657.24 1.026.226.37.014.75-.06 1.026-.226l6.092-3.656c.489-.29.378-.53-.241-.53H1.58c-.62 0-.73.24-.243.53z"/>
        <path d="M16.015 2.377l-6.658 3.83c-.249.141-.575.21-.9.207-.325.003-.651-.066-.9-.208L.9 2.376C.404 2.094 0 2.247 0 2.716v6.283c0 .47.508.854 1.127.854H15.786c.62 0 1.127-.384 1.127-.854V2.715c0-.47-.404-.622-.898-.338z"/>
    </g>
</svg>
