<svg xmlns="http://www.w3.org/2000/svg" width="112" height="70" viewBox="0 0 112 70">
    <g fill="none" fill-rule="evenodd">
        <path fill="#323534" d="M6.581 31.349l26.708.024 44.303-.024h19.225l1.234-2.481-.74-10.241H76.964l-67.044.472-3.34 12.25"/>
        <path fill="#DBDCD6" d="M99.038 11.621l-7.295.009C84.977 2.886 76.27.072 58.978.072c-15.469 0-23.276 3.023-31.052 11.153L6.035 14.62c-1.987.309-3.918 2.182-4.29 4.162L.063 27.747c-.372 1.981.969 3.602 2.98 3.602h5.621a9.752 9.752 0 0 1-.034-.804c0-5.33 4.328-9.668 9.646-9.668 5.32 0 9.647 4.337 9.647 9.668 0 .27-.012.539-.034.804h49.703a9.793 9.793 0 0 1-.034-.804c0-5.33 4.327-9.668 9.646-9.668 5.32 0 9.646 4.337 9.646 9.668 0 .27-.011.539-.033.804h-.182c2.485 0 4.759-2.023 5.054-4.495l1.327-11.1c.295-2.472-1.495-4.194-3.978-4.133"/>
        <path fill="#404341" d="M95.56 30.545c0 4.625-3.74 8.374-8.356 8.374-4.614 0-8.355-3.75-8.355-8.374 0-4.625 3.74-8.375 8.355-8.375s8.356 3.75 8.356 8.375"/>
        <path fill="#F3F1ED" d="M87.204 36.31c-3.171 0-5.752-2.586-5.752-5.765 0-3.18 2.58-5.765 5.752-5.765 3.172 0 5.753 2.586 5.753 5.765s-2.58 5.765-5.753 5.765"/>
        <path fill="#2F3231" d="M91.66 32.45a4.846 4.846 0 0 0 .38-1.735h-3.724a1.43 1.43 0 0 1-.097.317l3.441 1.418M91.683 28.706a4.868 4.868 0 0 0-1.058-1.59l-2.622 2.628c.108.11.193.241.25.387l3.43-1.425M85.358 35.03c.525.217 1.09.344 1.69.363V31.65a1.288 1.288 0 0 1-.286-.08l-1.404 3.46M86.18 30.993l-3.439 1.43c.245.583.602 1.11 1.042 1.551l2.633-2.64a1.13 1.13 0 0 1-.235-.341M86.147 30.162l-3.435-1.42a4.873 4.873 0 0 0-.349 1.812c0 .05.003.075.004.161h3.728c-.007-.086-.011-.116-.011-.17 0-.132.022-.266.063-.383M88.953 35.067a4.849 4.849 0 0 0 1.634-1.056l-2.632-2.638a1.128 1.128 0 0 1-.373.222l1.371 3.472M87.61 29.487l1.399-3.443a4.81 4.81 0 0 0-1.807-.35l-.154.003v3.725c.085-.007.104-.011.156-.011.143 0 .281.027.407.076M86.755 29.505L85.39 26.05a4.85 4.85 0 0 0-1.643 1.106l2.624 2.63c.107-.119.237-.215.385-.28"/>
        <path fill="#272A29" d="M87.899 30.545a.695.695 0 1 1-1.391.001.695.695 0 0 1 1.39-.001"/>
        <path fill="#435E6C" d="M89.332 11.63c-3.144-3.817-5.878-6.253-10.446-7.836-4.847-1.68-10.987-2.428-19.908-2.428-7.784 0-13.325.755-17.97 2.45-4.289 1.564-7.154 3.986-10.916 7.814h59.24"/>
        <path fill="#3E5662" d="M89.332 11.63h-.638c-1.613-1.891-3.157-3.418-4.948-4.654v-.76a18.353 18.353 0 0 0-.74-.484 18.732 18.732 0 0 0-1.27-.722v.075l-.41.478c-.225-.11-.456-.218-.691-.322l.468-.545a21.88 21.88 0 0 0-2.086-.856c4.49 1.584 7.201 4.01 10.315 7.79m-58.485 0h-.755c3.762-3.828 6.627-6.25 10.916-7.815l.02-.007-.02.007-.293.11-1 1.166c-3.327 1.449-5.845 3.525-8.868 6.539m48.165-7.791l-.01-.004.01.004M41.032 3.808l.022-.008-.022.008m37.884-.003l-.006-.002.006.002m-.009-.003l-.018-.007-.02-.007.02.007.018.007M41.053 3.8l.02-.007-.02.007m.02-.007l.024-.009-.023.009m37.784-.008l-.003-.001h.003m-37.764.001l.024-.008-.024.008m.021-.009c4.622-1.666 10.139-2.41 17.863-2.41a105.114 105.114 0 0 0-3.069.043l-.67.782a68.437 68.437 0 0 0-5.41.397l.719-.84c-.731.076-1.437.164-2.123.263l-.749.874c-.516.083-1.02.173-1.514.27l.776-.905c-2.124.379-4.04.884-5.823 1.526m37.608-.037l-.017-.006.017.006m-.02-.008a33.69 33.69 0 0 0-2.895-.834l-.541.633a41.279 41.279 0 0 0-.869-.188l.552-.643c-.361-.079-.729-.154-1.104-.225l-.563.656a52.917 52.917 0 0 0-3-.44l.589-.687a65.08 65.08 0 0 0-2.82-.3l-.608.71a100.087 100.087 0 0 0-5.86-.264v-.76c-.828-.015-1.681-.023-2.562-.023 8.785.002 14.87.733 19.68 2.365M57.711 2.133l.128-.15v.149l-.128.001m1.306-.767h-.016.016"/>
        <path fill="#404341" d="M26.632 30.545c0 4.625-3.74 8.374-8.356 8.374-4.614 0-8.355-3.749-8.355-8.374s3.74-8.374 8.355-8.374 8.356 3.749 8.356 8.374"/>
        <path fill="#F3F1ED" d="M18.276 36.31c-3.171 0-5.752-2.586-5.752-5.765s2.58-5.765 5.752-5.765c3.172 0 5.753 2.586 5.753 5.765s-2.58 5.765-5.753 5.765"/>
        <path fill="#2F3231" d="M22.732 32.45a4.849 4.849 0 0 0 .381-1.735h-3.725c-.016.086-.05.217-.096.317l3.44 1.418M22.755 28.706a4.869 4.869 0 0 0-1.057-1.59l-2.623 2.628c.108.11.194.241.25.387l3.43-1.425M16.43 35.03a4.77 4.77 0 0 0 1.69.363V31.65a1.283 1.283 0 0 1-.286-.08l-1.403 3.46M17.253 30.993l-3.44 1.43c.246.583.602 1.11 1.042 1.551l2.634-2.64a1.13 1.13 0 0 1-.236-.341M17.22 30.162l-3.436-1.42a4.878 4.878 0 0 0-.348 1.812c0 .05.002.075.004.161h3.728c-.008-.086-.012-.116-.012-.17 0-.132.023-.266.064-.383M20.026 35.067a4.847 4.847 0 0 0 1.633-1.056l-2.632-2.638a1.122 1.122 0 0 1-.373.223l1.372 3.471M18.684 29.487l1.397-3.443a4.815 4.815 0 0 0-1.807-.35l-.154.003v3.725c.086-.007.104-.01.156-.01.143 0 .282.026.408.075M17.828 29.505L16.46 26.05a4.857 4.857 0 0 0-1.643 1.106l2.625 2.63c.106-.118.237-.214.385-.28"/>
        <path fill="#272A29" d="M18.971 30.545a.695.695 0 1 1-1.39.001.695.695 0 0 1 1.39-.001"/>
        <path fill="#2C3B3E" d="M81.737 11.63h2.009V6.216c-.634-.437-1.3-.838-2.01-1.206v6.62"/>
        <path fill="#F3F1ED" d="M7.02 17.55H2.18a4.51 4.51 0 0 0-.434 1.232l-.577 3.077c4.995-1.28 5.853-4.308 5.853-4.308"/>
        <path fill="#E0E1DB" d="M41.027 3.809a.171.171 0 0 1 .006-.002c-.002 0-.004 0-.006.002m.023-.009l.003-.001-.003.001m.043-.015l.002-.001h-.002m.022-.007"/>
        <path fill="#546D78" d="M38.902 11.63h-4.788l5.602-6.539c.417-.181.847-.353 1.292-.515a34.46 34.46 0 0 1 5.154-1.42l-7.26 8.474"/>
        <path fill="#4F666F" d="M39.716 5.091l.999-1.166.293-.11.02-.007.004-.001.018-.007.003-.001.017-.006.004-.002.02-.007.02-.007h.001c1.783-.643 3.7-1.148 5.823-1.527l-.776.906a34.46 34.46 0 0 0-5.154 1.42c-.445.162-.875.334-1.292.515"/>
        <path fill="#E0E1DB" d="M79.019 3.84l-.008-.002c.003 0 .005.002.008.003m-.014-.005l-.012-.004.012.004m.003 0c-.03-.01-.062-.02-.093-.032l.093.033m-.095-.033L78.9 3.8c.004 0 .008.002.012.004m-.206-.071l-.005-.002.005.002"/>
        <path fill="#546D78" d="M75.148 11.63H71.33c-.047-.1-.096-.202-.146-.301a14.364 14.364 0 0 0-.972-1.898l5.056-5.901c1.289.292 2.489.633 3.619 1.025a22.56 22.56 0 0 1 1.749.686l-5.487 6.389"/>
        <path fill="#4F666F" d="M80.635 5.241a22.56 22.56 0 0 0-1.75-.686 34.071 34.071 0 0 0-3.618-1.025l.541-.633a33.69 33.69 0 0 1 2.894.834l.004.002.014.005.135.046h.003a.371.371 0 0 1 .028.01l.015.006.01.003.004.001c.025.01.052.019.077.027l.01.004.009.003.006.002c.74.262 1.432.546 2.086.856l-.468.545"/>
        <path fill="#546D78" d="M42.082 11.63h-1.898l7.492-8.745a49.85 49.85 0 0 1 2.153-.297l-7.747 9.042"/>
        <path fill="#4F666F" d="M47.676 2.885l.75-.874a53.168 53.168 0 0 1 2.122-.263l-.72.84a49.85 49.85 0 0 0-2.152.297"/>
        <path fill="#546D78" d="M54.44 3.123l.8-.932c.797-.03 1.62-.048 2.471-.058l-.454.53a14.05 14.05 0 0 0-2.817.46"/>
        <path fill="#4F666F" d="M55.24 2.191l.67-.782a101.995 101.995 0 0 1 1.93-.037v.611l-.129.15c-.85.01-1.674.029-2.472.058"/>
        <path fill="#546D78" d="M67.377 6.081a14.098 14.098 0 0 0-1.894-1.379l1.96-2.288a68.78 68.78 0 0 1 2.84.275l-2.906 3.392"/>
        <path fill="#4F666F" d="M70.283 2.69a68.78 68.78 0 0 0-2.84-.276l.61-.711c.981.084 1.92.183 2.819.3l-.589.686"/>
        <path fill="#546D78" d="M69.767 8.747a14.251 14.251 0 0 0-.602-.81l4.118-4.807c.379.067.75.138 1.115.212l-4.63 5.405"/>
        <path fill="#4F666F" d="M74.398 3.342a44.198 44.198 0 0 0-1.115-.212l.563-.656c.375.07.743.146 1.104.225l-.552.643"/>
        <path fill="#546D78" d="M77.945 11.63h-1.816l5.198-6.067c.138.067.274.136.41.206v1.435l-3.792 4.426"/>
        <path fill="#4F666F" d="M81.737 5.77a21.83 21.83 0 0 0-.41-.207l.41-.478v.684"/>
        <path fill="#3F4C4F" d="M81.737 7.204v-2.12 2.12"/>
        <path fill="#2C3B3E" d="M57.84 1.372V11.63h3.744V1.389a142.264 142.264 0 0 0-3.745-.017"/>
        <path fill="#BA5A59" d="M102.751 17.965l.265-2.211a3.947 3.947 0 0 0-.144-1.683h-6.258s.895 2.647 6.137 3.894"/>
        <path fill="#F3F1ED" d="M57.108 15.42c0 .274-.29.498-.645.498h-5.23c-.355 0-.646-.224-.646-.499 0-.274.29-.499.645-.499h5.231c.355 0 .645.225.645.5"/>
        <path fill="#C6C7C2" d="M77.217 16.849c-1.506 0-2.727-.64-2.727-1.43 0-.79 1.221-1.43 2.727-1.43 1.506 0 2.727.64 2.727 1.43 0 .79-1.22 1.43-2.727 1.43"/>
        <path fill="#F3F1ED" d="M80.478 15.42c0 .274-.29.498-.645.498h-5.231c-.355 0-.645-.224-.645-.499 0-.274.29-.499.645-.499h5.23c.355 0 .646.225.646.5"/>
        <path fill="#C6C7C2" d="M45.827 23.901h-.244a13.545 13.545 0 0 1-.623-1.527h.11c.216.51.465 1.014.746 1.508l.01.02m-1.927 0H29.786c-1.016 0-1.016-1.528 0-1.528h13.562c.155.514.338 1.024.55 1.527M76.079 23.901h-4.502c.21-.499.393-1.01.548-1.527h3.954c1.016 0 1.016 1.527 0 1.527"/>
        <path fill="#C6C7C2" d="M76.13 29.753h-8.946c.214-.173.421-.35.623-.532h8.054c.01-.544.107-1.815.713-3.364.72-1.84 2.328-4.425 5.901-6.36V11.63h.531v8.186l-.141.075c-3.517 1.861-5.088 4.364-5.787 6.136-.759 1.924-.685 3.43-.684 3.445l.016.28h-.28m-23.912 0h-1.224a13.48 13.48 0 0 1-.847-.531h1.026c.34.192.69.37 1.045.532"/>
        <path fill="#374F59" d="M83.007 5.732"/>
        <path fill="#283639" d="M83.006 11.63h-.53V5.414a15.648 15.648 0 0 1 .53.318v5.898"/>
        <path fill="#C6C7C2" d="M48.29 29.753H29.933l-.075-.139c-2.52-4.621-2.386-9.23-1.83-12.284.601-3.305 1.78-5.488 1.83-5.58l.466.257c-.012.021-1.193 2.212-1.777 5.437-.532 2.933-.662 7.345 1.702 11.777h17.418c.202.183.41.36.621.532"/>
        <path fill="#283639" d="M59.96 2.758a14.227 14.227 0 0 0-.53-.06l.007-1.331.53.002-.007 1.39"/>
        <path fill="#F3F1ED" d="M34.565 12.8c-.308.558-1.08 1.014-1.716 1.014h-2.393a1.16 1.16 0 0 1-1.156-1.159v-1.261c0-.637.52-1.159 1.156-1.159h4.371c.636 0 .904.456.596 1.014l-.858 1.552"/>
        <path fill="#2E3130" d="M50.732 31.366l-.028-.017h4.647l.069.014-4.688.003m9.36-.006l.053-.011h4.615l.004.008-4.673.003"/>
        <path fill="#CACBC6" d="M64.76 31.349h-4.615A13.428 13.428 0 0 0 64 30.017l.759 1.332m-9.409 0h-4.647a14.966 14.966 0 0 1-2.415-1.596h2.705c1.353.78 2.83 1.32 4.357 1.596m-5.204-2.128h-2.48a15.035 15.035 0 0 1-2.974-3.712c-.3-.527-.564-1.063-.794-1.608h1.684a13.448 13.448 0 0 0 4.563 5.32m-5.186-6.847h-1.612a15.098 15.098 0 0 1 .8-10.744h.792a14.23 14.23 0 0 0-.352 9.43c.101.44.225.879.372 1.314"/>
        <path fill="#3E5865" d="M44.94 11.63h-.792a14.974 14.974 0 0 1 6.528-6.872 14.131 14.131 0 0 0-5.736 6.872"/>
        <path fill="#B8BAB6" d="M45.583 23.901H43.9a15.073 15.073 0 0 1-.55-1.527h1.61c.175.515.383 1.026.624 1.527M50.994 29.753H48.29a14.971 14.971 0 0 1-.621-.532h2.479c.276.188.559.365.847.532"/>
        <path fill="#CACBC6" d="M67.02 29.884l-.074-.131h.238l-.164.13m.787-.662h-1.164l-.392-.689c.16-.13.316-.263.469-.4a14.101 14.101 0 0 0 3.7-4.23h1.157a14.995 14.995 0 0 1-3.77 5.319m4.318-6.847h-.951a14.222 14.222 0 0 0 .132-10.744h.023a15.039 15.039 0 0 1 .796 10.744"/>
        <path fill="#4F6670" d="M71.33 11.63h-.024c-.04-.101-.08-.201-.123-.301.05.1.099.2.146.3"/>
        <path fill="#B8BAB6" d="M71.577 23.901H70.42c.282-.494.534-1.005.754-1.527h.951a15.155 15.155 0 0 1-.548 1.527M67.184 29.753h-.238l-.303-.532h1.164c-.202.182-.41.36-.623.532"/>
        <path fill="#FFFFFE" d="M68.373 32.258l-2.335 1.335-2.271-3.988L66.1 28.27l2.272 3.988"/>
        <path fill="#CACBC6" d="M64.001 30.017l-.114-.2.114.2"/>
        <path fill="#4995A3" d="M64.832 31.456l-.068-.1.068.1"/>
        <path fill="#478F9D" d="M65.428 32.523l-.607-1.067.607 1.067"/>
        <path fill="#2B2F2E" d="M64.764 31.357l-.004-.008.004.008"/>
        <path fill="#BBBDB8" d="M64.76 31.349L64 30.017l.759 1.332"/>
        <path fill="#EAEAE4" d="M65.428 32.523l-.607-1.067-.057-.1-.004-.007-.873-1.533c.395-.177.786-.374 1.171-.59l1.314 2.307c-.399.235-.735.578-.944.99"/>
        <path fill="#565A57" d="M76.523 44.617c.739 1.25.152 2.577-.867 3.146-1.007.59-2.446.422-3.144-.851l-6.97-12.24c-1.527-2.68 2.484-4.974 4.01-2.294l6.97 12.24"/>
        <path fill="#E3E3DD" d="M58.135 31.046c-2.045 0-4.066-.444-5.917-1.293H63.85l.036.063a14.053 14.053 0 0 1-5.752 1.23m6.103-1.825h-4.423l.096-17.591h9.699a13.512 13.512 0 0 1 .905 10.744H60.467V23.9h9.428a13.445 13.445 0 0 1-3.175 4.232c-.161.122-.325.242-.492.359l-.127-.222-1.197.685-.05-.087-.616.353"/>
        <path fill="#627A84" d="M68.327 11.63h-1.03l1.335-1.557c.157.217.31.44.456.668l-.761.889m-2.326 0h-3.378l3.547-4.14c.662.531 1.28 1.13 1.842 1.793l-2.01 2.347"/>
        <path fill="#6E848E" d="M69.61 11.63h-1.283l.76-.889a13.809 13.809 0 0 1 .523.889"/>
        <path fill="#E3E3DD" d="M59.284 29.22h-8.111a14.118 14.118 0 0 1-5.346-5.319H58.65v-1.527H45.07a14.179 14.179 0 0 1-.482-1.315 13.577 13.577 0 0 1 1.278-9.43H59.38l-.096 17.592m-7.992-13.303c.386.544 1.385.93 2.556.93 1.17 0 2.17-.386 2.556-.93h.06c.354 0 .644-.224.644-.499 0-.274-.29-.499-.645-.499h-.06c-.385-.543-1.384-.93-2.555-.93-1.171 0-2.17.387-2.556.93h-.06c-.354 0-.645.225-.645.5 0 .274.29.498.645.498h.06"/>
        <path fill="#627A84" d="M57.84 11.63h-8.265l5.927-6.918a13.393 13.393 0 0 1 2.337-.186v7.104m-10.687 0h-1.286a13.44 13.44 0 0 1 5.187-5.324c.385-.22.777-.42 1.173-.598l-5.074 5.922m14.432-2.377V5.09c.91.271 1.792.638 2.629 1.096l-2.629 3.068"/>
        <path fill="#6E848E" d="M49.575 11.63h-2.423l5.074-5.922c1.065-.48 2.165-.81 3.276-.996l-5.927 6.918M62.623 11.63h-1.039V9.253l2.629-3.068c.685.375 1.34.81 1.957 1.305l-3.547 4.14M67.298 11.63H66l2.01-2.347c.216.254.423.517.62.79l-1.333 1.557"/>
        <path fill="#515E60" d="M61.584 11.63h-1.673l.038-6.92c.553.093 1.099.22 1.635.379v6.54m-2.204 0h-1.54V4.527c.529.005 1.056.04 1.579.107l-.039 6.997"/>
        <path fill="#D0D1CB" d="M53.848 16.849c-1.171 0-2.17-.387-2.556-.93h5.112c-.386.543-1.385.93-2.556.93m2.556-1.929h-5.112c.386-.543 1.385-.93 2.556-.93 1.17 0 2.17.387 2.556.93"/>
        <path fill="#F7F5F2" d="M56.463 15.918h-5.23c-.355 0-.646-.224-.646-.499 0-.274.29-.499.645-.499h5.231c.355 0 .645.225.645.5 0 .274-.29.498-.645.498"/>
        <path fill="#D0D1CB" d="M58.65 23.901H45.828l-.011-.02c-.281-.493-.53-.997-.746-1.507h13.58V23.9M69.895 23.901h-9.428v-1.527h10.048a13.59 13.59 0 0 1-.62 1.527"/>
        <path fill="#D0D1CB" d="M63.85 29.753H52.219a14.22 14.22 0 0 1-1.045-.532h8.11l.097-17.591h.531l-.096 17.59h4.423l-.52.299.133.234"/>
        <path fill="#4D5A5C" d="M59.911 11.63h-.53l.038-6.997c.177.022.354.048.53.077l-.038 6.92"/>
        <path fill="#627A84" d="M70.127 9.529c-.152-.223-.31-.44-.47-.652l.11-.13c.154.223.302.45.444.684l-.084.098"/>
        <path fill="#6E848E" d="M71.183 11.329a15.393 15.393 0 0 0-1.056-1.8l.084-.098a14.168 14.168 0 0 1 .972 1.898"/>
        <path fill="#627A84" d="M69.023 8.103a14.925 14.925 0 0 0-1.852-1.78l.206-.242a14.094 14.094 0 0 1 1.788 1.856l-.142.166m-3.79-3.109a15.07 15.07 0 0 0-3.649-1.502v-.423a14.2 14.2 0 0 1 3.899 1.633l-.25.292m-14.557-.236a14.174 14.174 0 0 1 3.764-1.634l-.246.287c-1.2.293-2.381.74-3.518 1.347m6.286-1.751l.295-.345c.195-.011.388-.019.582-.023v.349h-.114c-.254 0-.508.006-.763.019"/>
        <path fill="#6E848E" d="M54.194 3.411l.246-.288a14.05 14.05 0 0 1 2.817-.46l-.295.344c-.925.047-1.852.18-2.768.404M67.17 6.322a14.97 14.97 0 0 0-1.937-1.328l.25-.292c.664.404 1.298.865 1.894 1.38l-.206.24M69.656 8.877a14.992 14.992 0 0 0-.633-.774l.142-.166c.209.262.41.531.602.81l-.11.13"/>
        <path fill="#515E60" d="M61.584 3.492a15.059 15.059 0 0 0-1.626-.338l.002-.396c.548.072 1.09.176 1.624.311v.423m-2.157-.408a15.008 15.008 0 0 0-1.588-.096v-.349a13.77 13.77 0 0 1 1.59.06l-.002.385"/>
        <path fill="#4D5A5C" d="M59.958 3.154a15.21 15.21 0 0 0-.53-.07l.001-.386c.178.017.355.037.531.06l-.002.396"/>
        <path fill="#D3D4CE" d="M66.72 28.133a13.445 13.445 0 0 0 3.175-4.232h.525a14.101 14.101 0 0 1-3.7 4.232m4.454-5.76h-.659a13.512 13.512 0 0 0-.905-10.743h1.696a14.222 14.222 0 0 1-.132 10.744"/>
        <path fill="#60777F" d="M69.088 10.741a13.616 13.616 0 0 0-.456-.668l1.024-1.196c.162.212.32.43.47.652l-1.038 1.212"/>
        <path fill="#6A8087" d="M71.306 11.63H69.61a13.706 13.706 0 0 0-.522-.889l1.039-1.212a15.217 15.217 0 0 1 1.056 1.8l.123.3"/>
        <path fill="#D3D4CE" d="M44.588 21.06a14.23 14.23 0 0 1 .352-9.43h.926a13.577 13.577 0 0 0-1.278 9.43"/>
        <path fill="#60777F" d="M45.866 11.63h-.926a14.131 14.131 0 0 1 5.736-6.872 14.986 14.986 0 0 1 3.518-1.347l-1.968 2.297a13.66 13.66 0 0 0-1.173.598 13.44 13.44 0 0 0-5.187 5.324m22.146-2.347A13.403 13.403 0 0 0 66.17 7.49l1-1.168c.661.534 1.282 1.129 1.853 1.781l-1.011 1.18m-3.8-3.098a13.532 13.532 0 0 0-2.628-1.096V3.492c1.272.337 2.5.842 3.649 1.502l-1.02 1.191m-8.711-1.473l1.46-1.705a14.944 14.944 0 0 1 .877-.02v1.54l-.113-.001c-.74 0-1.485.061-2.224.186"/>
        <path fill="#6A8087" d="M52.226 5.708l1.968-2.297a14.878 14.878 0 0 1 2.768-.404l-1.46 1.705c-1.11.187-2.21.516-3.276.996M66.17 7.49a13.43 13.43 0 0 0-1.957-1.305l1.02-1.19a14.97 14.97 0 0 1 1.938 1.327L66.17 7.49M68.632 10.073a13.499 13.499 0 0 0-.62-.79l1.01-1.18c.22.25.43.508.634.774l-1.024 1.196"/>
        <path fill="#4E5B5D" d="M61.584 5.089a13.538 13.538 0 0 0-1.635-.379l.009-1.556c.548.083 1.09.195 1.626.338v1.597m-2.165-.456a13.465 13.465 0 0 0-1.58-.107V2.988c.532.004 1.062.036 1.588.096l-.008 1.549"/>
        <path fill="#C4C5C1" d="M70.42 23.901h-.525a13.59 13.59 0 0 0 .62-1.527h.659c-.22.522-.472 1.033-.754 1.527"/>
        <path fill="#4B5759" d="M59.95 4.71c-.177-.03-.354-.055-.531-.077l.008-1.549c.177.02.355.044.531.07l-.009 1.556"/>
        <path fill="#FFFFFE" d="M65.058 29.226l-.154-.271 1.197-.685.127.222a14.348 14.348 0 0 1-1.17.734"/>
        <path fill="#D3D4CE" d="M63.894 29.828l-.043-.075.043.075m.545-.607h-.2l.615-.353.05.087-.465.266"/>
        <path fill="#C4C5C1" d="M63.85 29.753l-.133-.234.521-.298h.2l-.671.384.084.148"/>
        <path fill="#EEEDE8" d="M63.887 29.816l-.12-.21 1.137-.651.154.27c-.385.217-.776.414-1.171.591"/>
        <path fill="#565A57" d="M64.76 28.527c-6.47 3.7-14.707 1.445-18.4-5.039-3.692-6.483-1.441-14.739 5.028-18.44 6.469-3.7 14.706-1.445 18.398 5.039 3.693 6.483 1.442 14.739-5.027 18.44zM50.626 3.713c-7.205 4.121-9.712 13.317-5.6 20.538 4.113 7.221 13.288 9.733 20.493 5.612 7.205-4.122 9.712-13.318 5.6-20.539-4.113-7.22-13.288-9.734-20.493-5.611z"/>
        <path fill="#EFB687" d="M69.425 51.09l2.23-4.478 3.29 2.008-2.14 4.296c-1.22 2.45-4.6.625-3.38-1.826"/>
        <path fill="#4995A3" d="M71.147 54.076a1.716 1.716 0 0 1 0 0"/>
        <path fill="#DBAA7F" d="M71.11 54.076a1.99 1.99 0 0 1-1.763-1.126c.367.368.87.587 1.382.587.327 0 .656-.089.954-.286.041.221.09.444.148.669a1.717 1.717 0 0 1-.721.156"/>
        <path fill="#EFB687" d="M67.629 49.447l2.405-4.829 3.548 2.166-2.308 4.633c-1.317 2.643-4.962.674-3.645-1.97"/>
        <path fill="#4995A3" d="M69.242 52.66"/>
        <path fill="#DBAA7F" d="M69.446 52.669c.687 0 1.388-.369 1.828-1.252l.283-.568-.283.568c-.44.883-1.14 1.252-1.828 1.252"/>
        <path fill="#4995A3" d="M69.142 52.645h-.003a.05.05 0 0 0 .003 0m-.005 0l-.002-.001h.002"/>
        <path fill="#DBAA7F" d="M69.445 52.669a1.955 1.955 0 0 1-.303-.024h-.006l-.001-.001a2.158 2.158 0 0 1-1.59-1.19c.395.397.939.633 1.49.633.688 0 1.388-.368 1.828-1.251l1.067-2.142.097.328a5.659 5.659 0 0 0-.47 1.827l-.283.568c-.44.883-1.14 1.252-1.829 1.252"/>
        <path fill="#EFB687" d="M65.745 47.105l2.948-5.918 4.348 2.654-2.829 5.677c-1.613 3.24-6.08.826-4.467-2.413"/>
        <path fill="#DBAA7F" d="M68.616 50.96c.492-.143.96-.463 1.333-.996-.373.533-.84.853-1.333.997"/>
        <path fill="#DBAA7F" d="M67.972 51.052c-.96 0-1.901-.585-2.33-1.49a2.612 2.612 0 0 0 1.827.777c.843 0 1.7-.45 2.24-1.533l1.356-2.722c.125.336.245.677.356 1.008l-1.209 2.426c-.08.163-.169.312-.263.446-.373.533-.841.853-1.333.997a2.288 2.288 0 0 1-.644.091"/>
        <path fill="#EFB687" d="M64.304 44.06l3.047-5.892 4.703 2.748-2.923 5.652c-1.668 3.225-6.495.717-4.827-2.508"/>
        <path fill="#DBAA7F" d="M67.614 47.939c.593-.2 1.137-.637 1.517-1.371l1.171-2.264-1.171 2.264c-.38.734-.924 1.171-1.517 1.37"/>
        <path fill="#DBAA7F" d="M66.807 48.068c-1.044 0-2.085-.61-2.569-1.54.54.509 1.278.815 2.017.815.887 0 1.776-.441 2.324-1.5l1.235-2.393.322.551c.055.095.11.196.166.303l-1.171 2.264c-.38.734-.924 1.171-1.517 1.37-.263.089-.535.13-.807.13"/>
        <path fill="#EFB687" d="M81.467 63.232l3.035 1.943 7.609-10.51-3.345-2.7c-.72-2.292-1.447-4.583-2.157-6.878-.33-1.069-.632-2.153-1-3.21-.434-1.25-1.262-1.967-2.478-2.451-2.957-1.175-6.154-1.96-9.23-2.752-.05-.012-1.034-.248-1.031-.266l-.607 4.436 6.176 16.31-1.539 3.508 4.567 2.57"/>
        <path fill="#4B9AA8" d="M73.982 36.695l-.08-.02.08.02m-1.112-.286v-.001.001"/>
        <path fill="#DBAA7F" d="M78.32 45.739l-5.45-9.33c.027.024.981.253 1.031.265l.068.018.03.008.018.004 4.303 9.035m-5.45-9.33"/>
        <path fill="#EFB687" d="M83.169 51.848c-.27-.603-.591-1.187-.925-1.745-.882-1.473-1.991-2.705-3.292-3.818-.175-.15-.514-.344-.632-.546l-2.668-4.567-4.04-6.918c-2.085-3.568-7.423-.435-5.34 3.132L70.136 44c.763 1.307 1.562 3.894 1.89 5.021-.83 1.797-.65 4.541.653 7.166 1.843 3.716 5.234 5.783 7.574 4.617 2.797-1.394 4.238-5 3.31-7.927a9.838 9.838 0 0 0-.394-1.03"/>
        <path fill="#DBAA7F" d="M81.768 63.424l-.3-.192-4.567-2.57c.652.306 1.306.469 1.93.469.476 0 .933-.095 1.357-.295l2.436 1.37-.856 1.218"/>
        <path fill="#4995A3" d="M74.07799999999999 58.367l-.001-.002.001.002m-.007-.009l-.004-.005.004.005M72.688 56.205l-.004-.007.004.007"/>
        <path fill="#478F9D" d="M67.059 38.733a11224.758 11224.758 0 0 1-.79-1.354c0 .003.002.005.003.007l.787 1.347M66.266 37.375l-.001-.002v.002m-.003-.007"/>
        <path fill="#DBAA7F" d="M78.83 61.13c-.623 0-1.277-.162-1.929-.468-.985-.462-1.962-1.248-2.816-2.286a.797.797 0 0 0-.007-.01h-.001a.678.678 0 0 1-.007-.009l-.003-.004a11.504 11.504 0 0 1-1.378-2.145l-.002-.004-.003-.006a10.423 10.423 0 0 1-1-2.947 9.127 9.127 0 0 1-.161-1.67c0-.96.17-1.836.504-2.559a49.798 49.798 0 0 0-.606-1.93c-.111-.33-.23-.672-.356-1.008a16.636 16.636 0 0 0-.763-1.78 6.869 6.869 0 0 0-.166-.303l-.322-.55-2.755-4.718-.787-1.347-.003-.007-.003-.004-.001-.002-.003-.005c-1.215-2.106.15-4.055 1.9-4.56-.297.293-.538.64-.696 1.027-.857.642-1.293 1.85-.524 3.168l.368.63.011.018c.016.027.053.04.11.04.154 0 .449-.095.825-.261l3.338 5.716c.763 1.306 1.562 3.893 1.89 5.02-.83 1.798-.65 4.542.653 7.167 1.06 2.136 2.632 3.728 4.221 4.473l1.83 1.03c-.424.2-.881.295-1.357.295"/>
        <path fill="#F9DDC3" d="M68.256 37.43l-.526-.9c-.568-.973-.584-1.914-.264-2.695a2.386 2.386 0 0 1 1.42-.481c.752 0 1.528.38 2.064 1.298l.368.63.01.018c.1.169-.718.832-1.825 1.482-.455.267-.888.49-1.247.648"/>
        <path fill="#F0D8C0" d="M67.43 37.69c-.056 0-.093-.012-.109-.039l-.01-.018-.369-.63c-.769-1.317-.333-2.526.524-3.168-.32.781-.304 1.722.264 2.696l.526.899c-.376.166-.671.26-.825.26"/>
        <path fill="#FFFFFE" d="M96.621 56.634l-6.727-4.756-8.684 12.338 7 4.95 8.411-12.532"/>
        <path fill="#42585D" d="M92.611 51.825l-10.6 15.07L86.404 70h25.584v-4.825l-19.377-13.35"/>
        <path fill="#55ADBB" d="M91.684 53.143l-1.789-1.264.001-.001 1.786 1.26.93-1.313-.928 1.318"/>
        <path fill="#FFFFFE" d="M87.318 59.35l-1.8-1.24 4.377-6.23 1.789 1.263-4.366 6.207"/>
        <path fill="#485E63" d="M111.988 70h-9.22l-15.45-10.65 5.293-7.525 19.377 13.35V70"/>
        <path fill="#DBDCD6" d="M86.75 67.054a.945.945 0 0 0-1.311.261.949.949 0 0 0 .26 1.314.943.943 0 0 0 1.311-.262.948.948 0 0 0-.26-1.313"/>
        <path fill="#C6C7C2" d="M86.226 68.474a.631.631 0 1 1 0 0m.165-.635a.125.125 0 0 0-.123.103.124.124 0 0 0 .122.144.124.124 0 1 0 0-.247m-.372-.272a.125.125 0 0 0-.122.103.124.124 0 0 0 .122.144c.059 0 .11-.043.122-.103a.123.123 0 0 0-.122-.144"/>
        <path fill="#A9ABA8" d="M86.019 67.814c-.007 0-.014 0-.02-.002a.124.124 0 0 1-.103-.142.125.125 0 0 1 .143-.101.123.123 0 0 1-.02.245M86.39 68.086c-.007 0-.013 0-.02-.002a.124.124 0 0 1-.102-.142.125.125 0 0 1 .143-.102.124.124 0 0 1-.021.246"/>
        <path fill="#DBDCD6" d="M84.89 65.778a.947.947 0 0 0-1.05 1.575.943.943 0 0 0 1.31-.261.948.948 0 0 0-.26-1.314"/>
        <path fill="#C6C7C2" d="M84.366 67.198a.63.63 0 0 1-.623-.737.631.631 0 1 1 .623.737m.164-.635a.123.123 0 1 0 0 .247c.06 0 .112-.043.122-.103a.122.122 0 0 0-.122-.144m-.371-.272a.124.124 0 1 0 0 .247c.058 0 .11-.043.121-.103a.124.124 0 0 0-.121-.144"/>
        <path fill="#A9ABA8" d="M84.16 66.538c-.008 0-.015 0-.022-.002a.124.124 0 0 1-.101-.142.124.124 0 0 1 .244.04.124.124 0 0 1-.122.104"/>
    </g>
</svg>
