<svg xmlns="http://www.w3.org/2000/svg" width="63" height="70" viewBox="0 0 63 70">
    <g fill="none" fill-rule="nonzero">
        <path fill="#6E8C61" d="M23.47 62.632v-19.65c0-4.07 5.254-7.368 11.736-7.368 1.528 0 2.984.19 4.323.523V0H0v68.772h28.724c-3.165-1.32-5.253-3.576-5.253-6.14"/>
        <path fill="#E9E8D3" d="M6.176 25.905c2.843-4.49 7.858-7.484 13.589-7.484 5.73 0 10.746 2.993 13.588 7.484V13.478a6.84 6.84 0 0 1-.618.03c-3.753 0-6.794-3.024-6.794-6.754 0-.207.013-.411.031-.614H13.557c.019.203.031.407.031.614 0 3.73-3.041 6.755-6.794 6.755a6.84 6.84 0 0 1-.618-.03v12.426zM23.47 52.807v-2.893c-1.189.28-2.428.437-3.705.437-5.73 0-10.746-2.993-13.589-7.484v12.427a6.84 6.84 0 0 1 .618-.03c3.753 0 6.794 3.023 6.794 6.754 0 .207-.012.41-.03.614h9.913v-9.825zM29.647 6.754c0-1.693 1.385-3.07 3.088-3.07 1.704 0 3.089 1.377 3.089 3.07 0 1.694-1.385 3.07-3.089 3.07-1.703 0-3.088-1.376-3.088-3.07M3.706 6.754c0-1.693 1.385-3.07 3.088-3.07 1.704 0 3.088 1.377 3.088 3.07 0 1.694-1.384 3.07-3.088 3.07-1.703 0-3.088-1.376-3.088-3.07M3.706 62.018c0-1.694 1.385-3.07 3.088-3.07 1.704 0 3.088 1.376 3.088 3.07 0 1.693-1.384 3.07-3.088 3.07-1.703 0-3.088-1.377-3.088-3.07"/>
        <path fill="#FCC62D" d="M46.941 42.982c0 4.07-5.254 7.369-11.735 7.369-6.482 0-11.735-3.299-11.735-7.369s5.253-7.368 11.735-7.368c6.481 0 11.735 3.299 11.735 7.368"/>
        <path fill="#D19D18" d="M35.206 65.088c-6.482 0-11.735-3.299-11.735-7.369v4.913c0 4.07 5.253 7.368 11.735 7.368 6.481 0 11.735-3.299 11.735-7.368v-4.913c0 4.07-5.254 7.369-11.735 7.369"/>
        <path fill="#E4AF18" d="M35.206 60.175c-6.482 0-11.735-3.298-11.735-7.368v4.912c0 4.07 5.253 7.369 11.735 7.369 6.481 0 11.735-3.299 11.735-7.369v-4.912c0 4.07-5.254 7.368-11.735 7.368"/>
        <path fill="#D19D18" d="M35.206 55.263c-6.482 0-11.735-3.298-11.735-7.368v4.912c0 4.07 5.253 7.368 11.735 7.368 6.481 0 11.735-3.298 11.735-7.368v-4.912c0 4.07-5.254 7.368-11.735 7.368"/>
        <path fill="#E4AF18" d="M35.206 50.35c-6.482 0-11.735-3.298-11.735-7.368v4.913c0 4.07 5.253 7.368 11.735 7.368 6.481 0 11.735-3.298 11.735-7.368v-4.913c0 4.07-5.254 7.369-11.735 7.369"/>
        <path fill="#FCC62D" d="M63 28.246c0 4.07-5.254 7.368-11.735 7.368-6.482 0-11.736-3.299-11.736-7.368 0-4.07 5.254-7.369 11.736-7.369 6.481 0 11.735 3.299 11.735 7.369"/>
        <path fill="#E9E8D3" d="M27.076 37.676c2.593-4.605.1-9.43.1-9.43-1.053-.306-4.14.609-4.495 1.603a6.161 6.161 0 0 0-4.152-1.603c-2.007 0-2.857 2.087-3.467 2.297a2.992 2.992 0 0 1-.92.159c-.92.014-1.783-.458-2.403-1.135l-4.603-5.022a15.829 15.829 0 0 0-.001 19.681l4.562-4.984c.75-.818 1.854-1.314 2.95-1.124.156.028.31.066.463.118.397.133 2.339 2.19 2.765 2.238 1.294 3.034 4.118 1.82 6.056.48.578-1.266 1.674-2.39 3.145-3.278"/>
        <path fill="#E4AF18" d="M51.265 65.088c-1.675 0-3.264-.224-4.706-.62-.562 1.371-1.73 2.586-3.324 3.527 2.1 1.24 4.92 2.005 8.03 2.005C57.746 70 63 66.701 63 62.632v-4.913c0 4.07-5.254 7.369-11.735 7.369"/>
        <path fill="#D19D18" d="M51.265 60.175c-1.528 0-2.985-.189-4.324-.523v2.98c0 .634-.142 1.247-.382 1.836 1.442.396 3.03.62 4.706.62 6.481 0 11.735-3.299 11.735-7.369v-4.912c0 4.07-5.254 7.368-11.735 7.368"/>
        <path fill="#E4AF18" d="M51.265 55.263c-1.528 0-2.985-.189-4.324-.523v4.912c1.34.334 2.796.523 4.324.523 6.481 0 11.735-3.298 11.735-7.368v-4.912c0 4.07-5.254 7.368-11.735 7.368"/>
        <path fill="#D19D18" d="M51.265 50.35c-1.528 0-2.985-.188-4.324-.522v4.912c1.34.334 2.796.523 4.324.523 6.481 0 11.735-3.298 11.735-7.368v-4.913c0 4.07-5.254 7.369-11.735 7.369"/>
        <path fill="#E4AF18" d="M51.265 45.439c-1.528 0-2.985-.19-4.324-.524v4.913c1.34.334 2.796.523 4.324.523C57.746 50.35 63 47.052 63 42.982V38.07c0 4.07-5.254 7.369-11.735 7.369"/>
        <path fill="#D19D18" d="M51.265 40.526c-2.036 0-3.95-.326-5.62-.899.823 1.007 1.296 2.146 1.296 3.355v1.933c1.34.334 2.796.524 4.324.524C57.746 45.439 63 42.14 63 38.07v-4.912c0 4.07-5.254 7.368-11.735 7.368"/>
        <path fill="#E4AF18" d="M51.265 35.614c-6.482 0-11.736-3.299-11.736-7.368v4.912c0 1.21.474 2.348 1.296 3.355 2.064.709 3.744 1.798 4.82 3.114 1.67.573 3.584.9 5.62.9 6.481 0 11.735-3.3 11.735-7.37v-4.911c0 4.07-5.254 7.368-11.735 7.368"/>
        <path fill="#607B53" d="M50.647 20.897V0h-3.706v21.4a17.757 17.757 0 0 1 3.706-.503"/>
        <path fill="#546949" d="M46.941 21.4V0h-3.706v22.883c1.068-.632 2.32-1.138 3.706-1.483"/>
        <path fill="#607B53" d="M43.235 22.881V.001H39.53v28.246c0-2.119 1.43-4.02 3.706-5.366"/>
    </g>
</svg>
