<svg xmlns="http://www.w3.org/2000/svg" width="67" height="61" viewBox="0 0 67 61">
    <g fill="none" fill-rule="nonzero">
        <path fill="#2C5871" d="M2.678 60.013h2.047c.376 0 .68-.308.68-.688V19.573a.684.684 0 0 0-.68-.688H2.678a.684.684 0 0 0-.68.688v39.752c0 .38.304.688.68.688z"/>
        <path fill="#1D4859" d="M4.725 18.885H3.701v41.128h1.024c.376 0 .68-.308.68-.688V19.573a.684.684 0 0 0-.68-.688z"/>
        <path fill="#2C5871" d="M61.68 60.013h2.047c.376 0 .68-.308.68-.688V19.573a.684.684 0 0 0-.68-.688H61.68a.684.684 0 0 0-.68.688v39.752c0 .38.304.688.68.688z"/>
        <path fill="#F09255" d="M55.186 33.821h-3.57a.715.715 0 0 0-.694.545l-.714 2.878a.723.723 0 0 0 .13.617.712.712 0 0 0 .563.276h4.285a.717.717 0 0 0 .714-.719V34.54c0-.397-.32-.719-.714-.719zM16.602 34.366a.715.715 0 0 0-.692-.545h-3.571a.717.717 0 0 0-.714.72v2.877c0 .397.32.72.714.72h4.285c.22 0 .427-.103.563-.277a.724.724 0 0 0 .13-.617l-.715-2.878z"/>
        <path fill="#F6B461" d="M53.806 42.005l-2.905-3.868-3.653-10.549a3.578 3.578 0 0 0-3.367-2.4H23.643a3.578 3.578 0 0 0-3.367 2.4l-3.652 10.55-2.906 3.867a3.595 3.595 0 0 0-.665 2.09v8.43c0 .398.32.72.714.72h39.99a.717.717 0 0 0 .715-.72v-8.43c0-.754-.23-1.477-.666-2.09z"/>
        <path fill="#F09255" d="M43.881 25.188H23.643a3.578 3.578 0 0 0-3.367 2.4l-3.652 10.55H50.9l-3.653-10.55a3.578 3.578 0 0 0-3.367-2.4z"/>
        <path fill="#F6B461" d="M19.356 37.418a.719.719 0 0 1-.673-.959l2.94-8.392a2.147 2.147 0 0 1 2.02-1.44h20.238c.907 0 1.719.579 2.02 1.44l2.94 8.392a.719.719 0 0 1-.673.959H19.356z"/>
        <path fill="#C7CFE2" d="M47.832 35.74l-2.604-7.434a1.431 1.431 0 0 0-1.347-.96H23.643c-.604 0-1.145.386-1.346.96l-2.605 7.434a.724.724 0 0 0 .09.655c.135.19.352.304.584.304h26.793c.232 0 .449-.114.583-.304a.724.724 0 0 0 .09-.655z"/>
        <path fill="#AFB9D2" d="M23.643 27.346c-.604 0-1.145.386-1.346.96l-2.605 7.434a.724.724 0 0 0 .09.655c.135.19.352.304.584.304h10.98l2.775-9.353H23.643z"/>
        <path fill="#F59F3F" d="M46.616 44.612c-2.402 0-4.284 1.264-4.284 2.878 0 1.613 1.882 2.877 4.284 2.877 2.403 0 4.285-1.264 4.285-2.877 0-1.614-1.882-2.878-4.285-2.878z"/>
        <path fill="#FCDE76" d="M46.616 49.648c-1.969 0-3.57-.968-3.57-2.158s1.601-2.159 3.57-2.159c1.97 0 3.57.969 3.57 2.159s-1.6 2.158-3.57 2.158z"/>
        <path fill="#FCCF6F" d="M43.76 47.13c0-.452.17-.876.467-1.242-.725.395-1.181.967-1.181 1.602 0 1.19 1.601 2.158 3.57 2.158.126 0 .25-.004.373-.012-1.81-.122-3.23-1.2-3.23-2.506z"/>
        <path fill="#F59F3F" d="M20.908 44.612c-2.402 0-4.284 1.264-4.284 2.878 0 1.613 1.882 2.877 4.284 2.877 2.403 0 4.285-1.264 4.285-2.877 0-1.614-1.882-2.878-4.285-2.878z"/>
        <path fill="#FCDE76" d="M20.908 49.648c-1.969 0-3.57-.968-3.57-2.158s1.601-2.159 3.57-2.159c1.97 0 3.57.969 3.57 2.159s-1.6 2.158-3.57 2.158z"/>
        <path fill="#FCCF6F" d="M18.052 47.13c0-.452.17-.876.467-1.242-.725.395-1.181.967-1.181 1.602 0 1.19 1.601 2.158 3.57 2.158.126 0 .25-.004.373-.012-1.81-.122-3.23-1.2-3.23-2.506z"/>
        <g fill="#787485">
            <path d="M20.908 54.684h-5.713a.717.717 0 0 0-.714.719v2.158c0 .794.641 1.439 1.429 1.439h4.284c.788 0 1.428-.645 1.428-1.439v-2.158c0-.397-.32-.72-.714-.72zM52.33 54.684h-5.714a.717.717 0 0 0-.714.719v2.158c0 .794.64 1.439 1.428 1.439h4.285c.788 0 1.428-.645 1.428-1.439v-2.158c0-.397-.32-.72-.714-.72z"/>
        </g>
        <g fill="#696578">
            <path d="M20.908 54.684h-5.713a.717.717 0 0 0-.714.719v1.435a3.595 3.595 0 0 0 2.285.723h4.856v-2.158c0-.397-.32-.72-.714-.72zM52.33 54.684h-5.714a.717.717 0 0 0-.714.719v2.158h4.999a3.538 3.538 0 0 0 2.142-.722v-1.436c0-.397-.32-.72-.714-.72z"/>
        </g>
        <path fill="#D2D1D6" d="M37.333 43.173h-7.141c-1.97 0-3.57 1.614-3.57 3.597v5.755c0 .398.319.72.713.72H40.19a.717.717 0 0 0 .714-.72V46.77c0-1.983-1.601-3.597-3.57-3.597z"/>
        <g fill="#9693A0">
            <path d="M40.903 46.77c0-.246-.024-.487-.071-.72H26.693a3.625 3.625 0 0 0-.072.72v.72h14.282v-.72zM26.621 48.929h14.282v1.439H26.621z"/>
        </g>
        <g fill="#F09255">
            <path d="M23.05 43.893h-4.284a.717.717 0 0 1-.714-.72c0-.397.32-.72.714-.72h4.285c.394 0 .714.323.714.72 0 .397-.32.72-.714.72zM48.759 43.893h-4.285a.717.717 0 0 1-.714-.72c0-.397.32-.72.714-.72h4.285c.394 0 .714.323.714.72 0 .397-.32.72-.714.72zM54.263 52.017a.712.712 0 0 0-.506-.211h-39.99a.717.717 0 0 0-.714.72c0 .72.223 1.443.627 2.035a3.586 3.586 0 0 0 3.086 1.562H50.9c.43 0 .852-.077 1.252-.228a3.616 3.616 0 0 0 2.319-3.369.723.723 0 0 0-.21-.509z"/>
        </g>
        <g fill="#FDFAB6" transform="translate(20.194 46.77)">
            <ellipse cx=".714" cy=".719" rx="1" ry="1"/>
            <ellipse cx="26.422" cy=".719" rx="1" ry="1"/>
        </g>
        <path fill="#1D4859" d="M63.49 18.885h-1.024v41.128h1.023c.376 0 .68-.308.68-.688V19.573a.683.683 0 0 0-.68-.688z"/>
        <path fill="#FF934C" d="M33.714.33c-.397-.2-.864-.2-1.26 0L1.118 16.14c-.595.3-.971.915-.971 1.588v3.248c0 1.318 1.37 2.176 2.536 1.588l29.77-15.021c.396-.2.863-.2 1.26 0l29.769 15.02c1.166.59 2.536-.269 2.536-1.587v-3.248c0-.673-.376-1.287-.97-1.588L33.713.33z"/>
        <path fill="#F3893A" d="M63.483 18.979L33.714 3.958c-.397-.2-.864-.2-1.26 0l-29.77 15.02C1.57 19.542.27 18.782.158 17.562c-.005.056-.009.111-.009.167v3.248c0 1.318 1.37 2.176 2.537 1.588L32.453 7.543c.397-.2.864-.2 1.261 0l29.769 15.02c1.166.59 2.536-.269 2.536-1.587v-3.248a1.83 1.83 0 0 0-.008-.166c-.112 1.22-1.413 1.98-2.528 1.417z"/>
    </g>
</svg>
