<svg xmlns="http://www.w3.org/2000/svg" width="101" height="105" viewBox="0 0 101 105">
    <g fill="none" fill-rule="nonzero">
        <path fill="#E6E6E6" d="M76.112 69.979H9.816l-.002-.002a7.137 7.137 0 0 0 2.074-3.373L13.163 62c1.944-7.032 8.371-11.902 15.698-11.902h27.495a18.197 18.197 0 0 1 13.93 6.473 17.962 17.962 0 0 1 3.303 5.885l1.761 5.25.003.005.759 2.268z"/>
        <g fill="#F2F2F2">
            <path d="M50.404 69.288h-14.72l14.248-19.88.048-.07.002.07zM75.399 69.288h-14.72l9.607-13.408a17.962 17.962 0 0 1 3.303 5.886l1.761 5.25.003.004.046 2.268zM28.861 52.488v16.8H16.822z"/>
        </g>
        <path fill="#F7B239" d="M79.113 76.205l-1.294-7.22a1.473 1.473 0 0 0-.062-.242l-2.523-7.523c-2.71-8.098-10.299-13.54-18.878-13.54H28.86c-1.647 0-3.256.226-4.79.65-5.997 1.655-10.876 6.346-12.581 12.522l-1.276 4.603c-.22.792-2.136 3.891-2.131 3.95l.22 6.395.018.54a1.73 1.73 0 0 0 1.73 1.666l6.47.023h.002l60.875.207h.007a1.727 1.727 0 0 0 1.708-2.031zm-61.712-1.63l-5.666-.018-.157-4.587.064-.071s.003-.003.003-.005a8.915 8.915 0 0 0 1.916-3.523l1.275-4.603c1.19-4.299 4.28-7.707 8.214-9.422a14.554 14.554 0 0 1 5.811-1.212h27.495c7.084 0 13.347 4.493 15.588 11.177l2.48 7.406.908 5.059-57.931-.2z"/>
        <path fill="#F95428" d="M43 0c0 20.593-14.647 17.108-14.329 31.048.18 7.87 6.838 12.376 14.311 13.251-1.79-2.059-9.692-12.313 2.566-20.538.393 7.927 7.005 9.188 7.005 14.89 0 2.402-.508 4.015-1.097 5.08 6.167-1.604 11.393-5.88 12.242-13C65.927 12.04 43 0 43 0z"/>
        <path fill="#F7B239" d="M99.86 79.185l-1.998 11.14-.981 5.469H5.94a2.672 2.672 0 0 1-2.68-2.666V77.242a7.16 7.16 0 0 1 4.443-6.616 7.156 7.156 0 0 0 2.111-1.34l.002.002h17.328V49.493h3.472v19.795H48.26V49.861h3.472v19.427h24.38l17.003 1.253c4.38.322 7.517 4.343 6.745 8.644z"/>
        <path fill="#E09B2D" d="M9.972 93.128V77.242a7.16 7.16 0 0 1 4.443-6.616 7.166 7.166 0 0 0 2.108-1.337H9.816l-.002-.003a7.162 7.162 0 0 1-2.11 1.34 7.16 7.16 0 0 0-4.444 6.616v15.886c0 1.472 1.2 2.666 2.68 2.666h6.712a2.673 2.673 0 0 1-2.68-2.666z"/>
        <path fill="#FFF" d="M93.98 85.028a1.728 1.728 0 0 1-1.71-2.031l.899-5.019a1.735 1.735 0 0 1 2.014-1.396 1.728 1.728 0 0 1 1.404 2.004l-.9 5.018a1.734 1.734 0 0 1-1.708 1.424z"/>
        <path fill="#E09B2D" d="M97.862 90.325l-.981 5.469H5.94a2.672 2.672 0 0 1-2.68-2.666v-2.803h94.602z"/>
        <g fill="#CCC">
            <path d="M99.228 91.996h-9.163a1.731 1.731 0 0 1-1.735-1.727c0-.954.777-1.727 1.735-1.727h9.163c.958 0 1.736.773 1.736 1.727 0 .953-.778 1.727-1.736 1.727zM11.05 91.996H1.772a1.731 1.731 0 0 1-1.736-1.727c0-.954.778-1.727 1.736-1.727h9.278c.959 0 1.736.773 1.736 1.727 0 .953-.777 1.727-1.736 1.727z"/>
        </g>
        <ellipse cx="86.894" cy="80.424" fill="#F95428" rx="1.62" ry="1.612"/>
        <path fill="#666" d="M91.579 94.825c.015-.234.022-.47.022-.707 0-6.01-4.896-10.88-10.935-10.88-6.042 0-10.938 4.87-10.938 10.88 0 .236.008.473.023.707.366 5.68 5.111 10.175 10.915 10.175 5.802 0 10.547-4.494 10.913-10.175z"/>
        <path fill="#CCC" d="M80.666 98.582c-2.474 0-4.487-2.002-4.487-4.463 0-2.462 2.013-4.464 4.487-4.464 2.473 0 4.486 2.002 4.486 4.464 0 2.46-2.013 4.463-4.486 4.463z"/>
        <path fill="#4D4D4D" d="M80.666 99.473c-2.968 0-5.382-2.402-5.382-5.354 0-2.953 2.414-5.355 5.382-5.355 2.967 0 5.381 2.402 5.381 5.355 0 2.952-2.414 5.354-5.381 5.354zm0-8.927c-1.98 0-3.592 1.603-3.592 3.573s1.611 3.573 3.592 3.573c1.98 0 3.59-1.603 3.59-3.573s-1.61-3.573-3.59-3.573z"/>
        <path fill="#666" d="M31.405 94.825c.015-.234.023-.47.023-.707 0-6.01-4.896-10.88-10.935-10.88-6.042 0-10.938 4.87-10.938 10.88 0 .236.007.473.023.707.366 5.68 5.11 10.175 10.914 10.175 5.802 0 10.547-4.494 10.913-10.175z"/>
        <path fill="#CCC" d="M20.492 98.582c-2.474 0-4.487-2.002-4.487-4.463 0-2.462 2.013-4.464 4.487-4.464s4.486 2.002 4.486 4.464c0 2.46-2.012 4.463-4.486 4.463z"/>
        <path fill="#4D4D4D" d="M20.492 99.473c-2.968 0-5.382-2.402-5.382-5.354 0-2.953 2.414-5.355 5.382-5.355 2.967 0 5.381 2.402 5.381 5.355 0 2.952-2.414 5.354-5.381 5.354zm0-8.927c-1.98 0-3.591 1.603-3.591 3.573s1.61 3.573 3.59 3.573c1.98 0 3.592-1.603 3.592-3.573s-1.611-3.573-3.591-3.573z"/>
        <path fill="#E09B2D" d="M24.07 48.33l-1.02 4.015c-3.934 1.716-7.024 5.124-8.214 9.423l-1.275 4.603a8.915 8.915 0 0 1-1.983 3.599L8.303 75.8 4.57 73.12c-.004-.06 5.423-5.936 5.643-7.666l1.276-4.603c1.705-6.175 6.584-10.866 12.58-12.521z"/>
    </g>
</svg>
