<svg xmlns="http://www.w3.org/2000/svg" width="104" height="100" viewBox="0 0 104 100">
    <g fill="none" fill-rule="evenodd">
        <path fill="#F9F9F9" d="M14.615 77.533H70V.044H14.615z"/>
        <path fill="#FF930C" d="M24.462 77.533H70v-2.757H24.462z"/>
        <path fill="#D7DBD6" d="M24.462 71.101h14V70.03h-14zM21.23 16.583h22.616v-1.071H21.231zM21.23 21.637H62v-1.072H21.23zM21.23 25.772H62V24.7H21.23zM21.23 29.907H62v-1.072H21.23zM21.23 34.041H62V32.97H21.23zM21.23 38.176H62v-1.072H21.23zM21.23 42.311H62v-1.072H21.23zM21.23 46.446h40.924v-1.072H21.23zM21.23 50.58h21.078V49.51H21.23zM47.077 71.101h14V70.03h-14z"/>
        <path fill="#FF930C" d="M14.615 2.8H70V.045H14.615z"/>
        <path fill="#DDAA81" d="M36.532 62.55l.684.078a1.58 1.58 0 0 0 1.746-1.383 1.578 1.578 0 0 0-1.39-1.74l-2.42-.274-2.925-1.459-6.041 1.121-6.351 7.343 4.385 4.046 5.908-2.85.773-.739 2.427.275a1.58 1.58 0 0 0 1.746-1.383 1.55 1.55 0 0 0-.073-.678 1.58 1.58 0 0 0 1.738-1.385c.04-.35-.04-.688-.207-.971"/>
        <path fill="#F7CBA8" d="M19.663 65.044l8.655 4.427-8.037 15.592H9.344l10.319-20.02"/>
        <path fill="#F7CBA8" d="M15.503 73.53l1.657.382c-.004 3.168 9.347-1.004 11.858-3.092h.002l7.83-8.483c1.515-1.643-1.82-2.446-3.514-.524l-3.317 3.762c-1.325 1.503-3.65 1.37-4.728-.051-2.119-2.793 1.116-5.342 3.416-5.487l6.964-.547c2.559-.2 3.25-2.7 1.01-2.762l-8.027-.222c-1.326-.036-1.715.196-2.218.399l-5.59 2.258c-1.333.539-1.776 1.244-2.383 2.36l-1.876 9.488-1.084 2.52"/>
        <path fill="#FBDEC6" d="M35.443 57.96c1.415.195 2.21-.219 2.485-.658-.177-.323-.583-.556-1.247-.574l-1.672-.046c-.047.623.02 1.222.434 1.278"/>
        <path fill="#FFFFFE" d="M22.46 82.674l-10.165-5.2 3.532-6.851 10.165 5.2-3.532 6.851"/>
        <path fill="#181F1F" d="M14.239 99.902L24.932 79.34 13.576 73.53 0 99.902h14.239"/>
        <path fill="#A8AEAD" d="M24.4 76.602a.507.507 0 0 0-.682.219.503.503 0 0 0 .22.679.504.504 0 1 0 .462-.897M47.808 65.936c.005.124-.08.99-.094.979-.16-.13-.247-.344-.314-.53-.149-.41-.158-.869-.163-1.3-.01-.828.104-1.659.234-2.48.145 1.108.293 2.225.337 3.331zm-1.254-14.31c-.007-.657.044-1.312.148-1.96.044-.274.043-.65.297-.272.159.238.259.512.348.782.33 1.002.264 2.133.163 3.167a28.489 28.489 0 0 1-.543 3.465c-.211-1.725-.394-3.463-.413-5.183zm11.087 6.882c-.877.077-1.696.399-2.555.567-1.234.241-1.849-.507-2.708-1.189-.249-.197-.584-.27-.837-.03-.169.16-.449.766-.703.568-.413-.32-.665-.864-.977-1.276-.06-.08-.229-.098-.248.033-.17 1.137-.131 2.289-.26 3.428-.44-.8-.575-1.78-.673-2.665-.041-.38-.068-.767-.077-1.154a13.01 13.01 0 0 0 .13-1.922c-.002-.128-.204-.162-.23-.03-.138.675-.17 1.373-.147 2.068-.156.948-.406 1.885-.618 2.816-.098.432-.179.868-.253 1.306l-.187-1.564c-.096-.793-.2-1.591-.299-2.393.254-1.026.435-2.073.587-3.09.246-1.645.428-3.746-.752-5.098-.046-.053-.136-.023-.153.04-.698 2.626-.115 5.393.151 8.04l.03.288a18.508 18.508 0 0 1-.674 2.189c-.535-.197-1.445-.865-1.445-.865l-3.311.504.354 2.307 3.312-.505s.529-.73.967-1.132c-.073.178-.148.354-.227.526l.016.009c.098-.195.19-.393.278-.594.126-.108.242-.184.33-.198a.544.544 0 0 1-.23-.037 15.93 15.93 0 0 0 .657-1.957c.137 1.331.284 2.66.441 3.99l.035.28-.137.881c-.186 1.185-.786 3.778.506 4.575.065.04.16.002.178-.072.284-1.128.022-2.27-.107-3.402-.07-.618-.143-1.236-.217-1.854.232-1.332.582-2.666.835-4.008l.025.26c.105.986.292 2.081.874 2.912.057.082.222.093.241-.031.173-1.146.135-2.307.271-3.456.338.486.644.98 1.174 1.292.063.037.15.016.187-.048.16-.29.337-.7.667-.838.238-.1.601.339.749.477.335.312.735.697 1.186.83 1.298.383 2.565-.352 3.844-.502.174-.02.18-.292 0-.276z"/>
        <path fill="#434948" d="M44.487 59.676l.035.23-2.895.442-.036-.23 2.896-.442"/>
        <path fill="#434948" d="M44.538 59.56a.235.235 0 1 1 .071.464.235.235 0 0 1-.07-.464"/>
        <path fill="#181F1F" d="M40.758 58.551l-23.107 3.524a1.318 1.318 0 0 0-1.108 1.502l.144.935c.11.719.786 1.212 1.508 1.102l23.108-3.524-.545-3.539"/>
        <path fill="#A8AEAD" d="M41.441 58.37l.568 3.69-.695.106-.568-3.69.695-.106"/>
        <path fill="#181F1F" d="M42.02 58.282l.568 3.69-.58.088-.567-3.69.579-.088"/>
        <path fill="#A8AEAD" d="M19.201 61.762l.568 3.69-.81.123-.568-3.69.81-.123"/>
        <path fill="#F7CBA8" d="M31.595 68.03l5.254-5.693c1.516-1.643-1.819-2.446-3.513-.524l-3.317 3.762a3.21 3.21 0 0 1-.313.31l1.89 2.144"/>
        <path fill="#FBDEC6" d="M34.65 62.47c1.145-1.426 2.266-1.197 2.431-.746.006.22-.099.469-.35.74l-1.299 1.408c-.591-.43-1.087-1.023-.783-1.402"/>
        <path fill="#F7CBA8" d="M71.92 45.415l-4.313-7.856L88.72 26.087l.314 10.03-17.113 9.298"/>
        <path fill="#F7CBA8" d="M65.062 50.946l-6.421-11.692 4.812-2.615c3.705-2.013 7.6-1.665 8.874.655l1.788 3.256c1.274 2.32.408 5.256-1.924 6.523l-7.129 3.873"/>
        <path fill="#F7CBA8" d="M53.467 55.458a1.57 1.57 0 0 1 .628-2.131l13.051-7.091a1.587 1.587 0 0 1 2.142.625 1.57 1.57 0 0 1-.628 2.13l-13.051 7.092a1.588 1.588 0 0 1-2.142-.625"/>
        <path fill="#F7CBA8" d="M71.046 46.33l-5.193 6.144c-1.528 1.808-.315 5.157 1.019 3.579l6.543-7.743-2.369-1.98"/>
        <path fill="#FBDEC6" d="M71.046 46.33l-.012-.011-5.194 6.145c-.509.602-.715 1.373-.715 2.078 0 .519.111 1.001.297 1.356.186.354.448.582.75.582.225 0 .468-.127.712-.417l6.555-7.755-2.395-2.002-.01.013.012.01-.01.013 2.356 1.97-6.533 7.73c-.24.285-.475.405-.687.405-.284 0-.537-.216-.72-.565-.183-.348-.294-.826-.294-1.34 0-.698.205-1.462.708-2.057l5.193-6.145-.013-.01-.01.012.01-.013"/>
        <path fill="#F7CBA8" d="M74.664 41.55c1.043 1.92.111 4.963-1.248 6.76-.908-.294-4.67-3.233-6.122-8.91 2.633-1.43 5.952-.462 7.37 2.15"/>
        <path fill="#FBDEC6" d="M66.634 54.16c-1.178 1.213-.834 2.209-.4 2.307.203-.02.42-.146.641-.408l1.142-1.35c-.465-.49-1.07-.872-1.383-.55M54.666 55.95c.987-.507 1.145-1.01.855-1.608-.35-.567-.86-.706-1.823-.154-.656.376.295 2.109.968 1.762"/>
        <path fill="#F7CBA8" d="M56.87 42.005a1.57 1.57 0 0 1 .629-2.131l4.238-2.303a1.588 1.588 0 0 1 2.142.625 1.57 1.57 0 0 1-.628 2.131l-4.239 2.303a1.587 1.587 0 0 1-2.142-.625M57.585 45.484a1.57 1.57 0 0 1 .629-2.13l4.238-2.304a1.588 1.588 0 0 1 2.142.626 1.57 1.57 0 0 1-.629 2.13l-4.238 2.303a1.588 1.588 0 0 1-2.142-.625M58.66 48.768a1.57 1.57 0 0 1 .63-2.131l4.238-2.303a1.588 1.588 0 0 1 2.142.625 1.57 1.57 0 0 1-.629 2.13l-4.238 2.304a1.588 1.588 0 0 1-2.142-.625"/>
        <path fill="#FFFFFE" d="M84.571 39.96L79.09 29.98l-6.792 3.69 5.483 9.982 6.79-3.69"/>
        <path fill="#A8AEAD" d="M78.523 42.046a.502.502 0 0 1 .202-.683.508.508 0 0 1 .687.2.502.502 0 0 1-.201.684.508.508 0 0 1-.688-.2"/>
        <path fill="#181F1F" d="M103.934 15.517l-27.37 13.825 6.294 12.348 21.076-10.646V15.517"/>
    </g>
</svg>
