<svg xmlns="http://www.w3.org/2000/svg" width="65" height="70" viewBox="0 0 65 70">
    <g fill="none" fill-rule="nonzero">
        <path fill="#1E81CE" d="M7.222 15.69H0v-4.828a4.821 4.821 0 0 1 4.815-4.828h6.018v9.656h-3.61z"/>
        <path fill="#5AAAE7" d="M6.019 6.034a4.821 4.821 0 0 1 4.814 4.828v54.31A4.821 4.821 0 0 0 15.648 70h31.296V6.034H6.02z"/>
        <path fill="#FF930C" d="M60.185 13.276c0 1.641-2.636 2.74-3.226 4.152-.59 1.412.458 4.115-.65 5.225-1.107 1.11-3.743 0-5.212.652-1.468.652-2.516 3.247-4.153 3.247-1.637 0-2.732-2.643-4.14-3.235-1.409-.591-4.105.459-5.212-.651-1.108-1.11 0-3.754-.65-5.226-.65-1.473-3.238-2.523-3.238-4.164 0-1.642 2.636-2.74 3.226-4.152.59-1.412-.458-4.115.65-5.226 1.107-1.11 3.743 0 5.212-.651C44.26 2.595 45.307 0 46.944 0s2.733 2.643 4.141 3.234c1.409.592 4.105-.458 5.212.652 1.108 1.11 0 3.754.65 5.226s3.238 2.522 3.238 4.164z"/>
        <path fill="#1E81CE" d="M50.556 70a4.821 4.821 0 0 0 4.814-4.828v-4.827H21.667v4.827A4.821 4.821 0 0 1 16.852 70h33.704z"/>
        <path fill="#F40E34" d="M33.704 21.724l-4.815 4.828h4.815v4.827l4.815-4.827z"/>
        <ellipse cx="46.944" cy="13.276" fill="#DF7F06" rx="6.019" ry="6.034"/>
        <g fill="#FFF">
            <path d="M43.85 6.731l-1.034-2.18a9.526 9.526 0 0 1 4.128-.93v2.413a7.132 7.132 0 0 0-3.093.697zM39.722 13.276h-2.407a9.594 9.594 0 0 1 2.89-6.897l1.686 1.725a7.194 7.194 0 0 0-2.169 5.172zM46.944 22.931v-2.414c2.36 0 4.577-1.16 5.928-3.104l1.975 1.382a9.635 9.635 0 0 1-7.903 4.136zM56.477 14.654l-2.384-.343c.049-.34.074-.69.074-1.035h2.407c0 .46-.033.924-.097 1.378z"/>
        </g>
        <path fill="#F40E34" d="M60.185 21.724L65 26.552h-4.815v4.827l-4.815-4.827z"/>
        <g fill="#FFF">
            <path d="M14.444 48.276h28.89v7.241h-28.89zM14.444 10.862h15.648v6.034H14.444zM14.444 42.241h28.89v2.414h-28.89zM14.444 37.414h28.89v2.414h-28.89zM14.444 32.586h15.648V35H14.444zM37.314 32.586h6.02V35h-6.02zM14.444 27.76h9.63v2.413h-9.63zM14.444 22.931h9.63v2.414h-9.63z"/>
        </g>
    </g>
</svg>
