<svg xmlns="http://www.w3.org/2000/svg" width="71" height="105" viewBox="0 0 71 105">
    <g fill="none" fill-rule="nonzero">
        <path fill="#ECF0F1" d="M62.852 80.089a2.335 2.335 0 0 1-2.327 2.328H2.328A2.335 2.335 0 0 1 0 80.089V2.329A2.335 2.335 0 0 1 2.328 0h44.695c1.28 0 3.069.74 3.974 1.646l10.21 10.21c.905.907 1.645 2.695 1.645 3.975V80.09z"/>
        <path fill="#BDC3C7" d="M61.206 11.857L50.997 1.647c-.41-.411-1.003-.787-1.646-1.076v10.604a2.335 2.335 0 0 0 2.328 2.328H62.28c-.289-.643-.664-1.236-1.075-1.646z"/>
        <path fill="#E5BF88" d="M70.016 68.49L65.18 58.438V48.426s.543-3.958-3.026-3.958c-3.57 0-2.793 3.492-2.793 3.492l-.072 13.038s-9.55 6.519-3.446 21.419H41.669l7.838 8.148h18.855l1.654-22.074z"/>
        <path fill="#ECF0F1" d="M47.023 88.936h23.046v3.958H47.023z"/>
        <path fill="#33495F" d="M44.928 104.88V92.895H70.95a59.336 59.336 0 0 1-26.023 11.987z"/>
        <path fill="#2B3E51" d="M58.662 100.487a59.142 59.142 0 0 1-13.734 4.394V92.894h13.734v7.593z"/>
        <path fill="#BFA072" d="M55.843 82.417l-8.82 5.566-5.354-5.566z"/>
        <ellipse cx="62.27" cy="47.727" fill="#ECF0F1" rx="2.095" ry="2.095"/>
        <path fill="#BDC3C7" d="M4.889 21.42h53.075a.582.582 0 1 0 0-1.165H4.889a.582.582 0 1 0 0 1.164zM4.889 24.213h53.075a.582.582 0 1 0 0-1.164H4.889a.582.582 0 1 0 0 1.164zM4.772 26.774h45.16a.582.582 0 1 0 0-1.164H4.773a.582.582 0 1 0 0 1.164zM4.772 33.293H53.89a.582.582 0 1 0 0-1.164H4.772a.582.582 0 1 0 0 1.164zM4.772 39.812h47.721a.582.582 0 1 0 0-1.165H4.773a.582.582 0 1 0 0 1.165zM4.772 46.563H43.88a.582.582 0 1 0 0-1.164H4.772a.582.582 0 1 0 0 1.164zM4.772 49.59H43.88a.582.582 0 1 0 0-1.164H4.772a.582.582 0 1 0 0 1.164zM4.772 52.15h41.902a.582.582 0 1 0 0-1.163H4.772a.582.582 0 1 0 0 1.164zM4.772 57.738h41.902a.582.582 0 1 0 0-1.164H4.772a.582.582 0 1 0 0 1.164z"/>
        <path fill="#227FBB" d="M4.19 9.08h37.246v4.424H4.19z"/>
        <path fill="#BDC3C7" d="M4.772 36.785H53.89a.582.582 0 1 0 0-1.164H4.772a.582.582 0 1 0 0 1.164z"/>
        <path fill="#BDC3C7" d="M4.772 36.785H53.89a.582.582 0 1 0 0-1.164H4.772a.582.582 0 1 0 0 1.164z"/>
        <g fill="#E94B35" transform="translate(2.095 62.627)">
            <ellipse cx="7.903" cy="7.893" rx="3.391" ry="3.391"/>
            <path d="M14.923 6.132c-.096-.378.398-.963.24-1.334-.158-.37-.922-.419-1.129-.75-.212-.34.077-1.048-.181-1.344-.262-.3-1.004-.11-1.306-.363-.305-.255-.25-1.018-.59-1.22-.34-.204-.987.206-1.354.058-.367-.148-.55-.892-.937-.98-.384-.089-.873.5-1.27.472C8.003.644 7.6-.007 7.202.029c-.39.034-.672.745-1.06.843-.38.096-.964-.398-1.334-.24-.37.158-.42.922-.75 1.129-.34.212-1.048-.076-1.344.181-.3.262-.11 1.004-.363 1.306-.255.306-1.018.25-1.22.59-.204.34.206.987.058 1.354-.148.367-.891.55-.98.937-.089.384.5.873.472 1.27-.027.393-.678.797-.642 1.194.035.39.746.672.843 1.06.096.38-.398.965-.24 1.335.158.37.922.42 1.129.75.212.34-.077 1.049.18 1.344.263.301 1.005.111 1.307.363.306.255.25 1.019.59 1.221.34.204.987-.206 1.354-.058.367.147.55.89.937.98.384.089.873-.5 1.27-.472.393.026.796.678 1.194.642.39-.035.672-.746 1.06-.844.38-.095.964.399 1.335.24.37-.157.419-.921.75-1.128.34-.213 1.047.076 1.343-.182.301-.262.11-1.004.363-1.306.255-.305 1.018-.25 1.22-.59.204-.34-.205-.987-.058-1.354.148-.367.892-.55.98-.936.089-.385-.5-.875-.472-1.271.027-.393.678-.796.643-1.194-.035-.39-.746-.672-.844-1.06zm-4.498 7.68A6.435 6.435 0 0 1 5.38 1.975a6.435 6.435 0 0 1 5.046 11.838z"/>
            <path d="M9.818 12.458c-1.34.571-2.815.545-4.045-.073-2.022-1.017-3.155-3.197-2.756-5.302.317-1.67 1.455-3.108 2.969-3.753a4.577 4.577 0 0 1 1.36-.348 5.069 5.069 0 0 1 5.097 2.935l.006.012a.69.69 0 0 1 .016.035c.731 1.788.393 3.889-.842 5.225-.5.54-1.123.978-1.805 1.269zm-3.647-8.61c-1.042.443-1.868 1.357-2.306 2.416a4.221 4.221 0 0 0 .028 3.343c.974 2.195 3.516 3.243 5.664 2.327l.058-.021c2.2-.976 3.197-3.511 2.287-5.739-.977-2.2-3.527-3.267-5.674-2.35l-.057.023zM10.714 12.95l-.048-.087c.347-.193.675-.422.973-.683l.066.076a5.768 5.768 0 0 1-.99.694zm-1.112.475c-.387.119-.786.198-1.187.233l-.01-.1a5.66 5.66 0 0 0 1.167-.23l.03.097zm2.926-2.055l-.08-.06c.238-.317.443-.66.61-1.02l.091.041a5.82 5.82 0 0 1-.62 1.039zm-5.323 2.268a5.82 5.82 0 0 1-1.18-.272l.034-.095c.375.13.764.22 1.158.267l-.012.1zm6.337-4.451l-.098-.023a5.69 5.69 0 0 0 .144-1.18l.1.002a5.826 5.826 0 0 1-.146 1.2zm-8.613 3.67a5.783 5.783 0 0 1-.968-.726l.069-.073c.29.269.61.509.95.713l-.051.086zm8.656-6.066l-.096.024a5.212 5.212 0 0 0-.348-1.13l.092-.04c.183.428.274.752.352 1.146zM3.167 11.218a5.844 5.844 0 0 1-.586-1.056l.091-.04c.157.367.35.716.577 1.039l-.082.057zm9.39-6.59a5.646 5.646 0 0 0-.78-.897l.068-.074c.296.275.563.582.794.913l-.082.057zM2.323 8.984l-.099.02a5.734 5.734 0 0 1-.107-1.206l.1.002c-.007.397.029.795.106 1.184zm8.504-5.968a5.708 5.708 0 0 0-1.078-.501l.032-.095c.382.131.751.303 1.097.51l-.051.086zM2.362 6.62l-.098-.022c.09-.393.223-.779.393-1.145l.09.043c-.167.36-.296.738-.385 1.124zM8.59 2.25a5.652 5.652 0 0 0-1.189-.021l-.009-.1a5.793 5.793 0 0 1 1.21.02l-.012.1zM3.358 4.476l-.08-.06c.243-.324.52-.622.824-.886l.065.075c-.298.26-.57.553-.809.87zm2.877-2.019a5.82 5.82 0 0 0-1.094.466l-.048-.087c.351-.195.73-.357 1.113-.474l.029.095z"/>
        </g>
        <path fill="#227FBB" d="M36.37 81.249l.147-.245c1.028-1.714 3.956-2.883 6.466-3.684.94-.822 1.735-1.776 2.304-2.915.445-.89.45-1.7.281-1.94-.044-.065-.085-.07-.112-.065-.138.015-.385.273-.662.95l-.1.247-.074-.257a15.434 15.434 0 0 1-.168-.664c-.095-.398-.193-.809-.355-1.212-.457.28-.661.843-.876 1.437-.161.444-.327.903-.612 1.23l-.102.115-.054-.144c-.123-.328-.16-.692-.196-1.045-.046-.444-.093-.902-.31-1.302-.385.339-.578 1.006-.638 1.636.01.268.006.519.003.704l-.001.163-.184.01a4.51 4.51 0 0 1-.003-.88c-.018-.518-.085-1.101-.3-1.32a.233.233 0 0 0-.172-.076.391.391 0 0 0-.297.128c-.236.248-.301.807-.31 1.348.04.444.04 1.033.04 1.266H39.9c0-.233-.007-.207-.014-.353-.014-.26-.03-.584-.026-.913-.073-.825-.284-1.644-.89-2.018-.553.616-.508 1.712-.468 2.683.021.507.04.985-.023 1.367l-.079.474-.102-.47a31.478 31.478 0 0 1-.349-2.019c-.198-1.32-.387-2.577-.898-3.816.222 1.661.543 4.296-.482 5.406-.477.596-1.241.645-1.717.387-.417-.228-.578-.664-.42-1.139l.175.058c-.131.397-.01.731.334.918.415.227 1.086.16 1.488-.344 1-1.084.637-3.788.42-5.404l-.062-.471-.067-.535.241.482c.723 1.446.95 2.963 1.171 4.43.063.423.128.855.205 1.287a21.01 21.01 0 0 0-.02-.604c-.042-1.036-.09-2.21.572-2.873l.049-.049.06.034c.516.28.786.82.929 1.432.053-.286.144-.534.294-.692a.574.574 0 0 1 .431-.186c.116 0 .218.045.304.133.15.151.238.427.29.74.123-.468.335-.897.674-1.139l.08-.057.052.083c.285.457.338.973.388 1.472.03.295.06.576.133.838.202-.286.335-.654.474-1.039.231-.636.47-1.295 1.055-1.587l.087-.044.039.09c.192.448.3.9.403 1.336.032.133.064.268.099.404.239-.513.48-.796.706-.82.112-.013.212.038.284.142.228.327.19 1.213-.268 2.13-.518 1.036-1.232 1.927-2.071 2.705.579-.18 1.128-.339 1.617-.481l.628-.184a64.713 64.713 0 0 1 7.368-1.89l.295-.056-.213.212a.553.553 0 0 1-.224.117c-.062.021-.121.04-.153.073l-.082-.083a64.832 64.832 0 0 0-6.936 1.804l-.631.185c-.596.173-1.282.373-2.002.602-1.844 1.59-4.208 2.698-6.415 3.644l-.263.113zm6.236-3.613c-2.244.742-4.703 1.775-5.76 3.208 2.05-.887 4.1-1.868 5.76-3.208z"/>
    </g>
</svg>
