<svg xmlns="http://www.w3.org/2000/svg" width="47" height="39" viewBox="0 0 47 39">
    <g fill="none" fill-rule="evenodd">
        <path fill="#E5822D" d="M34.276 31.499a19.72 19.72 0 0 1-.821.182l-.263.05c-.19.036-.38.07-.571.1l-.314.047c-.182.026-.364.05-.546.071l-.313.036c-.195.02-.394.036-.593.052l-.263.02c-.288.018-.571.032-.86.04h-.084c-.258.007-.52.009-.783.007l-.288-.007-.06-.002 1.775-.36 1.16-3.073c.495-.417.855-.894 1.054-1.423l1.757-4.643.039-.116c.008-.022.016-.044.02-.066a3.299 3.299 0 0 0 .064-.261 3.116 3.116 0 0 0 .008-1.114c-.008-.042-.016-.084-.029-.127a.594.594 0 0 0-.017-.084c0-.008-.004-.017-.008-.025a3.892 3.892 0 0 0-.365-.939 6.241 6.241 0 0 0-.715-1.076c-.021-.03-.047-.06-.072-.09a9.523 9.523 0 0 0-.114-.134c-.03-.031-.055-.061-.085-.091-.038-.042-.072-.083-.11-.122-.009-.01-.017-.02-.03-.029a5.4 5.4 0 0 0-.699-.634c-.008-.009-.02-.017-.03-.026a10.548 10.548 0 0 0-.342-.252c-.021-.013-.038-.027-.055-.04a7.158 7.158 0 0 0-.41-.26c-.12-.07-.238-.139-.357-.203l-.055-.028a10.722 10.722 0 0 0-.614-.295v0c-.042-.017-.084-.033-.122-.05l-.153-.062a7.264 7.264 0 0 0-.27-.104 9.827 9.827 0 0 1-.136-.051 13.71 13.71 0 0 0-.343-.115l-.072-.024c-.14-.044-.28-.085-.42-.124-.037-.012-.08-.022-.122-.033a11.94 11.94 0 0 0-.457-.116l-.271-.064-.161-.035c-.094-.02-.187-.04-.28-.058l-.148-.029a30.4 30.4 0 0 0-.33-.061l-.093-.017a44.873 44.873 0 0 0-.424-.07l-.046-.008 1.156-3.055-2.05-3.634c-1.473.066-3.163.156-4.653.387L19.54 7.09l-1.82.368-1.288 3.405c-.05.04-.097.081-.148.123l-.026.024a3.675 3.675 0 0 0-.338.34l-.026.027-.114.147c-.008.016-.025.031-.034.047a2.432 2.432 0 0 0-.097.146l-.038.055a3.748 3.748 0 0 0-.106.2l-.004.007c-.03.056-.051.113-.077.17-.004.015-.012.03-.017.044l-1.278 3.383-.479 1.26c-.322.855-.165 1.855.589 2.963.059.09.123.178.186.264l.064.083c.042.057.084.113.13.168l.077.093c.042.049.085.098.123.145.03.032.06.063.085.095.042.045.08.089.122.132.013.014.026.03.043.043a7.13 7.13 0 0 0 .343.335c.017.014.03.028.046.042.115.101.229.2.343.292a7.208 7.208 0 0 0 .364.27c.013.01.03.021.043.032.118.08.237.157.355.231l.064.039c.114.072.237.14.356.206l.063.033c.123.066.25.13.373.19l.038.017c.127.06.254.117.385.17.009.005.017.01.03.013.127.054.258.105.393.154l.06.023c.131.047.258.09.39.133.02.008.046.015.067.022.131.042.263.082.394.12.017.005.038.01.055.016.14.038.275.075.415.11l.008.003c.14.034.276.067.415.098l.051.011c.131.03.267.058.402.085l.068.014.009.002-1.216 3.215 2.092 3.785.05.009.026.004a23.998 23.998 0 0 0 .123.019l.102.013.072.009.122.015.098.01c.046.005.089.01.14.014l.122.011.161.013.14.01a9.998 9.998 0 0 0 .343.019l.199.008.178.005.216.004.195.001h.232l.212-.004.25-.007a15.64 15.64 0 0 0 .487-.023l.241-.016c.09-.007.182-.014.275-.023a24.508 24.508 0 0 0 .538-.055 14.37 14.37 0 0 0 .838-.115c.043-.007.085-.012.128-.02.118-.02.237-.041.355-.063l1.114 1.773a21.905 21.905 0 0 1-1.342-.071l-.318-.026c-.207-.02-.415-.042-.622-.066-.09-.01-.174-.019-.259-.03a26.225 26.225 0 0 1-.876-.125c-.042-.006-.085-.015-.131-.022a30.441 30.441 0 0 1-.746-.133l-.292-.06a32.263 32.263 0 0 1-.91-.2 33.054 33.054 0 0 1-.568-.142l-.309-.081a31.94 31.94 0 0 1-.626-.18l-.237-.069a27.54 27.54 0 0 1-1.698-.577c-.098-.037-.19-.074-.288-.11a33.868 33.868 0 0 1-.555-.221l-.31-.129c-.177-.076-.355-.155-.537-.234l-.288-.131c-.203-.093-.402-.19-.601-.287a6.818 6.818 0 0 1-.207-.1c-.267-.133-.53-.27-.792-.41-.06-.032-.115-.065-.174-.097a27.7 27.7 0 0 1-.601-.338c-.09-.052-.178-.106-.267-.159-.165-.1-.334-.2-.5-.304a11.908 11.908 0 0 1-.275-.176 20.64 20.64 0 0 1-.74-.493 25.862 25.862 0 0 1-.551-.39l-.165-.12c-.233-.173-.462-.35-.69-.531l-.166-.137c-.169-.137-.338-.276-.504-.417l-.228-.2c-.14-.125-.28-.251-.42-.38-.076-.071-.156-.144-.232-.217-.136-.13-.271-.263-.407-.397-.067-.07-.14-.138-.207-.208-.123-.125-.237-.252-.356-.38a11.327 11.327 0 0 1-.258-.278c-.119-.132-.233-.268-.347-.402-.077-.09-.157-.178-.229-.27a13.17 13.17 0 0 1-.364-.46c-.06-.077-.123-.152-.182-.23a24.68 24.68 0 0 1-.508-.71c-.83-1.22-1.453-2.45-1.88-3.665-.17-.486-.31-.97-.42-1.45-.16-.72-.258-1.43-.283-2.128-.017-.528.004-1.047.063-1.557 0-.006.005-.013.013-.019l.076-.109.19-.255c.018-.023.035-.047.056-.07.08-.106.17-.21.258-.315a8.92 8.92 0 0 1 .381-.426c.085-.088.17-.176.258-.263a12.944 12.944 0 0 1 .466-.436c.085-.076.174-.151.263-.225l.101-.085c.115-.092.229-.184.348-.273.004-.004.008-.008.012-.01.123-.093.246-.183.373-.273l.114-.076c.098-.067.195-.133.297-.198.038-.024.072-.048.11-.07.13-.085.266-.168.406-.249.021-.01.038-.021.06-.033.118-.07.245-.138.368-.205.042-.023.085-.046.131-.068.11-.06.229-.12.347-.177l.102-.05c.148-.073.3-.143.457-.21l.102-.046c.127-.054.25-.106.377-.157l.144-.058a12.535 12.535 0 0 1 .495-.185c.165-.06.335-.115.504-.17.042-.015.089-.029.135-.043.132-.041.267-.081.398-.12l.153-.043a18.61 18.61 0 0 1 1.257-.305c.08-.017.161-.03.242-.046.16-.031.322-.063.482-.09.098-.017.195-.03.293-.045.148-.023.296-.047.444-.067.106-.014.212-.025.318-.037.14-.017.284-.035.423-.049l.33-.028.42-.033.338-.018.42-.018.343-.007c.14-.003.275-.005.415-.005.118 0 .232.002.351.004a19.17 19.17 0 0 1 .766.022 22.443 22.443 0 0 1 .767.046 27.656 27.656 0 0 1 1.185.117 25.147 25.147 0 0 1 .771.105l.351.055c.14.023.28.048.415.072a17.622 17.622 0 0 1 .771.15l.347.073.424.1.338.08c.225.057.453.116.678.179l.097.028c.2.056.398.115.597.175l.204.063c.182.057.364.116.546.177.05.017.101.032.152.05.225.076.449.156.673.238l.161.06c.174.066.352.134.53.204l.194.078c.2.081.398.163.593.248l.076.031c.22.096.437.194.652.295.06.027.119.056.178.084.17.078.335.159.496.24l.178.088c.215.107.427.217.635.33.02.012.046.024.067.036.191.102.373.206.56.311.063.035.122.07.181.105a48.475 48.475 0 0 1 .627.372c.2.124.398.25.593.378.042.028.085.057.131.086.157.104.31.21.466.316l.17.12c.164.116.33.234.49.353.03.02.055.04.085.061.186.14.369.282.55.426.051.038.098.077.149.116.14.112.275.225.415.34.046.042.097.084.148.126.174.15.351.302.52.455a64.54 64.54 0 0 1 .504.472 19.574 19.574 0 0 1 .517.517c.043.039.08.078.119.118.173.181.343.365.508.552.038.04.072.082.11.123.152.172.3.347.445.523.02.024.042.048.059.072.16.194.313.39.461.588.034.047.072.093.106.14.148.202.297.406.436.613 1.148 1.687 1.897 3.39 2.283 5.05.004.02.012.042.017.063.084.376.148.749.194 1.12.013.102.03.205.038.306.009.068.009.134.017.2.013.168.026.336.034.502.004.114 0 .227 0 .34 0 .118.009.237.004.353-.004.143-.016.284-.025.425-.008.086-.008.173-.017.258-.004.06-.017.12-.021.18-1.647 2.344-4.378 4.156-8.04 5.06zm-5.665-5.743l1.304-3.445c.034-.092.05-.19.06-.292.012.011.029.023.046.034.114.08.233.164.343.252.008.009.02.017.03.026.114.089.224.182.33.279l.025.02c.106.097.212.2.318.306.017.02.038.038.055.058.038.04.076.08.11.122.03.03.059.06.084.091l.115.134.076.09c.038.051.08.104.118.157a5.147 5.147 0 0 1 .237.325c.14.202.255.4.356.595.026.047.051.093.072.14a8.256 8.256 0 0 1-1.397.606l-.783 2.072-1.034-1.65c-.156.03-.313.055-.465.08zM17.314 14.274l.775-2.052 1.046 1.683c.08-.013.165-.024.25-.036l-1.224 3.237c-.009.015-.009.03-.017.045l-.026.086v.011c-.05-.033-.101-.065-.152-.1-.017-.01-.03-.021-.047-.032a10.283 10.283 0 0 1-.355-.265c0-.002-.005-.003-.005-.004a7.684 7.684 0 0 1-.343-.292 10.74 10.74 0 0 1-.364-.348c-.02-.024-.046-.048-.067-.072-.043-.044-.08-.088-.123-.132-.03-.032-.055-.063-.085-.095-.042-.048-.08-.096-.123-.145l-.076-.094a3.453 3.453 0 0 1-.131-.167l-.064-.084a5.668 5.668 0 0 1-.186-.263 5.367 5.367 0 0 1-.208-.33c.072-.032.14-.065.212-.096.021-.01.047-.02.072-.03.178-.075.36-.147.555-.214l.063-.022c.2-.068.407-.131.623-.19zm26.82 6.6c.008-.21.008-.422 0-.635-.005-.105-.018-.21-.026-.315a5.93 5.93 0 0 0-.025-.387c-.005-.064-.017-.13-.026-.195-.241-2.06-1.058-4.215-2.506-6.344a20.406 20.406 0 0 0-.542-.753 20.15 20.15 0 0 0-.462-.588 17.145 17.145 0 0 0-.504-.595c-.038-.041-.072-.082-.11-.124-.165-.186-.334-.37-.512-.551a.194.194 0 0 0-.03-.034c-.025-.028-.055-.056-.085-.085-.122-.126-.25-.252-.376-.376l-.14-.14a50.197 50.197 0 0 0-.504-.472 46.002 46.002 0 0 0-.52-.456l-.153-.126c-.136-.114-.276-.227-.411-.339-.05-.039-.097-.078-.148-.117a27.284 27.284 0 0 0-.55-.425c-.03-.02-.056-.04-.085-.061-.161-.12-.326-.237-.492-.354l-.169-.12a38.378 38.378 0 0 0-.47-.315l-.127-.086a20.608 20.608 0 0 0-.74-.464 22.075 22.075 0 0 0-.48-.286l-.181-.105c-.187-.106-.373-.21-.56-.31-.025-.013-.046-.026-.067-.038a35.245 35.245 0 0 0-.813-.417c-.165-.082-.33-.162-.495-.24l-.178-.085c-.216-.1-.436-.199-.657-.294-.02-.01-.046-.02-.072-.031a26.902 26.902 0 0 0-.592-.248l-.2-.078c-.173-.07-.35-.138-.529-.205-.05-.019-.101-.04-.156-.059a33.117 33.117 0 0 0-.674-.239l-.152-.05a34.41 34.41 0 0 0-.546-.176l-.204-.063a35.618 35.618 0 0 0-.694-.204 34.85 34.85 0 0 0-.597-.158c-.025-.007-.055-.013-.085-.02-.11-.028-.224-.054-.334-.08-.144-.034-.284-.069-.428-.1l-.343-.073c-.14-.03-.28-.058-.419-.086a34.374 34.374 0 0 0-1.537-.251 34.322 34.322 0 0 0-.77-.093l-.352-.034a26.78 26.78 0 0 0-2.3-.107 26.724 26.724 0 0 0-.761.012l-.415.018c-.11.006-.225.01-.34.018-.139.01-.279.021-.418.033-.11.01-.22.017-.33.028-.145.014-.284.032-.428.048-.106.013-.212.024-.314.038-.148.02-.296.043-.444.066-.085.013-.174.024-.258.039l-.034.006c-.161.028-.322.06-.483.09-.08.017-.165.03-.246.047-.237.05-.478.104-.715.162-.182.046-.36.093-.538.142l-.152.044a14.285 14.285 0 0 0-.534.163c-.173.054-.339.11-.504.17-.03.009-.055.019-.08.028-.14.05-.28.103-.415.157a14.062 14.062 0 0 0-1.08.47c-.034.016-.068.034-.106.05-.114.059-.233.117-.347.177l-.127.069c-.127.067-.25.136-.368.205-.022.012-.043.022-.06.033a9.462 9.462 0 0 0-.516.318c-.102.066-.2.132-.3.199-.035.026-.073.05-.11.076-.128.09-.255.18-.374.272-.008.003-.012.007-.016.01-.115.09-.233.181-.343.274-.039.028-.068.056-.102.085-.089.074-.178.15-.263.225l-.089.078c-.11.1-.22.2-.326.303l-.05.055c-.09.086-.174.174-.259.262l-.089.097a8.92 8.92 0 0 0-.232.26c-.017.017-.03.034-.047.052a11.34 11.34 0 0 0-.275.333l-.051.07a4.338 4.338 0 0 0-.19.254 6.536 6.536 0 0 0-.237.34c-.026.037-.052.074-.073.11l-.178.28c-.012.02-.02.04-.033.06-.068.115-.136.23-.2.346l-.046.095a6.656 6.656 0 0 0-.135.261c-.017.04-.039.08-.056.12a6.032 6.032 0 0 0-.165.366c-.05.12-.101.243-.148.365v.002l-.965 2.548-.792 2.094a10.094 10.094 0 0 0-.64 3.749c-1.354-3.323-1.43-6.58-.36-9.412l-1.757 4.644C-.348 17.599.28 22.178 3.32 26.649c.173.253.355.503.537.751l.038.053c.178.237.36.47.55.7l.064.082c.183.224.373.444.564.662l.089.097c.19.213.385.424.584.632.017.017.03.035.046.053.017.018.039.035.055.054.178.182.356.362.538.54.03.027.06.054.085.082.178.168.356.335.538.5.02.022.046.043.067.064a49.073 49.073 0 0 0 .708.617c.199.167.398.331.6.493l.09.07c.194.154.39.305.588.453.03.021.055.043.085.063.212.156.423.31.64.461.042.031.088.062.13.094.217.15.437.297.657.442l.093.06c.208.136.42.27.635.402.03.02.064.04.093.06a41.981 41.981 0 0 0 .83.49c.233.13.462.26.699.388a28.564 28.564 0 0 0 .766.398l.106.054a37.682 37.682 0 0 0 .872.42c.246.113.492.224.737.331.03.013.06.025.085.037a36.51 36.51 0 0 0 1.575.632l.157.058c.254.093.508.183.766.27.025.01.055.018.08.028.246.081.487.16.733.236l.127.04c.254.078.512.153.77.226.051.014.107.028.157.044.263.07.525.14.788.206.021.006.046.011.072.017.25.062.5.12.754.176l.13.03c.26.056.522.109.78.158l.16.03c.268.05.53.096.797.139l.063.01c.254.04.508.076.767.11.046.005.089.012.135.018.263.033.525.063.784.089l.16.015a27.077 27.077 0 0 0 1.618.11l.144.007a29.849 29.849 0 0 0 1.728.007l.033-.001c.259-.007.517-.02.771-.034l.144-.008c.254-.016.508-.036.762-.06l.148-.014a26.165 26.165 0 0 0 .805-.091c.254-.034.504-.072.758-.113.03-.006.06-.009.089-.014l.05-.01c.25-.042.496-.088.741-.138l.144-.03c.255-.054.504-.11.758-.172 1.19-.294 2.291-.671 3.307-1.123.288-.129.572-.263.847-.404 1.101-.564 2.08-1.22 2.939-1.953a12.945 12.945 0 0 0 1.715-1.777c.33-.421.63-.859.901-1.312.064-.113.132-.228.191-.342.254-.46.47-.935.656-1.423l1.758-4.643c-1.072 2.833-3.29 5.238-6.508 6.858l.012-.012a11.2 11.2 0 0 0 .67-.819c.135-.187.27-.378.393-.573a8.604 8.604 0 0 0 .508-.897 9.64 9.64 0 0 0 .415-.938l.783-2.073.97-2.57c.05-.13.093-.261.136-.393.025-.08.055-.158.08-.238.055-.184.102-.37.148-.558.009-.03.017-.058.021-.087.03-.126.051-.253.077-.38.017-.093.038-.185.055-.28.012-.074.017-.149.025-.223.021-.149.047-.298.06-.448.004-.057.004-.115.008-.172.012-.17.025-.34.034-.511 0-.02-.005-.039-.005-.058z"/>
        <path fill="#CD702D" d="M16.454 15.763l-.076-.094a3.453 3.453 0 0 1-.131-.167l-.064-.084a5.668 5.668 0 0 1-.186-.263 5.367 5.367 0 0 1-.208-.33c.072-.032.14-.065.212-.096.021-.01.047-.02.072-.03.178-.075.36-.147.555-.214l.063-.022c.2-.068.407-.131.623-.19l.775-2.05 1.046 1.682c.08-.013.165-.024.25-.036l-1.224 3.237c-.009.015-.009.03-.017.045l-.026.086v.011c-.05-.033-.101-.065-.152-.1-.017-.01-.03-.021-.047-.032a10.283 10.283 0 0 1-.355-.265c0-.002-.005-.003-.005-.004a7.684 7.684 0 0 1-.343-.292 10.74 10.74 0 0 1-.364-.348c-.02-.024-.046-.048-.067-.072-.043-.044-.08-.088-.123-.132-.03-.032-.055-.063-.085-.095-.042-.048-.08-.096-.123-.145zm13.52 6.256c.013.011.03.023.047.034.114.08.233.164.343.252.008.009.02.017.03.026.114.089.224.182.33.279l.025.02c.106.097.212.2.318.306.017.02.038.038.055.058.038.04.076.08.11.122.03.03.059.06.084.091l.115.134.076.09c.038.051.08.104.118.157a5.147 5.147 0 0 1 .237.325c.14.202.255.4.356.595.026.047.051.093.072.14a8.256 8.256 0 0 1-1.397.606l-.783 2.072-1.034-1.65c-.156.03-.313.055-.465.08l1.304-3.445c.034-.092.05-.19.06-.292zm10.01 9.958c-.08.042-.161.086-.241.127l.012-.012a11.2 11.2 0 0 0 .67-.819c.135-.187.27-.378.393-.573a8.604 8.604 0 0 0 .508-.897 9.64 9.64 0 0 0 .415-.938l.783-2.073.97-2.57c.05-.13.093-.261.136-.393.025-.08.055-.158.08-.238.055-.184.102-.37.148-.558.009-.03.017-.058.021-.087.03-.126.051-.253.077-.38.017-.093.038-.185.055-.28.012-.074.017-.149.025-.223.021-.149.047-.298.06-.448.004-.057.004-.115.008-.172.012-.17.025-.34.034-.511 0-.02-.005-.039-.005-.058.009-.21.009-.422 0-.635-.004-.105-.017-.21-.025-.315a5.93 5.93 0 0 0-.025-.387c-.005-.064-.017-.13-.026-.195-.241-2.06-1.058-4.215-2.506-6.344l-.026-.035-7.22-.822c.12.086.238.17.356.258.03.02.055.04.085.061.186.14.369.282.55.426.051.038.098.077.149.116.14.112.275.225.415.34.046.042.097.084.148.126.174.15.351.302.52.455a64.54 64.54 0 0 1 .504.472 19.574 19.574 0 0 1 .517.517c.043.039.08.078.119.118.173.181.343.365.508.552.038.04.072.082.11.123.152.172.3.347.445.523.02.024.042.048.059.072.16.194.313.39.461.588.034.047.072.093.106.14.148.202.297.406.436.613 1.148 1.687 1.897 3.39 2.283 5.05.004.02.012.042.017.063.084.376.148.749.194 1.12.013.102.03.205.038.306.009.068.009.134.017.2.013.168.026.336.034.502.004.114 0 .227 0 .34 0 .118.009.237.004.353-.004.143-.016.284-.025.425-.008.086-.008.173-.017.258-.004.06-.017.12-.021.18-1.647 2.344-4.378 4.156-8.04 5.06a19.72 19.72 0 0 1-.822.183l-.263.05c-.19.036-.38.07-.571.1l-.314.047c-.182.026-.364.05-.546.071l-.313.036c-.195.02-.394.036-.593.052l-.263.02c-.288.018-.571.032-.86.04h-.084c-.258.007-.52.009-.783.007l-.288-.007-.06-.002 1.775-.36 1.16-3.073c.495-.417.855-.894 1.054-1.423l1.757-4.643.039-.116c.008-.022.016-.044.02-.066a3.299 3.299 0 0 0 .064-.261 3.116 3.116 0 0 0 .008-1.114c-.008-.042-.016-.084-.029-.127a.594.594 0 0 0-.017-.084c0-.008-.004-.017-.008-.025a3.892 3.892 0 0 0-.365-.939 6.241 6.241 0 0 0-.715-1.076c-.021-.03-.047-.06-.072-.09a9.523 9.523 0 0 0-.114-.134c-.03-.031-.055-.061-.085-.091-.038-.042-.072-.083-.11-.122-.009-.01-.017-.02-.03-.029a5.4 5.4 0 0 0-.699-.634c-.008-.009-.02-.017-.03-.026a10.548 10.548 0 0 0-.342-.252c-.021-.013-.038-.027-.055-.04a7.158 7.158 0 0 0-.41-.26c-.12-.07-.238-.139-.357-.203l-.055-.028a10.722 10.722 0 0 0-.614-.295v0c-.042-.017-.084-.033-.122-.05l-.153-.062a7.264 7.264 0 0 0-.27-.104 9.827 9.827 0 0 1-.136-.051 13.71 13.71 0 0 0-.343-.115l-.072-.024c-.14-.044-.28-.085-.42-.124-.037-.012-.08-.022-.122-.033a11.94 11.94 0 0 0-.457-.116l-.271-.064-.161-.035c-.094-.02-.187-.04-.28-.058l-.148-.029a30.4 30.4 0 0 0-.33-.061l-.093-.017a44.873 44.873 0 0 0-.424-.07l-.046-.008 1.156-3.055-.682-1.208-10.205-1.162-.275.724c-.05.04-.097.081-.148.123l-.026.024a3.675 3.675 0 0 0-.338.34l-.026.027-.114.147c-.008.016-.025.031-.034.047a2.432 2.432 0 0 0-.097.146l-.038.055a3.748 3.748 0 0 0-.106.2l-.004.007c-.03.056-.051.113-.077.17-.004.015-.012.03-.017.044l-1.278 3.383-.479 1.26c-.322.855-.165 1.855.589 2.963.059.09.123.178.186.264l.064.083c.042.057.084.113.13.168l.077.093c.042.049.085.098.123.145.03.032.06.063.085.095.042.045.08.089.122.132.013.014.026.03.043.043a7.13 7.13 0 0 0 .343.335c.017.014.03.028.046.042.115.101.229.2.343.292a7.208 7.208 0 0 0 .364.27c.013.01.03.021.043.032.118.08.237.157.355.231l.064.039c.114.072.237.14.356.206l.063.033c.123.066.25.13.373.19l.038.017c.127.06.254.117.385.17.009.005.017.01.03.013.127.054.258.105.393.154l.06.023c.131.047.258.09.39.133.02.008.046.015.067.022.131.042.263.082.394.12.017.005.038.01.055.016.14.038.275.075.415.11l.008.003c.14.034.276.067.415.098l.051.011c.131.03.267.058.402.085l.068.014.009.002-1.216 3.215 2.092 3.785.05.009.026.004a23.998 23.998 0 0 0 .123.019l.102.013.072.009.122.015.098.01c.046.005.089.01.14.014l.122.011.161.013.14.01a9.998 9.998 0 0 0 .343.019l.199.008.178.005.216.004.195.001h.232l.212-.004.25-.007a15.64 15.64 0 0 0 .487-.023l.241-.016c.09-.007.182-.014.275-.023a24.508 24.508 0 0 0 .538-.055 14.37 14.37 0 0 0 .838-.115c.043-.007.085-.012.128-.02.118-.02.237-.041.355-.063l1.114 1.773a21.905 21.905 0 0 1-1.342-.071l-.318-.026c-.207-.02-.415-.042-.622-.066-.09-.01-.174-.019-.259-.03a26.225 26.225 0 0 1-.876-.125c-.042-.006-.085-.015-.131-.022a30.441 30.441 0 0 1-.746-.133l-.292-.06a32.263 32.263 0 0 1-.91-.2 33.054 33.054 0 0 1-.568-.142l-.309-.081a31.94 31.94 0 0 1-.626-.18l-.237-.069a27.54 27.54 0 0 1-1.698-.577c-.098-.037-.19-.074-.288-.11a33.868 33.868 0 0 1-.555-.221l-.31-.129c-.177-.076-.355-.155-.537-.234l-.288-.131c-.203-.093-.402-.19-.601-.287a6.818 6.818 0 0 1-.207-.1c-.267-.133-.53-.27-.792-.41-.06-.032-.115-.065-.174-.097a27.7 27.7 0 0 1-.601-.338c-.09-.052-.178-.106-.267-.159-.165-.1-.334-.2-.5-.304a11.908 11.908 0 0 1-.275-.176 20.64 20.64 0 0 1-.74-.493 25.862 25.862 0 0 1-.551-.39l-.165-.12c-.233-.173-.462-.35-.69-.531l-.166-.137c-.169-.137-.338-.276-.504-.417l-.228-.2c-.14-.125-.28-.251-.42-.38-.076-.071-.156-.144-.232-.217-.136-.13-.271-.263-.407-.397-.067-.07-.14-.138-.207-.208-.123-.125-.237-.252-.356-.38a11.327 11.327 0 0 1-.258-.278c-.119-.132-.233-.268-.347-.402-.077-.09-.157-.178-.229-.27a13.17 13.17 0 0 1-.364-.46c-.06-.077-.123-.152-.182-.23a24.68 24.68 0 0 1-.508-.71c-.83-1.22-1.453-2.45-1.88-3.665-.17-.486-.31-.97-.42-1.45-.16-.72-.258-1.43-.283-2.128-.017-.528.004-1.047.063-1.557 0-.006.005-.013.013-.019l.076-.109.19-.255c.018-.023.035-.047.056-.07.08-.106.17-.21.258-.315a8.92 8.92 0 0 1 .381-.426c.085-.088.17-.176.258-.263a12.944 12.944 0 0 1 .466-.436c.085-.076.174-.151.263-.225l.101-.085c.115-.092.229-.184.348-.273.004-.004.008-.008.012-.01.123-.093.246-.183.373-.273l.114-.076c.098-.067.195-.133.297-.198.038-.024.072-.048.11-.07.13-.085.266-.168.406-.249.004-.003.013-.005.017-.008l-2.6-.296-.012.02c-.017.032-.03.063-.047.095a6.656 6.656 0 0 0-.135.261c-.017.04-.039.08-.056.12a6.032 6.032 0 0 0-.165.366c-.05.12-.101.243-.148.365v.002l-.965 2.548-.792 2.094c-.165.44-.3.89-.402 1.352-.043.225-.08.452-.123.678a10.98 10.98 0 0 0-.114 1.719c-.043-.102-.077-.204-.119-.307-.339 2.245-.555 4.523-.754 6.79.292.536.623 1.072.983 1.607.173.253.355.503.537.751l.038.053c.178.237.36.47.55.7l.064.082c.183.224.373.444.564.662l.089.097c.19.213.385.424.584.632.017.017.03.035.046.053.017.018.039.035.055.054.178.182.356.362.538.54.03.027.06.054.085.082.178.168.356.335.538.5.02.022.046.043.067.064a49.073 49.073 0 0 0 .708.617c.199.167.398.331.6.493l.09.07c.194.154.39.305.588.453.03.021.055.043.085.063.212.156.423.31.64.461.042.031.088.062.13.094.217.15.437.297.657.442l.093.06c.208.136.42.27.635.402.03.02.064.04.093.06a41.981 41.981 0 0 0 .83.49c.233.13.462.26.699.388a28.564 28.564 0 0 0 .766.398l.106.054a37.682 37.682 0 0 0 .872.42c.246.113.492.224.737.331.03.013.06.025.085.037a36.51 36.51 0 0 0 1.575.632l.157.058c.254.093.508.183.766.27.025.01.055.018.08.028.246.081.487.16.733.236l.127.04c.254.078.512.153.77.226.051.014.107.028.157.044.263.07.525.14.788.206.021.006.046.011.072.017.25.062.5.12.754.176l.13.03c.26.056.522.109.78.158l.16.03c.268.05.53.096.797.139l.063.01c.254.04.508.076.767.11.046.005.089.012.135.018.263.033.525.063.784.089l.16.015a27.077 27.077 0 0 0 1.618.11l.144.007a29.849 29.849 0 0 0 1.728.007l.033-.001c.259-.007.517-.02.771-.034l.144-.008c.254-.016.508-.036.762-.06l.148-.014a26.165 26.165 0 0 0 .805-.091c.254-.034.504-.072.758-.113.03-.006.06-.009.089-.014l.05-.01c.25-.042.496-.088.741-.138l.144-.03c.255-.054.504-.11.758-.172.212-.053.42-.111.627-.17a75.138 75.138 0 0 0 5.42-6.076z"/>
        <path fill="#C7632D" d="M16.454 15.763l-.076-.094a3.453 3.453 0 0 1-.131-.167l-.064-.084a5.668 5.668 0 0 1-.186-.263 5.367 5.367 0 0 1-.208-.33c.072-.032.14-.065.212-.096.021-.01.047-.02.072-.03.178-.075.36-.147.555-.214l.063-.022c.2-.068.407-.131.623-.19l.775-2.05 1.046 1.682c.08-.013.165-.024.25-.036l-1.224 3.237c-.009.015-.009.03-.017.045l-.026.086v.011c-.05-.033-.101-.065-.152-.1-.017-.01-.03-.021-.047-.032a10.283 10.283 0 0 1-.355-.265c0-.002-.005-.003-.005-.004a7.684 7.684 0 0 1-.343-.292 10.74 10.74 0 0 1-.364-.348c-.02-.024-.046-.048-.067-.072-.043-.044-.08-.088-.123-.132-.03-.032-.055-.063-.085-.095-.042-.048-.08-.096-.123-.145zm13.52 6.256c.013.011.03.023.047.034.114.08.233.164.343.252.008.009.02.017.03.026.114.089.224.182.33.279l.025.02c.106.097.212.2.318.306.017.02.038.038.055.058.038.04.076.08.11.122.03.03.059.06.084.091l.115.134.076.09c.038.051.08.104.118.157a5.147 5.147 0 0 1 .237.325c.14.202.255.4.356.595.026.047.051.093.072.14a8.256 8.256 0 0 1-1.397.606l-.783 2.072-1.034-1.65c-.156.03-.313.055-.465.08l1.304-3.445c.034-.092.05-.19.06-.292zm11.136-9.635a20.15 20.15 0 0 0-.563-.728c-.017-.024-.038-.047-.06-.07a17.145 17.145 0 0 0-.444-.524c-.038-.041-.072-.082-.11-.124-.165-.186-.334-.37-.512-.551a.194.194 0 0 0-.03-.034c-.025-.028-.055-.056-.085-.085-.122-.126-.25-.252-.376-.376l-.14-.14a50.197 50.197 0 0 0-.504-.472 46.002 46.002 0 0 0-.52-.456l-.153-.126c-.136-.114-.276-.227-.411-.339-.05-.039-.097-.078-.148-.117a27.284 27.284 0 0 0-.55-.425c-.03-.02-.056-.04-.085-.061-.161-.12-.326-.237-.492-.354l-.169-.12a38.378 38.378 0 0 0-.47-.315l-.127-.086a20.608 20.608 0 0 0-.74-.464 22.075 22.075 0 0 0-.48-.286l-.181-.105c-.187-.106-.373-.21-.56-.31-.025-.013-.046-.026-.067-.038a35.245 35.245 0 0 0-.813-.417c-.165-.082-.33-.162-.495-.24l-.178-.085c-.216-.1-.436-.199-.657-.294-.02-.01-.046-.02-.072-.031a26.902 26.902 0 0 0-.592-.248l-.2-.078c-.173-.07-.35-.138-.529-.205-.05-.019-.101-.04-.156-.059a33.117 33.117 0 0 0-.674-.239l-.152-.05a34.41 34.41 0 0 0-.546-.176l-.204-.063a35.618 35.618 0 0 0-.694-.204 34.85 34.85 0 0 0-.597-.158c-.025-.007-.055-.013-.085-.02-.11-.028-.224-.054-.334-.08-.144-.034-.284-.069-.428-.1l-.343-.073c-.14-.03-.28-.058-.419-.086a34.374 34.374 0 0 0-1.537-.251 34.322 34.322 0 0 0-.77-.093l-.352-.034a26.78 26.78 0 0 0-1.431-.09 232.052 232.052 0 0 0-2.083 4.633l.22.005a20.157 20.157 0 0 1 .766.036 25.316 25.316 0 0 1 1.893.186c.14.019.28.04.419.06l.351.055c.14.023.28.048.415.072a17.622 17.622 0 0 1 .771.15l.347.073.424.1.338.08c.225.057.453.116.678.179l.097.028c.2.056.398.115.597.175l.204.063c.182.057.364.116.546.177.05.017.101.032.152.05.225.076.449.156.673.238l.161.06c.174.066.352.134.53.204l.194.078c.2.081.398.163.593.248l.076.031c.22.096.437.194.652.295.06.027.119.056.178.084.17.078.335.159.496.24l.178.088c.215.107.427.217.635.33.02.012.046.024.067.036.191.102.373.206.56.311.063.035.122.07.181.105a48.475 48.475 0 0 1 .627.372c.2.124.398.25.593.378.042.028.085.057.131.086.157.104.31.21.466.316l.17.12c.164.116.33.234.49.353.03.02.055.04.085.061.186.14.369.282.55.426.051.038.098.077.149.116.14.112.275.225.415.34.046.042.097.084.148.126.174.15.351.302.52.455a64.54 64.54 0 0 1 .504.472 19.574 19.574 0 0 1 .517.517c.043.039.08.078.119.118.173.181.343.365.508.552.038.04.072.082.11.123.152.172.3.347.445.523.02.024.042.048.059.072.16.194.313.39.461.588.034.047.072.093.106.14.148.202.297.406.436.613 1.148 1.687 1.897 3.39 2.283 5.05.004.02.012.042.017.063.084.376.148.749.194 1.12.013.102.03.205.038.306.009.068.009.134.017.2.013.168.026.336.034.502.004.114 0 .227 0 .34 0 .118.009.237.004.353-.004.143-.016.284-.025.425-.008.086-.008.173-.017.258-.004.06-.017.12-.021.18-1.647 2.344-4.378 4.156-8.04 5.06a19.72 19.72 0 0 1-.822.183l-.263.05c-.19.036-.38.07-.571.1l-.314.047c-.182.026-.364.05-.546.071l-.313.036c-.195.02-.394.036-.593.052l-.263.02c-.288.018-.571.032-.86.04h-.084c-.258.007-.52.009-.783.007l-.288-.007-.06-.002 1.775-.36 1.16-3.073c.495-.417.855-.894 1.054-1.423l1.757-4.643.039-.116c.008-.022.016-.044.02-.066a3.299 3.299 0 0 0 .064-.261 3.116 3.116 0 0 0 .008-1.114c-.008-.042-.016-.084-.029-.127a.594.594 0 0 0-.017-.084c0-.008-.004-.017-.008-.025a3.892 3.892 0 0 0-.365-.939 6.241 6.241 0 0 0-.715-1.076c-.021-.03-.047-.06-.072-.09a9.523 9.523 0 0 0-.114-.134c-.03-.031-.055-.061-.085-.091-.038-.042-.072-.083-.11-.122-.009-.01-.017-.02-.03-.029a5.4 5.4 0 0 0-.699-.634c-.008-.009-.02-.017-.03-.026a10.548 10.548 0 0 0-.342-.252c-.021-.013-.038-.027-.055-.04a7.158 7.158 0 0 0-.41-.26c-.12-.07-.238-.139-.357-.203l-.055-.028a10.722 10.722 0 0 0-.614-.295v0c-.042-.017-.084-.033-.122-.05l-.153-.062a7.264 7.264 0 0 0-.27-.104 9.827 9.827 0 0 1-.136-.051 13.71 13.71 0 0 0-.343-.115l-.072-.024c-.14-.044-.28-.085-.42-.124-.037-.012-.08-.022-.122-.033a11.94 11.94 0 0 0-.457-.116l-.271-.064-.161-.035c-.094-.02-.187-.04-.28-.058l-.148-.029a30.4 30.4 0 0 0-.33-.061l-.093-.017a44.873 44.873 0 0 0-.424-.07l-.046-.008 1.156-3.055-2.05-3.634c-1.473.066-3.163.156-4.653.387L19.54 7.09l-.898.181a227.203 227.203 0 0 0-4.767 11.898 5.668 5.668 0 0 0 .55.894l.064.083c.042.057.084.113.13.168l.077.093c.042.049.085.098.123.145.03.032.06.063.085.095.042.045.08.089.122.132.013.014.026.03.043.043a7.13 7.13 0 0 0 .343.335c.017.014.03.028.046.042.115.101.229.2.343.292a7.208 7.208 0 0 0 .364.27c.013.01.03.021.043.032.118.08.237.157.355.231l.064.039c.114.072.237.14.356.206l.063.033c.123.066.25.13.373.19l.038.017c.127.06.254.117.385.17.009.005.017.01.03.013.127.054.258.105.393.154l.06.023c.131.047.258.09.39.133.02.008.046.015.067.022.131.042.263.082.394.12.017.005.038.01.055.016.14.038.275.075.415.11l.008.003c.14.034.276.067.415.098l.051.011c.131.03.267.058.402.085l.068.014.009.002-1.216 3.215 2.092 3.785.05.009.026.004a23.998 23.998 0 0 0 .123.019l.102.013.072.009.122.015.098.01c.046.005.089.01.14.014l.122.011.161.013.14.01a9.998 9.998 0 0 0 .343.019l.199.008.178.005.216.004.195.001h.232l.212-.004.25-.007a15.64 15.64 0 0 0 .487-.023l.241-.016c.09-.007.182-.014.275-.023a24.508 24.508 0 0 0 .538-.055 14.37 14.37 0 0 0 .838-.115c.043-.007.085-.012.128-.02.118-.02.237-.041.355-.063l1.114 1.773a21.905 21.905 0 0 1-1.342-.071l-.318-.026c-.207-.02-.415-.042-.622-.066-.09-.01-.174-.019-.259-.03a26.225 26.225 0 0 1-.876-.125c-.042-.006-.085-.015-.131-.022a30.441 30.441 0 0 1-.746-.133l-.292-.06a32.263 32.263 0 0 1-.91-.2 33.054 33.054 0 0 1-.568-.142l-.309-.081a31.94 31.94 0 0 1-.626-.18l-.237-.069a27.54 27.54 0 0 1-1.698-.577c-.098-.037-.19-.074-.288-.11a33.868 33.868 0 0 1-.555-.221l-.31-.129c-.177-.076-.355-.155-.537-.234l-.288-.131c-.203-.093-.402-.19-.601-.287a6.818 6.818 0 0 1-.207-.1c-.267-.133-.53-.27-.792-.41-.06-.032-.115-.065-.174-.097a27.7 27.7 0 0 1-.601-.338c-.09-.052-.178-.106-.267-.159-.165-.1-.334-.2-.5-.304a11.908 11.908 0 0 1-.275-.176 20.64 20.64 0 0 1-.74-.493 25.862 25.862 0 0 1-.551-.39l-.165-.12c-.233-.173-.462-.35-.69-.531l-.166-.137c-.08-.063-.152-.128-.233-.191a238.089 238.089 0 0 0-2.218 7.004l.444.32c.043.03.09.061.132.093.216.15.436.297.656.442l.093.06c.208.136.42.27.635.402.03.02.064.04.093.06a41.981 41.981 0 0 0 .83.49c.233.13.462.26.699.388a28.564 28.564 0 0 0 .766.398l.106.054a37.682 37.682 0 0 0 .872.42c.246.113.492.224.737.331.03.013.06.025.085.037a36.51 36.51 0 0 0 1.575.632l.157.058c.254.093.508.183.766.27.025.01.055.018.08.028.246.081.487.16.733.236l.127.04c.254.078.512.153.77.226.051.014.107.028.157.044.263.07.525.14.788.206.021.006.046.011.072.017.25.062.5.12.754.176l.13.03c.26.056.522.109.78.158l.16.03c.268.05.53.096.797.139l.063.01c.254.04.508.076.767.11.046.005.089.012.135.018.263.033.525.063.784.089l.16.015a27.077 27.077 0 0 0 1.618.11l.144.007a29.849 29.849 0 0 0 1.728.007l.033-.001c.259-.007.517-.02.771-.034l.144-.008c.254-.016.508-.036.762-.06l.148-.014a26.165 26.165 0 0 0 .805-.091c.254-.034.504-.072.758-.113.03-.006.06-.009.089-.014l.05-.01c.25-.042.496-.088.741-.138l.144-.03c.255-.054.504-.11.758-.172 1.19-.294 2.291-.671 3.307-1.123.288-.129.572-.263.847-.404 1.101-.564 2.08-1.22 2.939-1.953a12.945 12.945 0 0 0 1.715-1.777c.33-.421.63-.859.901-1.312.064-.113.132-.228.191-.342.254-.46.47-.935.656-1.423l1.758-4.643c-1.072 2.833-3.29 5.238-6.508 6.858l.012-.012a11.2 11.2 0 0 0 .67-.819c.135-.187.27-.378.393-.573a8.604 8.604 0 0 0 .508-.897 9.64 9.64 0 0 0 .415-.938l.783-2.073.97-2.57c.05-.13.093-.261.136-.393.025-.08.055-.158.08-.238.055-.184.102-.37.148-.558.009-.03.017-.058.021-.087.03-.126.051-.253.077-.38.017-.093.038-.185.055-.28.012-.074.017-.149.025-.223.021-.149.047-.298.06-.448.004-.057.004-.115.008-.172.012-.17.025-.34.034-.511 0-.02-.005-.039-.005-.058.009-.21.009-.422 0-.635-.004-.105-.017-.21-.025-.315a5.93 5.93 0 0 0-.025-.387c-.005-.064-.017-.13-.026-.195-.241-2.06-1.058-4.215-2.506-6.344a20.406 20.406 0 0 0-.44-.614z"/>
        <path fill="#FCE47A" d="M30.893 25.254c3.112-1.04 4.598-3.233 2.727-5.984-3.536-5.199-11.602-2.88-13.49-5.655-.682-1.002-.072-1.862 1.342-2.211 1.249-.308 2.108-.275 2.951.007.106.11.2.197.229.244l.855 1.258 2.088-.405-2.05-3.634c-1.473.066-3.163.156-4.653.387L19.54 7.09l-1.82.368 1.346 2.173c-3.303.897-4.848 2.913-3.07 5.525 3.692 5.432 11.589 2.908 13.68 5.986.78 1.144-.08 1.927-1.38 2.248-2.049.506-3.395.242-3.599.182-.38-.37-.745-.769-.783-.87a22.156 22.156 0 0 1-.724-1.017l-2.05.37 2.092 3.785c.127.023 2.6.448 5.843-.162l1.123 1.79 1.85-.375-1.156-1.838M14.82 2.892C24.207.574 36.177 5.1 41.55 12.998c5.374 7.9 2.118 16.182-7.274 18.5-9.387 2.319-21.353-2.204-26.726-10.103-5.374-7.9-2.117-16.185 7.27-18.503"/>
        <path fill="#FAD546" d="M42.808 15.171c-4.082.038-8.172.765-12.207 1.557 1.156.554 2.206 1.35 3.019 2.542 1.871 2.751.385 4.943-2.727 5.984l1.156 1.838-1.85.376-1.123-1.791c-3.243.61-5.716.185-5.843.162l-2.091-3.786 2.049-.37c.025.04.538.792.724 1.019.038.1.402.5.783.87.204.06 1.55.323 3.6-.183 1.3-.321 2.159-1.104 1.38-2.248-1.39-2.044-5.335-1.618-8.913-2.691-3.007.362-6.017.488-9.02.126a23.397 23.397 0 0 1-6.338-1.682c.415 1.485 1.122 3 2.143 4.5 5.373 7.9 17.339 12.423 26.726 10.105 8.532-2.107 12-9.136 8.532-16.328"/>
        <path fill="#B9682F" d="M19.969 13.32c.127-.538.694-.965 1.592-1.186 1.249-.308 2.108-.275 2.947.008.11.11.203.197.233.244l.855 1.258 2.087-.406-.088-.73-2.088.405-.855-1.258c-.03-.047-.123-.134-.229-.244-.843-.282-1.702-.315-2.951-.007-1.27.314-1.889 1.042-1.503 1.915M18.758 9.72c.101-.031.207-.061.309-.09L17.72 7.457l.09.73.948 1.532M31.283 25.878c2.299-.855 3.611-2.372 3.158-4.288.004 1.649-1.376 2.937-3.548 3.664l.39.624"/>
        <path fill="#B9682F" d="M14.82 2.892C7.8 4.625 4.213 9.694 5.094 15.444 4.61 10 8.189 5.283 14.909 3.624c9.387-2.32 21.357 2.205 26.73 10.105 1.355 1.993 2.16 4.01 2.456 5.95-.19-2.161-1.02-4.436-2.544-6.68C36.177 5.098 24.207.573 14.82 2.891M21.23 22.784l2.088 3.786c.131.023 2.604.447 5.847-.163l1.122 1.792 1.847-.376-.415-.663-1.52.308-1.123-1.791c-3.243.61-5.716.185-5.843.162l-1.715-3.106-.288.051"/>
        <path fill="#B9682F" d="M15.34 13.766c-.008.647.225 1.358.742 2.12 3.696 5.432 11.593 2.908 13.685 5.986.076.111.13.218.178.322.076-.305.004-.657-.267-1.053-2.092-3.078-9.989-.554-13.681-5.986-.33-.485-.546-.949-.656-1.39"/>
        <path fill="#FEF3A6" d="M17.72 7.457l1.821-.368 1.35 2.172c1.491-.231 3.18-.321 4.654-.387l2.05 3.634-2.088.405-.855-1.258c-.03-.047-.123-.134-.229-.244-.843-.282-1.702-.315-2.951-.007-1.414.349-2.024 1.21-1.342 2.212 1.888 2.775 9.954.455 13.49 5.654 1.871 2.751.385 4.944-2.727 5.984l1.156 1.838-1.85.376-1.123-1.791c-3.243.61-5.716.185-5.843.162l-2.091-3.786 2.049-.37c.025.04.538.792.724 1.019.038.1.402.5.783.87.204.06 1.55.323 3.6-.183 1.3-.321 2.159-1.104 1.38-2.248-2.092-3.078-9.989-.554-13.681-5.986-1.778-2.612-.233-4.628 3.07-5.525L17.72 7.457"/>
        <path fill="#FBDF65" d="M28.945 16.328c-3.04.603-6.114 1.206-9.192 1.552 1.554.637 3.252.887 4.84 1.12 2.311.338 4.306.63 5.258 2.028.5.734.436 1.424-.182 1.944-.313.267-.77.48-1.325.615-1.927.477-3.328.291-3.705.18l-.05-.014-.035-.036c-.169-.163-.69-.681-.813-.904-.156-.193-.474-.655-.647-.905l-1.635.296 1.906 3.45c.533.082 2.79.364 5.673-.178l.14-.026 1.122 1.79 1.414-.288-1.134-1.81.245-.081c.92-.308 1.673-.708 2.244-1.191 1.427-1.205 1.559-2.756.381-4.485-1.139-1.671-2.743-2.543-4.475-3.063l-.03.006"/>
        <path fill="#FEF2B0" d="M34.276 31.499c9.392-2.319 12.648-10.6 7.275-18.5C36.177 5.098 24.207.573 14.82 2.891 5.433 5.21 2.176 13.494 7.55 21.395c5.373 7.9 17.339 12.422 26.726 10.104M13.406.814C24.16-1.842 37.866 3.34 44.019 12.389c6.157 9.048 2.426 18.535-8.329 21.19-10.75 2.656-24.457-2.525-30.613-11.574C-1.075 12.957 2.65 3.47 13.406.814"/>
        <path fill="#FEF2B0" d="M8.553 5.726C3.963 9.61 3.502 15.806 7.38 21.508c5.407 7.952 17.496 12.522 26.947 10.189 2.468-.61 4.56-1.63 6.22-3.034 4.59-3.883 5.051-10.077 1.173-15.778C36.313 4.932 24.22.36 14.769 2.695c-2.469.609-4.56 1.629-6.216 3.03zM42.583 30c-1.845 1.562-4.178 2.7-6.94 3.382-10.661 2.632-24.295-2.523-30.393-11.49C.94 15.556 1.435 8.688 6.512 4.393c1.846-1.563 4.184-2.7 6.944-3.382C24.114-1.62 37.748 3.534 43.85 12.502c4.306 6.335 3.81 13.204-1.266 17.498z"/>
        <path fill="#F9DB59" d="M44.358 13.294a33.8 33.8 0 0 0-2.397-.042c3.612 5.599 3.079 11.611-1.414 15.411-1.66 1.403-3.752 2.424-6.22 3.034-9.45 2.333-21.54-2.237-26.947-10.189-1.469-2.161-2.316-4.393-2.549-6.544a19.95 19.95 0 0 1-2.49-1.267c.098 2.667 1.06 5.48 2.91 8.194 6.097 8.968 19.731 14.123 30.393 11.49 2.76-.681 5.094-1.819 6.94-3.381 4.87-4.116 5.521-10.597 1.774-16.706"/>
    </g>
</svg>
