<svg xmlns="http://www.w3.org/2000/svg" width="322" height="524" viewBox="0 0 322 524">
    <defs>
        <linearGradient id="a" x1="29.479%" x2="83.118%" y1="115.46%" y2="-15.09%">
            <stop offset="0%" stop-color="#5C3333"/>
            <stop offset="100%"/>
        </linearGradient>
        <linearGradient id="b" x1="22.521%" x2="75.309%" y1="116.993%" y2="-3.679%">
            <stop offset="0%" stop-color="#5C3333"/>
            <stop offset="100%"/>
        </linearGradient>
    </defs>
    <g fill="none" fill-rule="nonzero">
        <path fill="#333232" d="M230.454 139.728l19.111 72.704s57.462 45.679 49.538 24.422c-31.927-85.643-69.154-97.468-68.649-97.126z"/>
        <path fill="#D58A73" d="M46.274 171.562c.896 2.868 2.196 5.649 3.944 9.08 2.852-2.22 5.715-4.428 8.57-6.642 2.085-1.616 4.207-3.16 6.298-4.715-2.395-4.788-4.55-9.653-6.25-14.228l-12.562 16.505z"/>
        <path fill="#DED9D8" d="M47.407 178.843l5.583 11.9 20.489-13.254-7.932-13.777z"/>
        <path fill="#E59B82" d="M51.928 136.862a192.723 192.723 0 0 0-4.786-4.316c-.894-.78-1.811-1.573-2.584-2.461-.616-.709-1.14-1.478-1.486-2.347-.483-1.214-.982-3.11-2.088-3.153-2.012-.081-3.698 2.213-3.898 3.873-.249 2.06.526 4.215 1.728 5.856 1.703 2.323 2.481 7.728 2.102 8.083-.465.436-1.593-.238-4.118-1.507a.304.304 0 0 0 .007-.008c-4.854-2.761-14.267-6.615-19.115-8.135-3.346-1.05-8.149-1.694-10.152.443-.443.473-.374 1.188.463 2.115-3.965-1.646-6.039-1.201-7.125.204-1.158 1.5.688 3.748 3.457 5.711-1.004-.16-1.715.319-2.157 1.885-.418 1.48 1.341 3.405 3.666 5.21-1.57.219-3.148 2.835 2.238 7.662 5.03 4.506 8.811 8.283 12.566 10.25v-.017c2.197 2.091 4.492 3.766 7.101 5.433 2.85 1.822 5.788 3.706 9.12 4.66 4.367 1.25 8.71.514 12.507-1.45a232.507 232.507 0 0 0 3.561-3.849c1.625-1.806 3.218-3.648 4.69-5.582a53.134 53.134 0 0 0 2.029-2.844l.066-.098c.098-.202.218-.447.39-.787.268-.528.564-1.028.874-1.512.071-.296.137-.592.194-.888 1.633-8.565-3.176-16.766-9.25-22.43z"/>
        <path fill="#D38873" d="M51.928 136.862a194.193 194.193 0 0 0-3.804-3.431c.038.108.07.217.108.325.454.41.915.811 1.362 1.228 5.747 5.36 13.513 16.377 7.253 24.136-1.384 1.715-3.379 3.137-3.917 5.225-.248.962-.15 1.963-.31 2.94-.582 3.54-4.724 5.566-7.899 6.713-3.297 1.191-6.874 1.374-10.188.426-3.332-.953-6.27-2.838-9.12-4.66a57.798 57.798 0 0 1-3.447-2.371c1.801 1.559 3.688 2.912 5.781 4.25 2.85 1.822 5.788 3.706 9.12 4.66 11.242 3.216 22.34-6.677 24.31-17.01 1.634-8.565-3.175-16.766-9.249-22.43z"/>
        <path fill="#FFF" d="M27.884 148.847c-5.44 7.706-4.439 12.93-4.439 12.93s1.7-3.71 5.52-10.007c3.82-6.297 8.723-8.692 8.723-8.692s-4.364-1.937-9.804 5.769z" opacity=".14"/>
        <path fill="#2A2A2A" d="M155.908 140.203c-11.993 7.363-18.408 20.208-28.516 35.767-12.428 19.13-19.16 26.854-22.589 29.498-8.43-5.508-21.095-21.447-29.844-35.772a3020.13 3020.13 0 0 0-1.48-2.42l-27.552 20.098c.269.443 6.703 10.97 15.71 22.36 13.58 17.17 24.62 26.132 36.082 29.728a23.87 23.87 0 0 0 7.183 1.112c17.513 0 33.89-19.303 47.878-38.883 12.862-18.005 23.265-36.403 23.7-37.177 0 0-13.787-28.476-20.572-24.31z"/>
        <path fill="#2D2C2C" d="M139.923 346.722c4.602 11.056 97.633 4.41 97.633 4.41l1.58-34.567-100.057.58s-2.683 21.103.844 29.577z"/>
        <path fill="#2D2C2C" d="M177.42 343.826l-38.922-12.241c-.613 7.862-1.484 78.296 11.948 192.415h37.559C173.9 402.015 177.294 344.258 177.42 343.826z"/>
        <path fill="#000" d="M138.185 328.64c7.741 3.243 17.053 4.98 24.61 6.561 11.87 2.485 23.941 3.607 36.055 4.234 13.096.677 26.174.904 39.22.443l1.066-23.314-100.057.58s-.66 5.214-.894 11.495z" opacity=".23"/>
        <path fill="#2D2C2C" d="M237.556 351.131l-41.124-3.811c-1.024 7.82.607 64 8.855 176.68h37.58c-6.94-113.645-5.458-172.447-5.31-172.869z"/>
        <path fill="#000" d="M167.073 440.741c-8.861 1.45-18.545-2.075-24.225-9.065a27.371 27.371 0 0 1-1.28-1.727c1.847 26.642 4.66 58.197 8.881 94.051h37.556c-4.028-34.847-6.633-64.465-8.29-88.99-3.55 2.95-7.844 4.946-12.642 5.731zM205.135 437.468a24.062 24.062 0 0 1-5.953-6.123c1.42 25.034 3.411 55.839 6.106 92.655h37.58c-2.192-35.89-3.546-66.327-4.365-91.164-7.99 9.8-22.95 12.079-33.368 4.632z" opacity=".16"/>
        <path fill="#DED9D8" d="M163.655 138.285c-.235 19.634-.622 39.123 2.773 58.62 3.961 22.75 8.414 55.457 13.38 78.009.084.38.17.757.253 1.136 15.433-42.064 33.11-93.956 52.067-134.56-9.234-8.156-20.713-11.76-36.788-11.547-12.246.162-22.81 3.165-31.685 8.342z"/>
        <path fill="#FF930C" d="M188.79 153.901s-26.39 25.534-16.86 81.732c9.529 56.199 21.868-12.705 21.868-12.705s3.055-55.588-.61-67.927l-4.399-1.1z"/>
        <path fill="#E09178" d="M195.936 100.972l-3.042-.036c-6.57-.079-12.017 4.726-12.104 10.679l-2.725 31.174c-.087 5.953 7.488 10.816 14.058 10.894l3.042.037c6.57.079 14.191-6.694 14.278-12.646l-1.72-29.136c.087-5.953-5.217-10.887-11.787-10.966z"/>
        <path fill="#D78C74" d="M153.786 70.109c-4.064 1.338-5.891 7.274-4.08 13.259 1.81 5.985 6.574 9.752 10.638 8.414 4.065-1.338 5.892-7.274 4.08-13.259-1.81-5.985-6.573-9.752-10.638-8.414z"/>
        <path fill="#381911" d="M179.925 16.216s-.006-.068-.021-.182c.011.117.02.182.02.182z"/>
        <path fill="#E5A185" d="M229.783 78.4c.046-14.562-2.083-32.978-5.048-43.82-2.293-14.1-42.072-20.764-53.791-1.402-3.734 8.98-9.81 25.74-11.832 42.385 0-.179.006-.285.006-.285s-10.832 44.273 28.562 47.026c39.394 2.753 43.78-18.023 42.105-43.908l-.002.004z"/>
        <g opacity=".38" transform="translate(158 68)">
            <ellipse cx="14.883" cy="15.883" fill="#E5A185" rx="15.425" ry="14.162" transform="rotate(-89.209 14.883 15.883)"/>
            <path fill="#E5A084" d="M15.094.556C7.323.449.928 7.225.811 15.69c-.116 8.465 6.09 15.414 13.861 15.52 7.772.108 14.167-6.668 14.283-15.133.117-8.465-6.09-15.414-13.86-15.521z"/>
            <ellipse cx="14.883" cy="15.883" fill="#E59F83" rx="15.233" ry="13.985" transform="rotate(-89.21 14.883 15.883)"/>
            <ellipse cx="14.883" cy="15.883" fill="#E49E83" rx="15.136" ry="13.896" transform="rotate(-89.21 14.883 15.883)"/>
            <ellipse cx="14.883" cy="15.883" fill="#E49D82" rx="15.04" ry="13.808" transform="rotate(-89.208 14.883 15.883)"/>
            <ellipse cx="14.883" cy="15.883" fill="#E49C81" rx="14.943" ry="13.719" transform="rotate(-89.211 14.883 15.883)"/>
            <path fill="#E49B80" d="M15.087 1.038C7.56.934 1.367 7.497 1.254 15.696c-.113 8.199 5.897 14.93 13.425 15.033 7.527.104 13.72-6.46 13.834-14.658.112-8.199-5.898-14.93-13.426-15.033z"/>
            <path fill="#E49A80" d="M15.086 1.134C7.608 1.031 1.454 7.551 1.342 15.697 1.23 23.843 7.202 30.53 14.68 30.633c7.479.103 13.632-6.418 13.744-14.563.112-8.146-5.86-14.833-13.338-14.936z"/>
            <path fill="#E3997F" d="M15.085 1.23C7.655 1.129 1.542 7.607 1.43 15.699c-.112 8.093 5.82 14.736 13.25 14.838 7.43.103 13.543-6.375 13.655-14.468.11-8.092-5.822-14.735-13.251-14.837z"/>
            <path fill="#E3987E" d="M15.084 1.327C7.703 1.226 1.63 7.66 1.519 15.699c-.11 8.04 5.783 14.64 13.164 14.74 7.38.102 13.453-6.332 13.564-14.372.11-8.039-5.783-14.638-13.163-14.74z"/>
            <path fill="#E3977D" d="M15.082 1.423C7.75 1.323 1.718 7.715 1.608 15.701c-.11 7.986 5.744 14.541 13.076 14.642 7.332.101 13.365-6.29 13.475-14.277.11-7.986-5.745-14.542-13.077-14.643z"/>
            <path fill="#E3967C" d="M15.08 1.52C7.799 1.42 1.806 7.77 1.697 15.702c-.109 7.933 5.706 14.445 12.99 14.545 7.282.1 13.275-6.25 13.384-14.182.11-7.933-5.706-14.445-12.99-14.545z"/>
            <path fill="#E2957C" d="M15.08 1.616c-7.235-.1-13.187 6.208-13.295 14.087-.109 7.88 5.668 14.348 12.902 14.447 7.234.1 13.186-6.207 13.295-14.086.108-7.88-5.668-14.348-12.902-14.448z"/>
            <path fill="#E2947B" d="M15.078 1.713c-7.185-.1-13.097 6.165-13.205 13.991-.107 7.827 5.63 14.251 12.815 14.35 7.185.1 13.097-6.165 13.205-13.992.108-7.826-5.63-14.25-12.815-14.35z"/>
            <path fill="#E2937A" d="M15.077 1.809C7.94 1.711 2.069 7.933 1.962 15.705 1.855 23.48 7.553 29.86 14.689 29.958c7.137.098 13.009-6.124 13.116-13.897.106-7.773-5.592-14.154-12.728-14.252z"/>
            <path fill="#E29279" d="M15.076 1.905C7.988 1.808 2.156 7.987 2.05 15.707c-.106 7.72 5.553 14.057 12.64 14.154 7.088.098 12.92-6.081 13.026-13.801.106-7.72-5.553-14.057-12.64-14.155z"/>
            <path fill="#E29179" d="M15.074 2.002C8.036 1.905 2.244 8.042 2.14 15.708c-.106 7.666 5.515 13.96 12.553 14.057 7.039.097 12.83-6.04 12.936-13.706.105-7.667-5.515-13.96-12.554-14.057z"/>
            <path fill="#E19078" d="M15.073 2.098C8.083 2.002 2.333 8.096 2.227 15.71c-.105 7.614 5.477 13.863 12.466 13.96 6.99.096 12.741-5.998 12.846-13.611.105-7.614-5.476-13.863-12.466-13.96z"/>
            <path fill="#E18F77" d="M15.072 2.195C8.13 2.099 2.42 8.15 2.316 15.71c-.104 7.56 5.438 13.767 12.379 13.862 6.94.096 12.651-5.956 12.756-13.516.104-7.56-5.439-13.766-12.38-13.861z"/>
            <ellipse cx="14.883" cy="15.883" fill="#E18E76" rx="13.594" ry="12.48" transform="rotate(-89.21 14.883 15.883)"/>
            <path fill="#E18D75" d="M15.069 2.387C8.226 2.293 2.595 8.26 2.493 15.713c-.103 7.453 5.361 13.572 12.204 13.666 6.843.095 12.474-5.872 12.576-13.325C27.376 8.6 21.912 2.482 15.07 2.387z"/>
            <ellipse cx="14.883" cy="15.883" fill="#E18C75" rx="13.401" ry="12.303" transform="rotate(-89.211 14.883 15.883)"/>
            <ellipse cx="14.883" cy="15.883" fill="#E08B74" rx="13.304" ry="12.214" transform="rotate(-89.211 14.883 15.883)"/>
            <path fill="#E08A73" d="M15.065 2.677C8.369 2.585 2.859 8.423 2.758 15.717c-.1 7.293 5.247 13.281 11.943 13.373 6.697.092 12.207-5.746 12.307-13.04.1-7.294-5.247-13.281-11.943-13.373z"/>
            <ellipse cx="14.883" cy="15.883" fill="#E08972" rx="13.112" ry="12.037" transform="rotate(-89.212 14.883 15.883)"/>
            <path fill="#E08872" d="M15.062 2.87C8.464 2.778 3.034 8.531 2.935 15.718c-.099 7.187 5.17 13.088 11.769 13.178 6.599.091 12.028-5.662 12.127-12.85C26.93 8.86 21.661 2.96 15.062 2.87z"/>
            <path fill="#DF8771" d="M15.061 2.966c-6.55-.09-11.939 5.62-12.037 12.754-.098 7.134 5.132 12.99 11.681 13.081 6.55.09 11.94-5.62 12.037-12.754.099-7.135-5.131-12.991-11.681-13.081z"/>
            <path fill="#DF8670" d="M15.06 3.062C8.559 2.972 3.21 8.64 3.112 15.722c-.097 7.08 5.094 12.893 11.595 12.983 6.5.09 11.85-5.579 11.947-12.66.097-7.08-5.094-12.893-11.594-12.983z"/>
            <ellipse cx="14.883" cy="15.883" fill="#DF856F" rx="12.726" ry="11.683" transform="rotate(-89.212 14.883 15.883)"/>
            <path fill="#DF846F" d="M15.057 3.255C8.654 3.167 3.385 8.749 3.289 15.724c-.096 6.974 5.017 12.7 11.42 12.788 6.403.088 11.672-5.495 11.768-12.469.096-6.975-5.017-12.7-11.42-12.788z"/>
            <path fill="#DF836E" d="M15.056 3.351C8.7 3.264 3.473 8.804 3.378 15.725c-.095 6.921 4.979 12.603 11.333 12.69 6.354.088 11.582-5.452 11.677-12.373.096-6.921-4.978-12.603-11.332-12.69z"/>
            <path fill="#DE826D" d="M15.054 3.448C8.75 3.36 3.561 8.858 3.466 15.726c-.094 6.868 4.94 12.506 11.246 12.593 6.305.087 11.493-5.41 11.588-12.279.094-6.867-4.94-12.505-11.246-12.592z"/>
            <path fill="#DE816C" d="M15.053 3.544C8.797 3.458 3.649 8.913 3.555 15.728c-.094 6.814 4.902 12.408 11.158 12.495 6.257.086 11.405-5.369 11.498-12.184.094-6.814-4.901-12.409-11.158-12.495z"/>
            <ellipse cx="14.883" cy="15.883" fill="#DE806B" rx="12.244" ry="11.241" transform="rotate(-89.212 14.883 15.883)"/>
            <path fill="#DE7F6B" d="M15.05 3.737C8.892 3.652 3.824 9.022 3.732 15.73c-.093 6.708 4.825 12.215 10.984 12.3 6.159.085 11.226-5.285 11.318-11.993.093-6.708-4.825-12.215-10.984-12.3z"/>
            <path fill="#DE7E6A" d="M15.049 3.833C8.939 3.75 3.912 9.076 3.82 15.731 3.73 22.386 8.607 27.85 14.717 27.933c6.11.085 11.137-5.242 11.229-11.897.092-6.655-4.787-12.118-10.897-12.203z"/>
            <ellipse cx="14.883" cy="15.883" fill="#DD7D69" rx="11.955" ry="10.975" transform="rotate(-89.212 14.883 15.883)"/>
            <ellipse cx="14.883" cy="15.883" fill="#DD7C68" rx="11.858" ry="10.887" transform="rotate(-89.212 14.883 15.883)"/>
            <path fill="#DD7B68" d="M15.045 4.123C9.082 4.04 4.175 9.239 4.085 15.735c-.089 6.495 4.673 11.827 10.636 11.91 5.963.081 10.87-5.118 10.96-11.613.089-6.495-4.673-11.827-10.636-11.91z"/>
            <path fill="#DD7A67" d="M15.044 4.219c-5.915-.081-10.78 5.075-10.87 11.517-.088 6.442 4.634 11.73 10.549 11.812 5.914.081 10.78-5.075 10.869-11.517.089-6.442-4.634-11.73-10.548-11.812z"/>
            <ellipse cx="14.883" cy="15.883" fill="#DD7A66" rx="11.569" ry="10.621" transform="rotate(-89.211 14.883 15.883)"/>
            <ellipse cx="14.883" cy="15.883" fill="#DC7965" rx="11.473" ry="10.533" transform="rotate(-89.211 14.883 15.883)"/>
            <path fill="#DC7864" d="M15.04 4.508c-5.768-.08-10.514 4.95-10.6 11.232-.087 6.282 4.519 11.44 10.287 11.519 5.767.079 10.513-4.95 10.6-11.232.086-6.282-4.52-11.44-10.287-11.519z"/>
            <path fill="#DC7764" d="M15.038 4.605C9.32 4.525 4.614 9.512 4.528 15.74c-.085 6.229 4.481 11.342 10.2 11.421 5.719.079 10.424-4.907 10.51-11.136.086-6.23-4.48-11.343-10.2-11.421z"/>
            <path fill="#DC7663" d="M15.037 4.701c-5.67-.078-10.335 4.865-10.42 11.041-.085 6.176 4.442 11.246 10.112 11.324 5.67.078 10.335-4.865 10.42-11.041.085-6.176-4.442-11.246-10.112-11.324z"/>
            <ellipse cx="14.883" cy="15.883" fill="#DB7562" rx="11.087" ry="10.179" transform="rotate(-89.211 14.883 15.883)"/>
            <path fill="#DB7461" d="M15.034 4.894c-5.572-.077-10.157 4.781-10.24 10.85-.084 6.07 4.366 11.052 9.938 11.129 5.572.077 10.157-4.781 10.24-10.85.084-6.07-4.365-11.052-9.938-11.13z"/>
            <ellipse cx="14.883" cy="15.883" fill="#DB7361" rx="10.894" ry="10.002" transform="rotate(-89.212 14.883 15.883)"/>
            <path fill="#DB7260" d="M15.032 5.087C9.557 5.01 5.053 9.784 4.97 15.747c-.082 5.963 4.29 10.858 9.763 10.933 5.475.075 9.98-4.697 10.061-10.66.083-5.963-4.289-10.858-9.763-10.933z"/>
            <ellipse cx="14.883" cy="15.883" fill="#DB715F" rx="10.701" ry="9.825" transform="rotate(-89.213 14.883 15.883)"/>
            <path fill="#DA705E" d="M15.03 5.28c-5.378-.075-9.802 4.613-9.882 10.47-.08 5.856 4.213 10.663 9.59 10.737 5.376.074 9.8-4.613 9.88-10.47.081-5.856-4.212-10.663-9.589-10.738z"/>
            <path fill="#DA6F5D" d="M15.028 5.376C9.7 5.302 5.316 9.947 5.236 15.75c-.08 5.803 4.175 10.567 9.502 10.64 5.328.073 9.712-4.572 9.792-10.375.08-5.803-4.174-10.567-9.502-10.64z"/>
            <ellipse cx="14.883" cy="15.883" fill="#DA6E5D" rx="10.412" ry="9.559" transform="rotate(-89.212 14.883 15.883)"/>
            <path fill="#DA6D5C" d="M15.025 5.569c-5.23-.072-9.533 4.487-9.612 10.184-.078 5.697 4.098 10.373 9.328 10.445 5.23.072 9.533-4.488 9.612-10.184.078-5.697-4.098-10.373-9.328-10.445z"/>
            <path fill="#DA6C5B" d="M15.024 5.665c-5.181-.071-9.444 4.446-9.522 10.09-.078 5.643 4.06 10.275 9.24 10.347 5.182.071 9.445-4.446 9.522-10.09.078-5.643-4.059-10.276-9.24-10.347z"/>
            <ellipse cx="14.883" cy="15.883" fill="#D96B5A" rx="10.123" ry="9.294" transform="rotate(-89.213 14.883 15.883)"/>
            <ellipse cx="14.883" cy="15.883" fill="#D96A5A" rx="10.027" ry="9.205" transform="rotate(-89.213 14.883 15.883)"/>
            <path fill="#D96959" d="M15.02 5.954c-5.035-.07-9.177 4.32-9.253 9.804-.075 5.484 3.945 9.985 8.98 10.055 5.034.069 9.176-4.32 9.252-9.804.075-5.484-3.945-9.985-8.98-10.055z"/>
            <path fill="#D96858" d="M15.018 6.05c-4.985-.068-9.087 4.279-9.162 9.71-.075 5.43 3.906 9.888 8.892 9.956 4.985.069 9.088-4.278 9.162-9.708.075-5.43-3.906-9.889-8.892-9.957z"/>
            <path fill="#D86757" d="M15.017 6.147c-4.937-.068-8.999 4.236-9.073 9.613-.074 5.378 3.868 9.792 8.805 9.86 4.937.068 8.999-4.236 9.073-9.613.074-5.378-3.868-9.792-8.805-9.86z"/>
            <ellipse cx="14.883" cy="15.883" fill="#D86657" rx="9.641" ry="8.851" transform="rotate(-89.212 14.883 15.883)"/>
            <path fill="#D86556" d="M15.014 6.34c-4.839-.067-8.82 4.152-8.893 9.423-.072 5.27 3.792 9.597 8.63 9.664 4.84.067 8.821-4.152 8.894-9.423.072-5.27-3.792-9.597-8.63-9.664z"/>
            <ellipse cx="14.883" cy="15.883" fill="#D86455" rx="9.448" ry="8.674" transform="rotate(-89.214 14.883 15.883)"/>
            <path fill="#D86354" d="M15.012 6.533C10.27 6.467 6.37 10.6 6.298 15.765c-.07 5.164 3.715 9.404 8.456 9.47 4.742.064 8.643-4.07 8.714-9.233.071-5.165-3.715-9.404-8.456-9.47z"/>
            <path fill="#D76253" d="M15.01 6.629c-4.692-.065-8.553 4.026-8.623 9.138-.07 5.11 3.676 9.306 8.369 9.37 4.692.065 8.553-4.026 8.623-9.137.07-5.11-3.676-9.306-8.369-9.371z"/>
            <path fill="#D76153" d="M15.01 6.725c-4.644-.064-8.465 3.985-8.535 9.043-.07 5.057 3.639 9.21 8.282 9.273 4.643.064 8.464-3.984 8.534-9.042.07-5.058-3.638-9.21-8.282-9.274z"/>
            <ellipse cx="14.883" cy="15.883" fill="#D76052" rx="9.062" ry="8.32" transform="rotate(-89.214 14.883 15.883)"/>
            <ellipse cx="14.883" cy="15.883" fill="#D75F51" rx="8.966" ry="8.231" transform="rotate(-89.215 14.883 15.883)"/>
            <path fill="#D75E50" d="M15.005 7.015c-4.497-.062-8.197 3.858-8.264 8.756-.068 4.898 3.523 8.92 8.02 8.981 4.497.062 8.197-3.858 8.264-8.756.068-4.899-3.523-8.92-8.02-8.981z"/>
            <path fill="#D65D50" d="M15.004 7.111c-4.448-.061-8.108 3.817-8.175 8.661-.066 4.845 3.485 8.822 7.933 8.884 4.448.061 8.108-3.817 8.175-8.662.067-4.845-3.485-8.822-7.933-8.883z"/>
            <path fill="#D65C4F" d="M15.003 7.207c-4.4-.06-8.02 3.775-8.085 8.567-.066 4.791 3.447 8.725 7.846 8.785 4.399.06 8.018-3.774 8.084-8.566.066-4.792-3.446-8.725-7.845-8.786z"/>
            <ellipse cx="14.883" cy="15.884" fill="#D65B4E" rx="8.58" ry="7.877" transform="rotate(-89.213 14.883 15.884)"/>
            <path fill="#D65A4D" d="M15 7.4c-4.301-.059-7.84 3.691-7.905 8.376-.065 4.685 3.37 8.531 7.671 8.59 4.302.06 7.84-3.69 7.905-8.375.065-4.686-3.37-8.531-7.671-8.59z"/>
            <path fill="#D5594C" d="M14.998 7.497c-4.252-.059-7.75 3.649-7.815 8.28-.063 4.632 3.332 8.435 7.585 8.493 4.252.059 7.751-3.649 7.815-8.28.064-4.633-3.332-8.435-7.585-8.493z"/>
            <ellipse cx="14.883" cy="15.883" fill="#D5584C" rx="8.291" ry="7.612" transform="rotate(-89.215 14.883 15.883)"/>
            <path fill="#D5574B" d="M14.996 7.69c-4.155-.058-7.573 3.564-7.636 8.09-.062 4.525 3.256 8.24 7.41 8.297 4.155.058 7.574-3.565 7.636-8.09.062-4.525-3.255-8.24-7.41-8.298z"/>
            <path fill="#D5564A" d="M14.995 7.786c-4.106-.057-7.485 3.523-7.546 7.995-.062 4.472 3.217 8.143 7.323 8.2 4.105.057 7.484-3.523 7.545-7.995.062-4.472-3.217-8.144-7.322-8.2z"/>
            <path fill="#D55549" d="M14.993 7.882c-4.057-.056-7.395 3.481-7.456 7.9-.06 4.42 3.18 8.047 7.236 8.103 4.057.055 7.395-3.482 7.456-7.9.06-4.42-3.179-8.047-7.236-8.103z"/>
            <path fill="#D45449" d="M14.992 7.979c-4.008-.056-7.306 3.439-7.366 7.805-.06 4.365 3.14 7.949 7.148 8.004 4.008.055 7.306-3.439 7.366-7.805.06-4.365-3.14-7.95-7.148-8.004z"/>
            <path fill="#D45348" d="M14.99 8.075c-3.959-.054-7.216 3.397-7.276 7.71-.059 4.312 3.103 7.852 7.062 7.907 3.959.054 7.216-3.397 7.276-7.71.06-4.312-3.102-7.852-7.062-7.907z"/>
            <path fill="#D45247" d="M14.99 8.171c-3.911-.053-7.128 3.356-7.187 7.615-.059 4.26 3.064 7.755 6.974 7.81 3.91.053 7.128-3.356 7.186-7.615.059-4.26-3.063-7.756-6.974-7.81z"/>
        </g>
        <g opacity=".38" transform="translate(189 63)">
            <path fill="#E5A185" d="M22.412 5.987C13.893 5.87 6.892 12.68 6.775 21.199c-.117 8.518 6.694 15.519 15.212 15.636 8.518.117 15.519-6.693 15.636-15.212.117-8.518-6.693-15.519-15.211-15.636z"/>
            <ellipse cx="22.199" cy="21.411" fill="#E5A084" rx="15.329" ry="15.329" transform="rotate(-34.043 22.2 21.41)"/>
            <path fill="#E59F83" d="M22.409 6.18C13.997 6.064 7.084 12.79 6.968 21.2c-.116 8.412 6.61 15.325 15.021 15.441 8.412.116 15.325-6.61 15.441-15.022.116-8.411-6.61-15.324-15.021-15.44z"/>
            <path fill="#E49E83" d="M22.408 6.276c-8.36-.115-15.228 6.568-15.344 14.926-.115 8.36 6.568 15.229 14.927 15.344 8.359.115 15.228-6.568 15.343-14.927.115-8.359-6.568-15.228-14.926-15.343z"/>
            <ellipse cx="22.199" cy="21.411" fill="#E49D82" rx="15.04" ry="15.04" transform="rotate(-8.336 22.2 21.41)"/>
            <path fill="#E49C81" d="M22.405 6.469C14.153 6.355 7.37 12.953 7.257 21.205c-.113 8.252 6.484 15.034 14.736 15.148 8.253.113 15.034-6.484 15.148-14.736.114-8.253-6.484-15.035-14.736-15.148z"/>
            <path fill="#E49B80" d="M22.404 6.565c-8.2-.113-14.938 6.442-15.05 14.641-.113 8.2 6.442 14.938 14.64 15.05 8.2.113 14.938-6.442 15.05-14.64.114-8.2-6.442-14.938-14.64-15.05z"/>
            <ellipse cx="22.199" cy="21.411" fill="#E49A80" rx="14.751" ry="14.751" transform="rotate(-19.226 22.2 21.41)"/>
            <ellipse cx="22.199" cy="21.411" fill="#E3997F" rx="14.654" ry="14.654" transform="rotate(-43.99 22.2 21.41)"/>
            <ellipse cx="22.199" cy="21.411" fill="#E3987E" rx="14.558" ry="14.558" transform="rotate(-51.367 22.2 21.41)"/>
            <ellipse cx="22.199" cy="21.411" fill="#E3977D" rx="14.461" ry="14.461" transform="rotate(-42.647 22.2 21.41)"/>
            <ellipse cx="22.199" cy="21.411" fill="#E3967C" rx="14.365" ry="14.365" transform="rotate(-44.052 22.2 21.41)"/>
            <path fill="#E2957C" d="M22.396 7.144c-7.88-.109-14.356 6.19-14.464 14.07-.109 7.88 6.191 14.356 14.07 14.464 7.88.108 14.356-6.191 14.464-14.07.109-7.88-6.191-14.356-14.07-14.464z"/>
            <ellipse cx="22.199" cy="21.411" fill="#E2947B" rx="14.172" ry="14.172" transform="rotate(-56.294 22.2 21.41)"/>
            <ellipse cx="22.199" cy="21.411" fill="#E2937A" rx="14.076" ry="14.076" transform="rotate(-7.549 22.2 21.41)"/>
            <ellipse cx="22.199" cy="21.411" fill="#E29279" rx="13.979" ry="13.979" transform="rotate(-44.362 22.2 21.41)"/>
            <ellipse cx="22.199" cy="21.411" fill="#E29179" rx="13.883" ry="13.883" transform="rotate(-61.521 22.2 21.41)"/>
            <path fill="#E19078" d="M22.389 7.626C14.775 7.52 8.519 13.608 8.414 21.22c-.105 7.613 5.982 13.87 13.595 13.975 7.614.105 13.87-5.982 13.975-13.595.105-7.614-5.982-13.87-13.595-13.975z"/>
            <ellipse cx="22.199" cy="21.411" fill="#E18F77" rx="13.69" ry="13.69" transform="rotate(-38.702 22.2 21.41)"/>
            <ellipse cx="22.199" cy="21.411" fill="#E18E76" rx="13.594" ry="13.594" transform="rotate(-33.548 22.2 21.41)"/>
            <path fill="#E18D75" d="M22.385 7.915c-7.454-.103-13.58 5.856-13.682 13.31-.102 7.454 5.857 13.58 13.31 13.682 7.454.102 13.58-5.857 13.682-13.31.103-7.454-5.856-13.58-13.31-13.682z"/>
            <path fill="#E18C75" d="M22.384 8.011C14.984 7.91 8.9 13.826 8.8 21.226c-.102 7.4 5.814 13.483 13.215 13.584 7.4.102 13.482-5.814 13.584-13.215.102-7.4-5.815-13.482-13.215-13.584z"/>
            <ellipse cx="22.199" cy="21.411" fill="#E08B74" rx="13.304" ry="13.304" transform="rotate(-20.061 22.2 21.41)"/>
            <path fill="#E08A73" d="M22.381 8.204c-7.294-.1-13.288 5.731-13.389 13.025-.1 7.294 5.732 13.288 13.025 13.389 7.294.1 13.288-5.731 13.389-13.025.1-7.294-5.731-13.289-13.025-13.389z"/>
            <path fill="#E08972" d="M22.38 8.3c-7.241-.1-13.192 5.69-13.291 12.93-.1 7.241 5.69 13.192 12.93 13.291 7.24.1 13.19-5.689 13.29-12.93.1-7.24-5.689-13.19-12.93-13.29z"/>
            <ellipse cx="22.199" cy="21.411" fill="#E08872" rx="13.015" ry="13.015" transform="rotate(-29.845 22.2 21.41)"/>
            <path fill="#DF8771" d="M22.377 8.493C15.243 8.395 9.38 14.1 9.282 21.233c-.099 7.134 5.605 12.997 12.74 13.095 7.133.099 12.996-5.605 13.095-12.74.098-7.134-5.606-12.997-12.74-13.095z"/>
            <path fill="#DF8670" d="M22.376 8.59c-7.081-.098-12.9 5.563-12.998 12.644-.098 7.081 5.564 12.9 12.645 12.998 7.08.097 12.9-5.564 12.997-12.645.098-7.08-5.564-12.9-12.644-12.997z"/>
            <path fill="#DF856F" d="M22.374 8.686c-7.027-.097-12.803 5.522-12.9 12.55-.096 7.027 5.522 12.803 12.55 12.9 7.028.096 12.803-5.522 12.9-12.55.097-7.028-5.522-12.803-12.55-12.9z"/>
            <ellipse cx="22.199" cy="21.411" fill="#DF846F" rx="12.63" ry="12.63" transform="rotate(-41.073 22.2 21.41)"/>
            <ellipse cx="22.199" cy="21.411" fill="#DF836E" rx="12.533" ry="12.533" transform="rotate(-44.318 22.2 21.41)"/>
            <path fill="#DE826D" d="M22.37 8.975C15.502 8.881 9.858 14.372 9.764 21.24c-.095 6.868 5.396 12.512 12.264 12.606 6.868.095 12.512-5.396 12.607-12.264.094-6.868-5.397-12.512-12.265-12.607z"/>
            <path fill="#DE816C" d="M22.37 9.072C15.553 8.978 9.953 14.426 9.86 21.24c-.094 6.815 5.355 12.415 12.17 12.509 6.814.094 12.414-5.354 12.508-12.17.094-6.814-5.354-12.415-12.169-12.508z"/>
            <ellipse cx="22.199" cy="21.411" fill="#DE806B" rx="12.244" ry="12.244" transform="rotate(-44.343 22.2 21.41)"/>
            <path fill="#DE7F6B" d="M22.366 9.265c-6.708-.093-12.22 5.27-12.313 11.979-.092 6.708 5.27 12.22 11.979 12.313 6.708.093 12.221-5.27 12.313-11.979.093-6.708-5.27-12.221-11.979-12.313z"/>
            <path fill="#DE7E6A" d="M22.365 9.36c-6.655-.09-12.124 5.23-12.216 11.885-.091 6.655 5.23 12.124 11.884 12.216 6.655.091 12.124-5.23 12.216-11.884.092-6.655-5.229-12.125-11.884-12.216z"/>
            <path fill="#DD7D69" d="M22.364 9.457c-6.602-.09-12.028 5.188-12.118 11.79-.091 6.601 5.187 12.026 11.789 12.117 6.601.091 12.027-5.187 12.118-11.789.09-6.601-5.188-12.027-11.79-12.118z"/>
            <path fill="#DD7C68" d="M22.362 9.554c-6.548-.09-11.93 5.145-12.02 11.694-.09 6.548 5.145 11.93 11.694 12.02 6.548.09 11.93-5.145 12.02-11.694.09-6.549-5.145-11.93-11.694-12.02z"/>
            <path fill="#DD7B68" d="M22.361 9.65c-6.495-.09-11.833 5.104-11.923 11.599-.089 6.495 5.104 11.833 11.6 11.923 6.495.089 11.832-5.104 11.922-11.6.09-6.495-5.104-11.832-11.599-11.922z"/>
            <path fill="#DD7A67" d="M22.36 9.746c-6.442-.088-11.737 5.062-11.825 11.504-.089 6.442 5.062 11.736 11.504 11.825 6.442.089 11.736-5.062 11.824-11.504.09-6.442-5.061-11.736-11.503-11.825z"/>
            <path fill="#DD7A66" d="M22.358 9.843c-6.388-.088-11.639 5.02-11.727 11.409-.088 6.388 5.02 11.639 11.409 11.727 6.389.088 11.64-5.02 11.727-11.409.088-6.389-5.02-11.64-11.409-11.727z"/>
            <path fill="#DC7965" d="M22.357 9.94c-6.336-.088-11.542 4.977-11.63 11.313-.087 6.336 4.979 11.542 11.314 11.63 6.336.087 11.542-4.979 11.63-11.314.087-6.336-4.978-11.543-11.314-11.63z"/>
            <path fill="#DC7864" d="M22.356 10.036c-6.283-.087-11.446 4.936-11.532 11.218-.087 6.283 4.936 11.445 11.218 11.532 6.283.086 11.446-4.936 11.532-11.219.087-6.282-4.936-11.445-11.218-11.531z"/>
            <path fill="#DC7764" d="M22.354 10.132c-6.229-.086-11.348 4.894-11.434 11.124-.085 6.229 4.895 11.348 11.124 11.434 6.229.085 11.348-4.895 11.434-11.124.086-6.229-4.895-11.348-11.124-11.434z"/>
            <path fill="#DC7663" d="M22.353 10.229c-6.176-.085-11.251 4.852-11.336 11.028-.085 6.176 4.852 11.251 11.028 11.336 6.176.085 11.252-4.852 11.336-11.028.085-6.176-4.852-11.252-11.028-11.336z"/>
            <path fill="#DB7562" d="M22.352 10.325c-6.123-.084-11.154 4.81-11.239 10.933-.084 6.123 4.811 11.155 10.934 11.239 6.122.084 11.154-4.81 11.238-10.934.084-6.122-4.81-11.154-10.933-11.238z"/>
            <path fill="#DB7461" d="M22.35 10.421c-6.069-.083-11.057 4.77-11.14 10.838-.084 6.07 4.768 11.058 10.838 11.141 6.07.084 11.057-4.768 11.14-10.838.084-6.07-4.768-11.057-10.838-11.14z"/>
            <path fill="#DB7361" d="M22.35 10.518c-6.017-.083-10.961 4.727-11.044 10.743-.083 6.016 4.727 10.96 10.743 11.043 6.016.083 10.96-4.727 11.043-10.743.083-6.016-4.727-10.96-10.743-11.043z"/>
            <path fill="#DB7260" d="M22.348 10.614c-5.963-.082-10.864 4.685-10.946 10.648-.082 5.963 4.686 10.864 10.648 10.946 5.963.082 10.864-4.686 10.946-10.648.082-5.964-4.685-10.864-10.648-10.946z"/>
            <path fill="#DB715F" d="M22.346 10.71c-5.91-.08-10.766 4.644-10.847 10.553-.082 5.91 4.643 10.767 10.553 10.848 5.91.082 10.766-4.643 10.847-10.553.082-5.91-4.643-10.766-10.553-10.847z"/>
            <path fill="#DA705E" d="M22.345 10.807c-5.856-.08-10.67 4.602-10.75 10.458-.08 5.856 4.602 10.67 10.458 10.75 5.857.08 10.67-4.602 10.75-10.458.08-5.857-4.602-10.67-10.458-10.75z"/>
            <path fill="#DA6F5D" d="M22.344 10.903c-5.803-.08-10.573 4.56-10.652 10.363-.08 5.803 4.56 10.573 10.363 10.652 5.803.08 10.572-4.56 10.652-10.363.08-5.803-4.56-10.572-10.363-10.652z"/>
            <path fill="#DA6E5D" d="M22.342 11c-5.75-.08-10.475 4.518-10.554 10.268-.08 5.75 4.518 10.475 10.268 10.554 5.75.08 10.475-4.518 10.554-10.268.08-5.75-4.518-10.475-10.268-10.554z"/>
            <path fill="#DA6D5C" d="M22.341 11.096c-5.697-.078-10.378 4.476-10.457 10.173-.078 5.696 4.476 10.378 10.173 10.457 5.697.078 10.378-4.476 10.457-10.173.078-5.697-4.476-10.379-10.173-10.457z"/>
            <ellipse cx="22.199" cy="21.411" fill="#DA6C5B" rx="10.219" ry="10.219" transform="rotate(-28.264 22.2 21.41)"/>
            <path fill="#D96B5A" d="M22.339 11.289c-5.59-.077-10.185 4.392-10.262 9.982-.077 5.59 4.393 10.185 9.983 10.262 5.59.077 10.184-4.392 10.261-9.983.077-5.59-4.392-10.184-9.982-10.261z"/>
            <path fill="#D96A5A" d="M22.337 11.385c-5.537-.076-10.087 4.35-10.163 9.888-.077 5.537 4.35 10.087 9.887 10.163 5.537.077 10.087-4.35 10.164-9.887.076-5.537-4.35-10.087-9.888-10.164z"/>
            <ellipse cx="22.199" cy="21.411" fill="#D96959" rx="9.93" ry="9.93" transform="rotate(-39.416 22.2 21.41)"/>
            <path fill="#D96858" d="M22.334 11.578c-5.43-.075-9.893 4.267-9.968 9.697-.074 5.431 4.267 9.894 9.698 9.969 5.43.074 9.893-4.267 9.968-9.698.075-5.43-4.267-9.893-9.698-9.968z"/>
            <path fill="#D86757" d="M22.333 11.674c-5.377-.073-9.796 4.226-9.87 9.603-.074 5.377 4.225 9.796 9.602 9.87 5.377.074 9.796-4.225 9.87-9.602.075-5.377-4.225-9.797-9.602-9.87z"/>
            <path fill="#D86657" d="M22.332 11.77c-5.324-.072-9.7 4.184-9.773 9.508a9.64 9.64 0 0 0 9.507 9.773 9.64 9.64 0 1 0 .266-19.28z"/>
            <path fill="#D86556" d="M22.33 11.867a9.544 9.544 0 1 0-.262 19.087 9.545 9.545 0 0 0 .263-19.087z"/>
            <ellipse cx="22.199" cy="21.411" fill="#D86455" rx="9.448" ry="9.448" transform="rotate(-66.437 22.2 21.41)"/>
            <path fill="#D86354" d="M22.328 12.06a9.352 9.352 0 1 0-.258 18.702 9.352 9.352 0 0 0 .258-18.702z"/>
            <path fill="#D76253" d="M22.327 12.157a9.255 9.255 0 1 0-.255 18.508 9.255 9.255 0 1 0 .255-18.508z"/>
            <circle cx="22.199" cy="21.411" r="9.159" fill="#D76153"/>
            <ellipse cx="22.199" cy="21.411" fill="#D76052" rx="9.062" ry="9.062" transform="rotate(-63.958 22.2 21.41)"/>
            <path fill="#D75F51" d="M22.323 12.446a8.966 8.966 0 1 0-.247 17.93 8.966 8.966 0 0 0 .247-17.93z"/>
            <path fill="#D75E50" d="M22.321 12.542a8.87 8.87 0 1 0-.244 17.738 8.87 8.87 0 0 0 .244-17.738z"/>
            <ellipse cx="22.199" cy="21.411" fill="#D65D50" rx="8.773" ry="8.773" transform="rotate(-44.498 22.2 21.41)"/>
            <path fill="#D65C4F" d="M22.319 12.735a8.677 8.677 0 1 0-.24 17.352 8.677 8.677 0 0 0 .24-17.352z"/>
            <ellipse cx="22.199" cy="21.411" fill="#D65B4E" rx="8.58" ry="8.58" transform="rotate(-20.019 22.2 21.41)"/>
            <path fill="#D65A4D" d="M22.316 12.928a8.484 8.484 0 1 0-.234 16.966 8.484 8.484 0 0 0 .234-16.966z"/>
            <path fill="#D5594C" d="M22.315 13.024a8.388 8.388 0 1 0-.231 16.774 8.388 8.388 0 0 0 .23-16.774z"/>
            <ellipse cx="22.199" cy="21.411" fill="#D5584C" rx="8.291" ry="8.291" transform="rotate(-28.265 22.2 21.41)"/>
            <ellipse cx="22.199" cy="21.411" fill="#D5574B" rx="8.195" ry="8.195" transform="rotate(-53.134 22.2 21.41)"/>
            <path fill="#D5564A" d="M22.31 13.313a8.098 8.098 0 1 0-.222 16.196 8.098 8.098 0 0 0 .223-16.196z"/>
            <path fill="#D55549" d="M22.31 13.41a8.002 8.002 0 1 0-.221 16.002 8.002 8.002 0 0 0 .22-16.002z"/>
            <path fill="#D45449" d="M22.308 13.506a7.906 7.906 0 1 0-.218 15.81 7.906 7.906 0 0 0 .218-15.81z"/>
            <path fill="#D45348" d="M22.307 13.603a7.81 7.81 0 1 0-.215 15.616 7.81 7.81 0 0 0 .215-15.616z"/>
            <ellipse cx="22.199" cy="21.411" fill="#D45247" rx="7.713" ry="7.713" transform="rotate(-34.396 22.2 21.41)"/>
        </g>
        <path fill="#E5A185" d="M238.25 71.271c-4.026-1.449-8.89 2.186-10.866 8.119-1.975 5.933-.312 11.917 3.714 13.366 4.026 1.45 8.891-2.186 10.866-8.118 1.975-5.933.313-11.918-3.714-13.367z"/>
        <path fill="#D78C74" d="M238.68 85.28c-3.912 2.493-8.07 1.679-11.077-.78.07 4.994-1.009 14.467-8.187 24.12-5.763 7.75-18.198 10.296-27.43 9.942-22.029-.842-27.812-7.584-32.328-16.678 3.092 9.972 10.7 19.21 28.022 20.42 32.095 2.243 40.953-11.133 42.227-30.165.372.25.765.464 1.191.617 4.026 1.45 8.891-2.186 10.866-8.118.51-1.53.773-3.06.82-4.517a9.957 9.957 0 0 1-4.104 5.158z"/>
        <path fill="#D78C74" d="M231.577 82.035l3.685.532c-.026-5.813 4.288-7.74 4.288-7.74-6.998-2.538-7.973 7.208-7.973 7.208z"/>
        <path fill="#FFF" d="M212.873 67.318c-8.194-.642-11.166 7.106-11.166 7.106s1.33 5.143 9.943 5.262c9.965.137 10.041-4.637 10.041-4.637s-.623-7.089-8.818-7.73zM165.534 72.169s-1.296 4.811 7.438 5.264c8.734.453 9.516-2.283 9.516-2.283s-8.32-15.965-16.954-2.981z"/>
        <path fill="url(#a)" d="M177.15 69.454c-1.819-.6-4.068 1.257-5.024 4.15-.44 1.329-.515 2.635-.307 3.728.37.04.74.08 1.153.101 2.126.11 3.774.03 5.061-.153.26-.462.498-.955.678-1.5.956-2.892.257-5.725-1.561-6.326z"/>
        <path fill="#FFF" d="M174.558 73.25c-1.595 1.8 4.18 3.09 4.18 3.09l.826-.966s-3.41-3.923-5.006-2.123z" opacity=".83"/>
        <path fill="url(#b)" d="M212.324 69.939c-1.819-.601-4.068 1.256-5.024 4.149-.637 1.926-.526 3.809.147 5.04 1.16.323 2.54.534 4.196.558.931-.749 1.755-1.948 2.242-3.422.956-2.892.257-5.724-1.561-6.325z"/>
        <path fill="#FFF" d="M210.164 75.015c-1.225 2.07 4.389 2.317 4.389 2.317l.97-.867s-4.133-3.519-5.359-1.45z" opacity=".83"/>
        <path fill="#381911" d="M173.67 65.77c-6.805-.143-8.136 6.399-8.136 6.399s1.382-2.72 7.36-2.876c5.976-.158 9.594 5.857 9.594 5.857s.21-9.188-8.817-9.38z"/>
        <path fill="#422E26" d="M166.927 58.212l.534 3.041c6.05-3.569 19.094-4.717 19.094-4.717l.459-7.49c-14.563 1.212-20.087 9.166-20.087 9.166zM204.045 48.836l-1.652 6.648s15.325 3.11 20.207 6.869l1.183-2.888s-5.591-8.477-19.738-10.629z"/>
        <path fill="#381911" d="M212.555 66.902c-9.17-.214-10.848 7.522-10.848 7.522s2.773-4.041 10.881-3.488c8.108.552 9.1 4.393 9.1 4.393s.038-8.212-9.133-8.427z"/>
        <path fill="#6C332E" d="M193.162 95.854c-15.45.234-17.26-3.147-17.26-3.147s-3.162 12.523 15.613 12.66c17.937.13 16.077-11.763 15.96-12.422.037.304-.13 2.693-14.313 2.909z"/>
        <path fill="#6C332E" d="M207.47 92.913l.005.032c-.002-.021-.005-.032-.005-.032z"/>
        <path fill="#FFF" d="M203.974 94.909c-2.102.472-5.457.863-10.812.945-7.205.11-11.442-.568-13.914-1.321a56.864 56.864 0 0 1-1.229 6.433c2.124 2.373 6.107 4.347 13.496 4.401 7.786.057 11.84-2.153 13.927-4.725a40.925 40.925 0 0 1-.756-2.163c-.356-1.133-.557-2.34-.712-3.57z"/>
        <path fill="#C3BBA5" d="M203.974 94.909c-2.102.472-5.457.863-10.812.945-7.205.11-11.442-.568-13.914-1.321-.092.718-.223 1.435-.347 2.152 8.173-2.182 17.856.46 26.142 4.415.14-.151.273-.304.399-.458a40.923 40.923 0 0 1-.756-2.163c-.356-1.133-.557-2.34-.712-3.57z" opacity=".35"/>
        <path fill="#E5A185" d="M187.51 79.285s-5.784-4.238-7.86 3.143c-2.076 7.381 12.636 11.818 16.705 4.111 4.07-7.706-6.435-22.141-6.435-22.141s2.054 8.874-2.41 14.887z"/>
        <path fill="#FFF" d="M187.51 79.285s-5.616-3.988-7.708 2.645c2.984.716 6.113 1.252 9.19 1.426 1.86-4.418 2.452-9.218 2.632-14.424-.419-.119-.838-.232-1.255-.356.113 3.12-.291 7.25-2.859 10.709z" opacity=".2"/>
        <path fill="#4F372D" d="M196.995 14.772c-40.81 2.706-34.876 47.938-34.876 47.938 2.43-13.45 10.834-30.132 17.26-30.463 0 0 5.58 4.566 13.937 4.735 7.475.151 17.84-5.29 17.84-5.29 7.458-.173 15.987 22.911 16.983 41.515.228 4.256 3.926-.657 3.926-.657s4.92-60.43-35.07-57.778z"/>
        <path fill="#4F372D" d="M218.326 18.294C206.258-.12 166.938 5.227 166.938 5.227c-3.814 20.895 10.795 25.605 10.795 25.605s34.043-6.068 39.195-2.432c5.151 3.636 15.209 32.853 15.209 32.853s8.703-30.495 2.287-41.712c-4.71-8.233-16.098-1.247-16.098-1.247z"/>
        <path fill="#4F372D" d="M182.15.979c.14 2.767 2.526 5.579 2.526 5.579s41.233 28.012 33.65 11.736C210.743 2.018 182.15.98 182.15.98z"/>
        <path fill="#4F372D" d="M225.008 12.693c-2.321.359-2.866 1.456-2.866 1.456 1.67-3.05.52-7.206.52-7.206-4.532 2.595-4.083 6.212-4.083 6.212-2.22-4.65-9.057-6.094-9.057-6.094.22 3.843 4.321 7.765 4.543 7.884l3.548 5.408 7.355-1.157-.726-3.282c1.2-1.708.766-3.221.766-3.221z"/>
        <path fill="#422E26" d="M168.04 21.13c-11.99 3.646-8.518 51.416-8.518 51.416 2.429-13.451 13.431-39.968 19.857-40.3 0 0-5.949-3.549-11.338-11.117z"/>
        <path fill="#FFF" d="M214.708 17.947c.019-.003.063-.008-.006-.004l.006.004zM214.71 18.045h0z" opacity=".12"/>
        <path fill="#E5912F" d="M229.78 15.836c-1.47.234-3.02.6-4.618.964-3.816.87-7.833 1.452-11.742.927-4.545-.61-8.533-2.64-12.568-4.68-2.038-1.03-4.07-2.077-6.168-2.977-4.496-1.926-9.798-3.818-14.756-3.654-2.454.08-4.858.828-7.115 1.754a15.347 15.347 0 0 0-5.08 3.395c-.538.539-.984 1.08-1.38 1.615.077 1.634.28 3.133.592 4.493.155-.127.315-.256.488-.39a15.206 15.206 0 0 1 3.035-1.728c1.203-.487 2.54-.914 4.062-1.03 5.897-.453 11.373 1.914 16.699 4.113 2.18.9 4.396 1.95 6.743 2.922 2.338.997 4.775 1.943 7.327 2.721 4.295 1.31 9.54 1.71 13.914.494.591-.164 1.176-.302 1.743-.476 2.26-.722 4.225-1.643 5.93-2.51 1.706-.877 3.165-1.678 4.453-2.281a16.177 16.177 0 0 1 2.414-.967c-1.119-1.47-2.498-2.306-3.973-2.705z" opacity=".11"/>
        <path fill="#FFF" d="M214.64 17.947l-.026.002.027-.002z" opacity=".12"/>
        <path fill="#D78C74" d="M179.5 84.49c.842 6.067 13.182 9.005 16.855 2.05.224-.424.396-.871.536-1.332-5.804 1.217-11.844.852-17.391-.717z"/>
        <path fill="#FFF" d="M191.551 167.11c-2.974-1.68-5.914-3.411-8.853-5.144-1.852 2.976-3.9 6.802-5.809 11.49 1.309.747 2.616 1.497 3.929 2.236 4.734 2.665 9.454 5.354 14.168 8.056.019-5.228-.042-10.336-.232-14.854-1.066-.597-2.139-1.183-3.203-1.784z" opacity=".13"/>
        <path fill="#333232" d="M220.427 136.011s-28.278 47.151-41.299 81.029c.447-36.773-7.83-83.418-7.83-83.418-23.694 7.604-26.327 14.294-28.902 39.235-7.337 71.066-11.97 148.514-11.97 148.514 9.254 9.284 50.194.206 50.194.206s66.897 11.647 66.073-.84c-2.172-32.922-1.405-78.667-1.791-136.76-.143-21.385-3.506-42.488-24.475-47.966z"/>
        <path fill="#000" d="M179.128 217.04c.447-36.773-7.83-83.418-7.83-83.418-23.694 7.604-26.327 14.294-28.902 39.235-7.337 71.066-11.97 148.514-11.97 148.514 9.254 9.284 50.194.206 50.194.206-.01.782-2.765-60.582-1.492-104.537z" opacity=".11"/>
        <path fill="#FF930C" d="M185.146 141.49c-.762 0-6.497 14.049 5.842 14.66 12.34.61 9.652-14.539 9.652-14.539l-15.494-.122z"/>
        <path fill="#ECECEC" d="M208.433 123.965s-6.08 11.933-16.262 11.296c-10.183-.638-12.671-10.495-12.671-10.495-4.037 1.105-6.382 8.382-6.382 8.382-.87 10.999 7.074 23.07 7.074 23.07s6.385-14.126 11.059-13.34c4.674.785 6.974 14.862 6.974 14.862 16.615-6.77 20.494-21.092 17.02-26.013-3.41-4.829-6.812-7.762-6.812-7.762z"/>
        <path fill="#494646" d="M180.153 211.035c-1.853-30.851-7.035-77.887-7.035-77.887-6.762 1.569-14.586 5.551-14.586 5.551.531 6.68 2.117 14.297 4.003 22.28 3.324.773 10.739 1.352 10.739 1.352s-7.119 2.041-10.408 2.956c5.534 34.22 16.038 62.16 16.038 62.16 14.85-21.447 27.647-43.517 36.448-56.527-2.898-2.377-9.825-5.657-9.825-5.657s8.41 1.38 11.96 2.467c11.453-17.32 15.784-26.81 15.784-26.81-6.07-5.667-18.027-9.193-18.027-9.193-18.084 37.662-35.09 79.308-35.09 79.308z"/>
        <path fill="#2D2C2C" d="M263.59 259.102c7.393 9.375 32.273 11.9 39.665-2.344 7.392-14.243-8.474-31.01-8.474-31.01s-38.582 23.979-31.19 33.354z"/>
        <path fill="#E6E6E6" d="M270.754 258.189c4.791 4.911 15.207 8.5 24.748-1.611 9.542-10.111 0-22.717 0-22.717s-29.538 19.416-24.748 24.328z"/>
        <path fill="#000" d="M229.845 204.884l-16.797 63.674 1.19 2.442h30.957c-.177-19.577-.122-41.66-.196-66.214l-15.154.098z" opacity=".11"/>
        <path fill="#D78C74" d="M300.957 217.39c-5.087-1.271-10.041 10.684-11.11 14.544-1.067 3.86 9.675 3.333 9.675 3.333s-.526-1.105 0-5.493c.548-4.567 2.326-4.184 4.1-5.89 1.772-1.704 1.988-5.33-2.665-6.494z"/>
        <path fill="#5B3947" d="M219.845 194.783l-16.797 63.661 1.19 2.556 68.784-2.259 48.322-62.148-.164-2.572z"/>
        <path fill="#4C2A37" d="M204.239 261h68.667l48.438-64.407-100.843.62z"/>
        <path fill="#E7A387" d="M294.058 228.705c-3.898-.175-7.869-1.103-11.797-1.463-4.302-.393-8.628-.613-12.947-.41-1.258.06-2.56.167-3.661.78-1.1.613-1.942 1.868-1.683 3.101.338 1.614 2.165 3.082-.142 3.789-1.917.587-3.863.789-4.252 3.217a3.661 3.661 0 0 0 1.212 3.298c.72.615 1.728 1.005 2.061 1.89.52 1.382-.985 2.778-.861 4.249.2 2.361 3.392 2.185 4.016 4.215.275.893-.19 1.862-.043 2.784.308 1.916 3.32 3.131 4.793 4.034 3.432 2.103 6.884 4.246 11.044 3.826 2.246-.226 4.535-1.585 5.145-3.758.418-1.491.012-3.167.656-4.576 1.099-2.4 4.726-2.972 5.497-5.497.452-1.479-.288-3.096.03-4.61.556-2.635 3.825-3.619 5.43-5.782.223-.299.404-.613.547-.938 1.5-3.411-1.218-7.977-5.045-8.149z"/>
        <path fill="#D78C74" d="M295.327 228.936c-2.935 10.137-12.672 18.41-23.392 18.38-3.275-.01-6.534-.848-9.327-2.423-.304.74-.685 1.491-.62 2.263.2 2.361 3.391 2.185 4.016 4.215.275.893-.19 1.862-.043 2.784.308 1.916 3.32 3.131 4.793 4.034 3.432 2.103 6.884 4.246 11.044 3.826 2.246-.226 4.536-1.585 5.145-3.758.418-1.491.012-3.167.656-4.576 1.099-2.4 4.726-2.972 5.497-5.497.452-1.479-.288-3.096.03-4.61.556-2.635 3.825-3.619 5.43-5.782.223-.299.404-.613.547-.938 1.327-3.019-.652-6.937-3.776-7.918z"/>
    </g>
</svg>
